// EVENT 4446
Name "Cursed Doll 1"

If(0,25,1)
 221()
 PictureClear(5)
 PictureClear(6)
 ShowMessageFace("",0,0,2,0)
 ShowMessage("......")
 242(2)
 Wait(120)
 241(bytes(0x04,0x08,0x6f,0x3a,0x0d,0x52,0x50,0x47,0x3a,0x3a,0x42,0x47,0x4d,0x08,0x3a,0x0a,0x40,0x6e,0x61,0x6d,0x65,0x49,0x22,0x0c,0x63,0x61,0x73,0x74,0x6c,0x65,0x36,0x06,0x3a,0x06,0x45,0x54,0x3a,0x0c,0x40,0x76,0x6f,0x6c,0x75,0x6d,0x65,0x69,0x69,0x3a,0x0b,0x40,0x70,0x69,0x74,0x63,0x68,0x69,0x69))
 EndEventProcessing()
 0()
EndIf()
PictureDisplay(5,"80_doll_st01",0,0,0,0,100,100,255,0)
ShowMessageFace("doll_fc1",0,0,2,1)
ShowMessage("\\n<Miyabi>Big bro, let's play...")
ShowMessageFace("",0,0,2,2)
ShowMessage("\\n<Luka>Ok, let's play.\nWhat do you want to do...?")
ShowMessageFace("",0,0,2,3)
ShowMessage("I answer her politely.")
ShowMessage("I'm not even sure what this little girl wants to play...")
PictureDisplay(5,"80_doll_st02",0,0,0,0,100,100,255,0)
ShowMessageFace("doll_fc1",1,0,2,4)
ShowMessage("\\n<Miyabi>A game that feels good.\nSucking big bro's energy...")
ShowMessageFace("",0,0,2,5)
ShowMessage("\\n<Luka>Th-That's not a good game to... Uwaa!")
ShowMessageFace("",0,0,2,6)
ShowMessage("Her hair suddenly grows and tangles around my body.")
ShowMessage("Wrapped around my penis, it gives a unique feel.")
241(bytes(0x04,0x08,0x6f,0x3a,0x0d,0x52,0x50,0x47,0x3a,0x3a,0x42,0x47,0x4d,0x08,0x3a,0x0a,0x40,0x6e,0x61,0x6d,0x65,0x49,0x22,0x09,0x65,0x72,0x6f,0x31,0x06,0x3a,0x06,0x45,0x54,0x3a,0x0c,0x40,0x76,0x6f,0x6c,0x75,0x6d,0x65,0x69,0x69,0x3a,0x0b,0x40,0x70,0x69,0x74,0x63,0x68,0x69,0x69))
250(bytes(0x04,0x08,0x6f,0x3a,0x0c,0x52,0x50,0x47,0x3a,0x3a,0x53,0x45,0x08,0x3a,0x0a,0x40,0x6e,0x61,0x6d,0x65,0x49,0x22,0x0e,0x6d,0x6f,0x6e,0x5f,0x75,0x6d,0x61,0x72,0x75,0x06,0x3a,0x06,0x45,0x54,0x3a,0x0b,0x40,0x70,0x69,0x74,0x63,0x68,0x69,0x69,0x3a,0x0c,0x40,0x76,0x6f,0x6c,0x75,0x6d,0x65,0x69,0x69))
PictureDisplay(5,"ev_doll_hb1",0,0,0,0,100,100,255,0)
ShowMessageFace("",0,0,2,7)
ShowMessage("\\n<Luka>D-don't... Aaah...")
ShowMessageFace("",0,0,2,8)
ShowMessage("As if alive, her hair starts to expand and twist around my penis.")
ShowMessageFace("",0,0,2,9)
ShowMessage("Longer and longer, her hair keeps expanding and covering more of me.")
ShowMessage("As she wraps tighter, the strange feeling of exhaustion increases in power.")
ShowMessageFace("",0,0,2,10)
ShowMessage("My body writhes as her hair coils and tightens around my penis.")
ShowMessageFace("",0,0,2,11)
ShowMessage("\\n<Luka>Faa... That feels good...")
ShowMessageFace("doll_fc1",1,0,2,12)
ShowMessage("\\n<Miyabi>It feels good for me too...")
ShowMessageFace("",0,0,2,13)
ShowMessage("A tingling sensation spreads through my dick.")
ShowMessage("Each movement of her hair causes the tingling to increase, as I feel something being slowly sucked out of me.")
ShowMessageFace("",0,0,2,14)
ShowMessage("Even though I can sense the danger, all I can do is shiver in pleasure.")
ShowMessageFace("",0,0,2,15)
ShowMessage("\\n<Luka>Faa... You're taking my energy...")
ShowMessageFace("",0,0,2,16)
ShowMessage("Giving in to the weakness of a man, I surrender my lower body to the doll.")
ShowMessage("The perversion of the situation breaks my mind.")
ShowMessageFace("",0,0,2,17)
ShowMessage("Looking down at my pathetic face, the Miyabi giggles.")
ShowMessageFace("doll_fc1",1,0,2,18)
ShowMessage("\\n<Miyabi>Playing with big bro... It's so fun.\nAre you going to come already?")
ShowMessageFace("",0,0,2,19)
ShowMessage("\\n<Luka>Aaaa... I am...")
ShowMessageFace("",0,0,2,20)
ShowMessage("With my life being sucked up by her hair, my body starts to twitch.")
ShowMessage("Unable to endure it any longer, I finally explode on her hair.")
RunCommonEvent(104)
PictureDisplay(5,"ev_doll_hb2",0,0,0,0,100,100,255,0)
RunCommonEvent(105)
ShowMessageFace("",0,0,2,21)
ShowMessage("\\n<Luka>Faaa...")
ShowMessageFace("",0,0,2,22)
ShowMessage("I'm completely helpless to the sensation of both my energy being sucked by her hair,")
ShowMessage("and the stimulation on my penis attacking me at the same time.")
ShowMessageFace("doll_fc1",1,0,2,23)
ShowMessage("\\n<Miyabi>Your white stuff...\nWas it good, big bro?")
ShowMessageFace("",0,0,2,24)
ShowMessage("\\n<Luka>Auu... More...")
ShowMessageFace("",0,0,2,25)
ShowMessage("I've become completely addicted to her hair.")
ShowMessageFace("",0,0,2,26)
ShowMessage("With her hair constricting tighter around me,")
ShowMessage("she's sucking up my energy like a pump.")
ShowMessageFace("",0,0,2,27)
ShowMessage("Each thin silky strand stimulates me as they move around me.")
ShowMessageFace("",0,0,2,28)
ShowMessage("Even the disgrace at being treated like this turns into pleasure.")
ShowMessageFace("",0,0,2,29)
ShowMessage("\\n<Luka>That's incredible...")
ShowMessageFace("doll_fc1",1,0,2,30)
ShowMessage("\\n<Miyabi>Are you going to leak again...?\nGive me a lot, big bro...")
ShowMessageFace("",0,0,2,31)
ShowMessage("Skillfully manipulating her hair wrapped around my penis, it starts to move in every direction.")
ShowMessage("Each strand slightly vibrates as they move back and forth.")
ShowMessageFace("",0,0,2,32)
ShowMessage("The powerful stimulation sends me over the edge again.")
ShowMessageFace("",0,0,2,33)
ShowMessage("\\n<Luka>Aaaahhh!!")
RunCommonEvent(104)
PictureDisplay(5,"ev_doll_hb3",0,0,0,0,100,100,255,0)
RunCommonEvent(105)
ShowMessageFace("",0,0,2,34)
ShowMessage("I shoot out more of my semen on her hair and lower body as my energy is sucked without mercy.")
ShowMessageFace("",0,0,2,35)
ShowMessage("So much strength has been drained that I can't even move anymore.")
ShowMessageFace("",0,0,2,36)
ShowMessage("Stuck in a daze, I can't even think straight.")
ShowMessage("Unable to control my body or my thoughts, I don't even realize the extreme danger I'm in.")
ShowMessageFace("",0,0,2,37)
ShowMessage("\\n<Luka>More...")
ShowMessageFace("doll_fc1",1,0,2,38)
ShowMessage("\\n<Miyabi>All right... I'll suck more, big bro...")
ShowMessageFace("",0,0,2,39)
ShowMessage("The speed of the energy draining out of me quickly increases after she said that.")
ShowMessage("Along with that sensation, the sexual stimulation increased at the same rate.")
ShowMessageFace("",0,0,2,40)
ShowMessage("Her hair tightens around my penis, as I feel less and less connected to my own body.")
ShowMessageFace("",0,0,2,41)
ShowMessage("With a shorter interval than last time, I'm already forced to orgasm again.")
ShowMessageFace("",0,0,2,42)
ShowMessage("\\n<Luka>Aaaa!")
RunCommonEvent(104)
RunCommonEvent(105)
ShowMessageFace("doll_fc1",1,0,2,43)
ShowMessage("\\n<Miyabi>You leaked again, big bro...")
ShowMessageFace("",0,0,2,44)
ShowMessage("Miyabi laughs at me.")
ShowMessage("Having all of my energy sucked by this little doll...")
ShowMessageFace("",0,0,2,45)
ShowMessage("\\n<Luka>Fa...aaa...")
ShowMessageFace("",0,0,2,46)
ShowMessage("My life is in danger here...")
ShowMessage("But I can't escape from this pleasure.")
ShowMessageFace("",0,0,2,47)
ShowMessage("\\n<Luka>Suck... More...")
ShowMessageFace("doll_fc1",1,0,2,48)
ShowMessage("\\n<Miyabi>All right... I'll take everything...")
ShowMessageFace("",0,0,2,49)
ShowMessage("\\n<Luka>Ah! Ahhhhhh!!")
ShowMessageFace("",0,0,2,50)
ShowMessage("More of her hair wraps around me as she goes in to suck the rest of my life up.")
ShowMessageFace("",0,0,2,52)
ShowMessage("\\n<Luka>Auu... I'm coming again...")
ShowMessageFace("doll_fc1",1,0,2,53)
ShowMessage("\\n<Miyabi>Give me a lot...")
RunCommonEvent(104)
RunCommonEvent(105)
ShowMessageFace("",0,0,2,54)
ShowMessage("\\n<Luka>Hnnaaa...")
ShowMessageFace("doll_fc1",1,0,2,55)
ShowMessage("\\n<Miyabi>You aren't moving anymore, big bro...\nI guess I'll take everything that's left...")
ShowMessageFace("",0,0,2,56)
ShowMessage("Her hair wriggles and strokes me all over, as dreamlike feelings overtake my mind.")
ShowMessageFace("",0,0,2,57)
ShowMessage("\\n<Luka>Aaaa!!")
RunCommonEvent(104)
RunCommonEvent(105)
ShowMessageFace("",0,0,2,58)
ShowMessage("As I ejaculate, I feel myself starting to faint.")
ShowMessage("As if my body isn't my own anymore, my vision starts to fade.")
ShowMessageFace("doll_fc1",1,0,2,59)
ShowMessage("\\n<Miyabi>It's delicious, big bro...")
ShowMessageFace("",0,0,2,60)
ShowMessage("\\n<Luka>Aaa...")
RunCommonEvent(104)
RunCommonEvent(105)
ShowMessageFace("",0,0,2,61)
ShowMessage("I'm unable to feel any part of my body except for the pleasure from my penis.")
RunCommonEvent(104)
RunCommonEvent(105)
221()
PictureClear(5)
246(2)
ShowMessageFace("",0,0,2,62)
ShowMessage("While basking in that final orgasm, I lose consciousness.")
ShowMessage("Having all of my energy sucked up by Miyabi, I'm left dry.")
ShowMessageFace("",0,0,2,63)
ShowMessage("My life comes to a miserable end, taken by her hair.")
ShowMessage("But at least I was able to feel good until the end...")
ShowMessageFace("",0,0,2,64)
ShowMessage(".........................")
242(2)
Wait(120)
ChangeVariable(1002,1002,0,0,0)
216(1)
355("forced_transfer(154,18,52)")
355("release_temp_actors")
355("$game_map.screen.clear")
0()
