﻿// EVENT 4347
Name "Watermelon Girl 2"

If(0,25,1)
 221()
 PictureClear(5)
 PictureClear(6)
 ShowMessageFace("",0,0,2,1)
 ShowMessage("........")
 242(2)
 Wait(120)
 241(bytes(0x04,0x08,0x6f,0x3a,0x0d,0x52,0x50,0x47,0x3a,0x3a,0x42,0x47,0x4d,0x08,0x3a,0x0a,0x40,0x6e,0x61,0x6d,0x65,0x49,0x22,0x0c,0x63,0x61,0x73,0x74,0x6c,0x65,0x36,0x06,0x3a,0x06,0x45,0x54,0x3a,0x0c,0x40,0x76,0x6f,0x6c,0x75,0x6d,0x65,0x69,0x69,0x3a,0x0b,0x40,0x70,0x69,0x74,0x63,0x68,0x69,0x69))
 EndEventProcessing()
 0()
EndIf()
PictureDisplay(5,"80_suika_st01",0,0,0,0,100,100,255,0)
ShowMessageFace("suika_fc1",1,0,2,2)
ShowMessage("\\n<Melon>")
ShowMessage("You want me to make you feel good?")
ShowMessage("Hum...I'm a bit busy today...")
ShowMessageFace("",0,0,2,3)
ShowMessage("With a light sigh, Melon sidles up to me...")
241(bytes(0x04,0x08,0x6f,0x3a,0x0d,0x52,0x50,0x47,0x3a,0x3a,0x42,0x47,0x4d,0x08,0x3a,0x0a,0x40,0x6e,0x61,0x6d,0x65,0x49,0x22,0x09,0x65,0x72,0x6f,0x31,0x06,0x3a,0x06,0x45,0x54,0x3a,0x0c,0x40,0x76,0x6f,0x6c,0x75,0x6d,0x65,0x69,0x69,0x3a,0x0b,0x40,0x70,0x69,0x74,0x63,0x68,0x69,0x69))
PictureDisplay(5,"80_suika_st02",0,0,0,0,100,100,255,0)
ShowMessageFace("suika_fc1",1,0,2,4)
ShowMessage("\\n<Melon>")
ShowMessage("I'll just finish you quickly with my ivy ♪")
ShowMessageFace("",0,0,2,5)
ShowMessage("\\n<Luka>")
ShowMessage("Eh...?! Aaaah...!!")
245(bytes(0x04,0x08,0x6f,0x3a,0x0d,0x52,0x50,0x47,0x3a,0x3a,0x42,0x47,0x53,0x08,0x3a,0x0a,0x40,0x6e,0x61,0x6d,0x65,0x49,0x22,0x17,0x6d,0x6f,0x6e,0x5f,0x68,0x73,0x65,0x61,0x6e,0x31,0x37,0x5f,0x73,0x69,0x67,0x6f,0x6b,0x69,0x06,0x3a,0x06,0x45,0x54,0x3a,0x0c,0x40,0x76,0x6f,0x6c,0x75,0x6d,0x65,0x69,0x55,0x3a,0x0b,0x40,0x70,0x69,0x74,0x63,0x68,0x69,0x69))
PictureDisplay(5,"ev_suika_hb1",0,0,0,0,100,100,0,0)
PictureMove(5,null,0,0,0,0,100,100,255,0,30,true)
ShowMessageFace("",0,0,2,6)
ShowMessage("My body is immediately restrained by her ivy.")
ShowMessage("Melon leans over my restrained body and giggles.")
ShowMessageFace("suika_fc1",1,0,2,7)
ShowMessage("\\n<Melon>")
ShowMessage("Ahaha, wind around the penis round and round ♪")
ShowMessageFace("",0,0,2,8)
ShowMessage("\\n<Luka>")
ShowMessage("Th-that's...Aaaah!!")
ShowMessageFace("",0,0,2,9)
ShowMessage("Her ivy tangles and winds around my penis.")
ShowMessage("The feeling of her slimy sap encases my penis.")
ShowMessageFace("",0,0,2,10)
ShowMessage("The ivy moves and gently stimulates my penis.")
ShowMessage("My hips start trembling to this peculiar pleasant sensation.")
ShowMessageFace("",0,0,2,11)
ShowMessage("\\n<Luka>")
ShowMessage("Aaah...Th-this is...")
ShowMessageFace("suika_fc1",1,0,2,12)
ShowMessage("\\n<Melon>")
ShowMessage("Ahaha, it feels good right?")
ShowMessage("If I do this, you'll come right away...")
ShowMessageFace("suika_fc1",1,0,2,13)
ShowMessage("\\n<Melon>")
ShowMessage("Here, let me tighten it around your penis ♪")
ShowMessageFace("",0,0,2,14)
ShowMessage("\\n<Luka>")
ShowMessage("Auuuu...!")
ShowMessageFace("",0,0,2,15)
ShowMessage("Her ivy tightens around my penis, gently pressing down on it.")
ShowMessage("Her mild tightening brings about a sweet pleasure.")
ShowMessageFace("suika_fc1",1,0,2,16)
ShowMessage("\\n<Melon>")
ShowMessage("Then loosen it~♪ Nice and gently~♪")
ShowMessageFace("",0,0,2,17)
ShowMessage("\\n<Luka>")
ShowMessage("Hau...Aaah!!")
ShowMessageFace("",0,0,2,18)
ShowMessage("Her ivy rhythmically tightens and loosens around my whole penis.")
ShowMessage("It slowly slowly and skillfully squeezes my penis from tip to root.")
ShowMessageFace("suika_fc1",1,0,2,19)
ShowMessage("\\n<Melon>")
ShowMessage("Tighten, loosen~♪ Tighten, loosen~♪")
ShowMessage("Ahaha, you're feeling good...♪")
ShowMessageFace("",0,0,2,20)
ShowMessage("\\n<Luka>")
ShowMessage("Ah, aah...Th-this is...")
ShowMessageFace("",0,0,2,21)
ShowMessage("Her ivy gently strokes my penis.")
ShowMessage("The stimulation feels like a constantly changing massage.")
ShowMessageFace("",0,0,2,22)
ShowMessage("This pleasure feel like it's too much and my hips start shaking.")
ShowMessage("A dull ache spreads through my waist...")
ShowMessageFace("",0,0,2,23)
ShowMessage("\\n<Luka>")
ShowMessage("S-stop...I'm coming...!!")
ShowMessageFace("suika_fc1",1,0,2,24)
ShowMessage("\\n<Melon>")
ShowMessage("Ufufu, coming already?")
ShowMessage("Hoora, then let it all out ♪")
ShowMessageFace("",0,0,2,25)
ShowMessage("The stimulation from the ivy stroking me intensifies.")
ShowMessage("It rubs me up and down, covering me with more and more of its sap...")
ShowMessageFace("",0,0,2,26)
ShowMessage("\\n<Luka>")
ShowMessage("Ah, aaaaaah!!")
RunCommonEvent(104)
PictureDisplay(5,"ev_suika_hb2",0,0,0,0,100,100,255,0)
RunCommonEvent(105)
ShowMessageFace("",0,0,2,27)
ShowMessage("Semen streams from my penis, covering the ivy.")
ShowMessage("I can't endure such stimulation and I come instantly...")
ShowMessageFace("",0,0,2,28)
ShowMessage("\\n<Luka>")
ShowMessage("Au...aah....")
ShowMessageFace("suika_fc1",1,0,2,29)
ShowMessage("\\n<Melon>")
ShowMessage("Ahaha, you came already.")
ShowMessage("Did my ivy massage feel that good...?")
ShowMessageFace("suika_fc1",1,0,2,30)
ShowMessage("\\n<Melon>")
ShowMessage("As a special treat, I'll make you come one more time.")
ShowMessage("I'll play with you with my ivy~♪")
ShowMessageFace("",0,0,2,31)
ShowMessage("\\n<Luka>")
ShowMessage("That's...auuu...")
ShowMessageFace("",0,0,2,32)
ShowMessage("More and more of her ivy wraps around my glans.")
ShowMessage("The slimy texture of her sap soaked ivy entangles my glans.")
ShowMessageFace("suika_fc1",1,0,2,33)
ShowMessage("\\n<Melon>")
ShowMessage("I'll make you come like this...")
ShowMessage("Surely this will make you come in an instant~♪")
ShowMessageFace("",0,0,2,34)
ShowMessage("\\n<Luka>")
ShowMessage("Ah...Aaaaaaah!!")
ShowMessageFace("",0,0,2,35)
ShowMessage("The ivy tightens and loosen around my glans and it feels like I'm being rubbed.")
ShowMessage("The soft rubbing sensation becomes increasingly pleasant.")
ShowMessageFace("suika_fc1",1,0,2,36)
ShowMessage("\\n<Melon>")
ShowMessage("Hora hora, bully the tip.")
ShowMessage("The neck and the pee hole, I have to bully them all~♪")
ShowMessageFace("",0,0,2,37)
ShowMessage("\\n<Luka>")
ShowMessage("S-stop...! Aaaah...!!")
ShowMessageFace("",0,0,2,38)
ShowMessage("She tightens the ivy around the neck of my penis and spreads the slimy sensation all over the surface of my glans.")
ShowMessage("My entire glans is thoroughly kneaded by her ivy.")
ShowMessageFace("",0,0,2,39)
ShowMessage("The intense pleasure on my tip makes me thrust my hips up.")
ShowMessage("Melon looks at my pleasured face and giggles.")
ShowMessageFace("suika_fc1",1,0,2,40)
ShowMessage("\\n<Melon>")
ShowMessage("Hoora, it's useless to try to endure it~♪")
ShowMessage("Give up, just shoot your semen out~♪")
ShowMessageFace("",0,0,2,41)
ShowMessage("\\n<Luka>")
ShowMessage("Hya..Aaaaah...!!")
ShowMessageFace("",0,0,2,42)
ShowMessage("Not only is she focusing on my glans but my entire penis is stimulated, making me buck my hips like crazy.")
ShowMessage("I entrust myself to the pleasure given to me by the ivy...")
RunCommonEvent(104)
PictureDisplay(5,"ev_suika_hb3",0,0,0,0,100,100,255,0)
RunCommonEvent(105)
ShowMessageFace("",0,0,2,43)
ShowMessage("\\n<Luka>")
ShowMessage("Nnngh...")
ShowMessageFace("",0,0,2,44)
ShowMessage("Semen erupts from my ivy-wrapped penis.")
ShowMessage("Even during my ejaculation, the ivy doesn't let up and stays wrapped around my penis.")
ShowMessageFace("suika_fc1",1,0,2,45)
ShowMessage("\\n<Melon>")
ShowMessage("Ahaha, did it feel good?")
ShowMessage("Well then, we'll play more next time~♪")
ShowMessageFace("",0,0,2,46)
ShowMessage("\\n<Luka>")
ShowMessage(".........")
ShowMessageFace("",0,0,2,47)
ShowMessage("Totally defeated by her ivy my body goes slack under her.")
ShowMessage("Looking down at my pathetic state, Melon laughs triumphantly.")
221()
PictureClear(5)
246(2)
ShowMessageFace("",0,0,2,48)
ShowMessage("........")
RunCommonEvent(3998)
0()
