﻿// EVENT 2202
Name "Seduction: Magical Succubus"

355("$game_troop.lose_event_id = 3202")
ChangeVariable(26,26,0,3,3,1,4)
ChangeVariable(26,26,4,0,10)
ShowMessageFace("m_succubus_fc1",0,0,2,1)
ShowMessage("\\n<Magical Succubus>I'm being cornered...\nAt times like this, I must use my Succubus skills. ♪")
355("battler_graphic_hide")
PictureDisplay(5,"ev_m_succubus_h1",0,0,0,0,100,100,255,0)
ShowMessageFace("",0,0,2,2)
ShowMessage("The Magical Succubus holds Luka down!\nLike that, she brings her crotch into close contact with his!")
ShowMessageFace("m_succubus_fc1",1,0,2,3)
ShowMessage("\\n<Magical Succubus>Fufu, just be quiet now...\nI'll give you a taste of a succubus' pussy...")
ChangeSwitch(98,98,0)
ChangeSwitch(96,96,0)
ShowChoices(strings("Struggle","Let her continue"),1)
IfPlayerPicksChoice(0,"Struggle")
 ShowMessageFace("",0,0,2,4)
 ShowMessage("Luka struggles violently, and escapes from the Magical Succubus' restraint!")
 RunCommonEvent(1999)
 EndEventProcessing()
 0()
IfPlayerPicksChoice(1,"Let her continue")
 0()
404()
ShowMessageFace("m_succubus_fc1",1,0,2,5)
ShowMessage("\\n<Magical Succubus>Then I'll insert it.\nTry to last as long as you can...♪")
ChangeVariable(26,26,3,0,6)
250(bytes(0x04,0x08,0x6f,0x3a,0x0c,0x52,0x50,0x47,0x3a,0x3a,0x53,0x45,0x08,0x3a,0x0a,0x40,0x6e,0x61,0x6d,0x65,0x49,0x22,0x11,0x6d,0x6f,0x6e,0x5f,0x65,0x72,0x6f,0x5f,0x70,0x79,0x75,0x33,0x06,0x3a,0x06,0x45,0x54,0x3a,0x0b,0x40,0x70,0x69,0x74,0x63,0x68,0x69,0x69,0x3a,0x0c,0x40,0x76,0x6f,0x6c,0x75,0x6d,0x65,0x69,0x69))
311(0,1,1,1,26,true)
ShowMessageFace("",0,0,2,6)
ShowMessage("The Magical Succubus brings Luka's penis into her vagina!\nThe melting touch of her hot, soft flesh sticks to his penis!\\D")
ShowMessage("Luka takes \\V[26] damage!")
ChangeVariable(27,27,0,3,3,1,2)
If(1,27,0,0,0)
 JumpToLabel("射精1")
 0()
EndIf()
ShowMessageFace("m_succubus_fc1",1,0,2,7)
ShowMessage("\\n<Magical Succubus>Ufufu, does a succubus' pussy feel good?\nNow, please come already...♪")
250(bytes(0x04,0x08,0x6f,0x3a,0x0c,0x52,0x50,0x47,0x3a,0x3a,0x53,0x45,0x08,0x3a,0x0a,0x40,0x6e,0x61,0x6d,0x65,0x49,0x22,0x13,0x6d,0x6f,0x6e,0x5f,0x65,0x72,0x6f,0x5f,0x63,0x68,0x75,0x70,0x61,0x34,0x06,0x3a,0x06,0x45,0x54,0x3a,0x0b,0x40,0x70,0x69,0x74,0x63,0x68,0x69,0x69,0x3a,0x0c,0x40,0x76,0x6f,0x6c,0x75,0x6d,0x65,0x69,0x69))
311(0,1,1,1,26,true)
ShowMessageFace("",0,0,2,8)
ShowMessage("The Magical Succubus' vagina thoroughly rubs against Luka's penis! Her soft flesh intently sucks his glans, forcing him towards an ejaculation!\\D")
ShowMessage("Luka takes \\V[26] damage!")
ChangeVariable(27,27,0,3,3,1,2)
If(1,27,0,0,0)
 JumpToLabel("射精2")
 0()
EndIf()
DefineLabel("射精1")
ShowMessageFace("",0,0,2,9)
ShowMessage("\\n<Luka>No, I'm coming... Aaaah...")
RunCommonEvent(104)
PictureDisplay(5,"ev_m_succubus_h3",0,0,0,0,100,100,255,0)
RunCommonEvent(105)
ShowMessageFace("",0,0,2,10)
ShowMessage("The moment I'm brought into the Magical Succubus' vagina, I come. My semen shoots into her captivating vagina.")
ShowMessageFace("m_succubus_fc1",1,0,2,11)
ShowMessage("\\n<Magical Succubus>Ara, you already came...\nIsn't a succubus' pussy heavenly?")
RunCommonEvent(2000)
EndEventProcessing()
DefineLabel("射精2")
ShowMessageFace("",0,0,2,12)
ShowMessage("\\n<Luka>No, I'm coming... Aaaah...")
RunCommonEvent(104)
PictureDisplay(5,"ev_m_succubus_h3",0,0,0,0,100,100,255,0)
RunCommonEvent(105)
ShowMessageFace("",0,0,2,13)
ShowMessage("While being raped by the Magical Succubus, I come.\nMy semen shoots into her captivating vagina.")
ShowMessageFace("m_succubus_fc1",1,0,2,14)
ShowMessage("\\n<Magical Succubus>Ufufu, you let out a lot.\nIsn't a succubus' pussy heavenly?")
RunCommonEvent(2000)
EndEventProcessing()
0()
