// EVENT 0045
Name "Skill: Play 51-60"

ChangeVariable(11,11,0,2,1,5)
If(1,100,0,53,0)
 If(1,11,0,1,0)
  ShowMessageFace("slime_fc1",0,0,2,1)
  ShowMessage("\\n<Lime>Boomerang! ♪ Boomerang! ♪")
  ShowMessageFace("",0,0,2,2)
  ShowMessage("Lime is dancing.")
  EndEventProcessing()
  0()
 EndIf()
 If(1,11,0,2,0)
  ShowMessageFace("slime_fc1",0,0,2,3)
  ShowMessage("\\n<Lime>Here I go! Ya!")
  355("interrupt_skill(3301)")
  EndEventProcessing()
  0()
 EndIf()
 If(1,11,0,3,0)
  ShowMessageFace("slime_fc1",2,0,2,4)
  ShowMessage("\\n<Lime>Waa!")
  ShowMessageFace("",0,0,2,5)
  ShowMessage("Lime tripped on flat ground!")
  ShowMessage("But her body is soft and she took no damage.")
  EndEventProcessing()
  0()
 EndIf()
 If(1,11,0,4,0)
  ShowMessageFace("slime_fc1",0,0,2,6)
  ShowMessage("\\n<Lime>I caught a fish! ♪")
  ShowMessageFace("",0,0,2,7)
  ShowMessage("Lime has caught a fish.")
  250(bytes(0x04,0x08,0x6f,0x3a,0x0c,0x52,0x50,0x47,0x3a,0x3a,0x53,0x45,0x08,0x3a,0x0a,0x40,0x6e,0x61,0x6d,0x65,0x49,0x22,0x0a,0x49,0x74,0x65,0x6d,0x31,0x06,0x3a,0x06,0x45,0x54,0x3a,0x0b,0x40,0x70,0x69,0x74,0x63,0x68,0x69,0x69,0x3a,0x0c,0x40,0x76,0x6f,0x6c,0x75,0x6d,0x65,0x69,0x55))
  ChangeInventory_Item(322,0,0,1)
  ShowMessageFace("",0,0,2,8)
  ShowMessage("You obtain a \\ii[322]!")
  EndEventProcessing()
  0()
 EndIf()
 If(1,11,0,5,0)
  ShowMessageFace("slime_fc1",0,0,2,9)
  ShowMessage("\\n<Lime>I found a strong branch. Now I just carve it and...\nA boomerang is made! ♪")
  ShowMessageFace("",0,0,2,10)
  ShowMessage("Lime has finished a boomerang!")
  250(bytes(0x04,0x08,0x6f,0x3a,0x0c,0x52,0x50,0x47,0x3a,0x3a,0x53,0x45,0x08,0x3a,0x0a,0x40,0x6e,0x61,0x6d,0x65,0x49,0x22,0x0a,0x49,0x74,0x65,0x6d,0x31,0x06,0x3a,0x06,0x45,0x54,0x3a,0x0b,0x40,0x70,0x69,0x74,0x63,0x68,0x69,0x69,0x3a,0x0c,0x40,0x76,0x6f,0x6c,0x75,0x6d,0x65,0x69,0x55))
  ChangeInventoryWeapon(657,0,0,1,false)
  ShowMessageFace("",0,0,2,11)
  ShowMessage("You obtain a \\iw[657]!")
  EndEventProcessing()
  0()
 EndIf()
 0()
EndIf()
If(1,100,0,54,0)
 If(1,11,0,1,0)
  ShowMessageFace("bunnyslime_fc1",0,0,2,12)
  ShowMessage("\\n<Bunni>Bunni-hop! Bunni-hop!")
  ShowMessageFace("",0,0,2,13)
  ShowMessage("Bunni is hopping around!")
  ShowMessage("But she does not look like a rabbit at all.")
  EndEventProcessing()
  0()
 EndIf()
 If(1,11,0,2,0)
  ShowMessageFace("bunnyslime_fc1",0,0,2,14)
  ShowMessage("\\n<Bunni>The carrots have grown!")
  ShowMessageFace("",0,0,2,15)
  ShowMessage("Bunni has stolen carrots from a field!")
  250(bytes(0x04,0x08,0x6f,0x3a,0x0c,0x52,0x50,0x47,0x3a,0x3a,0x53,0x45,0x08,0x3a,0x0a,0x40,0x6e,0x61,0x6d,0x65,0x49,0x22,0x0a,0x49,0x74,0x65,0x6d,0x31,0x06,0x3a,0x06,0x45,0x54,0x3a,0x0b,0x40,0x70,0x69,0x74,0x63,0x68,0x69,0x69,0x3a,0x0c,0x40,0x76,0x6f,0x6c,0x75,0x6d,0x65,0x69,0x55))
  ChangeInventory_Item(310,0,0,1)
  ShowMessageFace("",0,0,2,16)
  ShowMessage("You obtain a \\ii[310]!")
  EndEventProcessing()
  0()
 EndIf()
 If(1,11,0,3,0)
  ShowMessageFace("bunnyslime_fc1",0,0,2,17)
  ShowMessage("\\n<Bunni>Bunni is the boomerang champion.\nI can kill three birds in a single throw. ♪")
  355("interrupt_skill(3301)")
  EndEventProcessing()
  0()
 EndIf()
 If(1,11,0,4,0)
  ShowMessageFace("bunnyslime_fc1",0,0,2,18)
  ShowMessage("\\n<Bunni>Bunni will set a trap. ♪")
  355("interrupt_skill(3297)")
  EndEventProcessing()
  0()
 EndIf()
 If(1,11,0,5,0)
  ShowMessageFace("bunnyslime_fc1",0,0,2,19)
  ShowMessage("\\n<Bunni>Bunni will set a trap. ♪")
  355("interrupt_skill(3298)")
  EndEventProcessing()
  0()
 EndIf()
 0()
EndIf()
If(1,100,0,55,0)
 If(1,11,0,1,0)
  ShowMessageFace("name_fc1",0,0,2,20)
  ShowMessage("\\n<Melk>Let's play, with mucus.")
  313(0,1,0,23)
  ShowMessageFace("",0,0,2,21)
  ShowMessage("Melk covers Luka in sticky mucus!")
  ShowMessage("Luka has become slimy!")
  EndEventProcessing()
  0()
 EndIf()
 If(1,11,0,2,0)
  ShowMessageFace("name_fc1",2,0,2,22)
  ShowMessage("\\n<Melk>Sticky kiss.")
  313(0,1,0,23)
  ShowMessageFace("",0,0,2,23)
  ShowMessage("Melk kisses Luka!")
  ShowMessage("Luka has become slimy!")
  EndEventProcessing()
  0()
 EndIf()
 If(1,11,0,3,0)
  ShowMessageFace("name_fc1",0,0,2,24)
  ShowMessage("\\n<Melk>Let's dance, the slug dance.")
  ShowMessageFace("",0,0,2,25)
  ShowMessage("Melk dances and sings happily!")
  ShowMessage("But the excitement is quickly lost.")
  EndEventProcessing()
  0()
 EndIf()
 If(1,11,0,4,0)
  ShowMessageFace("name_fc1",0,0,2,26)
  ShowMessage("\\n<Melk>No one's looking; now's my chance.")
  ShowMessageFace("",0,0,2,27)
  ShowMessage("Melk throws away all the cooking salt!")
  EndEventProcessing()
  0()
 EndIf()
 If(1,11,0,5,0)
  ShowMessageFace("name_fc1",0,0,2,28)
  ShowMessage("\\n<Melk>Drink this mucus, it can heal wounds.")
  313(0,1,0,7)
  ShowMessageFace("",0,0,2,29)
  ShowMessage("Melk forces Luka to drink her mucus!")
  ShowMessage("Luka is poisoned!")
  ShowMessageFace("name_fc1",0,0,2,30)
  ShowMessage("\\n<Melk>Oh, guess I was wrong.")
  EndEventProcessing()
  0()
 EndIf()
 0()
EndIf()
If(1,100,0,56,0)
 If(1,11,0,1,0)
  ShowMessageFace("inp_fc1",0,0,2,31)
  ShowMessage("\\n<Rami>Fly to the sky!")
  ShowMessageFace("",0,0,2,32)
  ShowMessage("Rami tries to fly!")
  ShowMessage("But her breasts are too heavy and she cannot fly at all.")
  EndEventProcessing()
  0()
 EndIf()
 If(1,11,0,2,0)
  ShowMessageFace("inp_fc1",2,0,2,33)
  ShowMessage("\\n<Rami>Kya!")
  ShowMessageFace("",0,0,2,34)
  ShowMessage("Rami tripped on flat ground!")
  ShowMessage("But her breasts cussioned her fall and she took no damage.")
  EndEventProcessing()
  0()
 EndIf()
 If(1,11,0,3,0)
  ShowMessageFace("inp_fc1",1,0,2,35)
  ShowMessage("\\n<Rami>.....")
  ShowMessageFace("",0,0,2,36)
  ShowMessage("Rami is thinking of lewd things.")
  313(0,56,0,24)
  ShowMessageFace("",0,0,2,37)
  ShowMessage("Rami became horny!")
  EndEventProcessing()
  0()
 EndIf()
 If(1,11,0,4,0)
  ShowMessageFace("inp_fc1",0,0,2,38)
  ShowMessage("\\n<Rami>Yay, jump rope! ♪")
  ShowMessageFace("",0,0,2,39)
  ShowMessage("Rami plays jump rope!")
  ShowMessage("Rami's breasts are bouncing all around!")
  313(0,1,0,276)
  ShowMessageFace("",0,0,2,40)
  ShowMessage("Luka cannot help but watch!")
  EndEventProcessing()
  0()
 EndIf()
 If(1,11,0,5,0)
  ShowMessageFace("inp_fc1",1,0,2,41)
  ShowMessage("\\n<Rami>Ehehe.")
  355("interrupt_skill(3295)")
  EndEventProcessing()
  0()
 EndIf()
 0()
EndIf()
If(1,100,0,57,0)
 ChangeVariable(11,11,0,2,1,6)
 If(1,11,0,1,0)
  ShowMessageFace("inp_fc3",1,0,2,42)
  ShowMessage("\\n<Rumi>Kuu!")
  ShowMessageFace("",0,0,2,43)
  ShowMessage("Rumi goes limp!")
  EndEventProcessing()
  0()
 EndIf()
 If(1,11,0,2,0)
  ShowMessageFace("inp_fc3",2,0,2,44)
  ShowMessage("\\n<Rumi>Sleepy...")
  313(0,57,0,11)
  ShowMessageFace("",0,0,2,45)
  ShowMessage("Rumi has fallen asleep.")
  EndEventProcessing()
  0()
 EndIf()
 If(1,11,0,3,0)
  ShowMessageFace("inp_fc3",0,0,2,46)
  ShowMessage("\\n<Rumi>Can we get this over with?")
  313(0,57,0,45)
  313(0,57,0,49)
  313(0,57,0,53)
  313(0,57,0,55)
  ShowMessageFace("",0,0,2,47)
  ShowMessage("Rumi is unusually motivated!")
  ShowMessage("Rumi has temporarily gotten stronger!")
  EndEventProcessing()
  0()
 EndIf()
 If(1,11,0,4,0)
  ShowMessageFace("inp_fc3",1,0,2,48)
  ShowMessage("\\n<Rumi>Dig, dig.")
  ShowMessageFace("",0,0,2,49)
  ShowMessage("Rumi tries to dig a pit!")
  ShowMessage("But it was too much trouble and she stopped.")
  EndEventProcessing()
  0()
 EndIf()
 If(1,11,0,5,0)
  ShowMessageFace("inp_fc3",1,0,2,50)
  ShowMessage("\\n<Rumi>......")
  ShowMessageFace("",0,0,2,51)
  ShowMessage("Rumi just sits and watches.")
  ShowMessage("She doesn't even try.")
  EndEventProcessing()
  0()
 EndIf()
 If(1,11,0,6,0)
  ShowMessageFace("inp_fc3",1,0,2,52)
  ShowMessage("\\n<Rumi>Hrr...Ouch!")
  ShowMessageFace("",0,0,2,53)
  ShowMessage("Rumi tears off her tail and tosses it over!")
  ShowMessage("...Is that supposed to help?")
  250(bytes(0x04,0x08,0x6f,0x3a,0x0c,0x52,0x50,0x47,0x3a,0x3a,0x53,0x45,0x08,0x3a,0x0a,0x40,0x6e,0x61,0x6d,0x65,0x49,0x22,0x0a,0x49,0x74,0x65,0x6d,0x31,0x06,0x3a,0x06,0x45,0x54,0x3a,0x0b,0x40,0x70,0x69,0x74,0x63,0x68,0x69,0x69,0x3a,0x0c,0x40,0x76,0x6f,0x6c,0x75,0x6d,0x65,0x69,0x55))
  ChangeInventory_Item(162,0,0,1)
  ShowMessageFace("",0,0,2,54)
  ShowMessage("You obtain an \\ii[162]!")
  EndEventProcessing()
  0()
 EndIf()
 0()
EndIf()
If(1,100,0,58,0)
 If(1,11,0,1,0)
  ShowMessageFace("inp_fc2",0,0,2,55)
  ShowMessage("\\n<Remi>*shiver*")
  ShowMessageFace("",0,0,2,56)
  ShowMessage("Remi is scared!")
  EndEventProcessing()
  0()
 EndIf()
 If(1,11,0,2,0)
  ShowMessageFace("inp_fc2",0,0,2,57)
  ShowMessage("\\n<Remi>y-you can... do it.")
  ShowMessageFace("",0,0,2,58)
  ShowMessage("Remi quietly cheers!")
  ShowMessage("But she was too quiet and no one heard her.")
  EndEventProcessing()
  0()
 EndIf()
 If(1,11,0,3,0)
  ShowMessageFace("inp_fc2",0,0,2,59)
  ShowMessage("\\n<Remi>Huh? This is...")
  ShowMessageFace("",0,0,2,60)
  ShowMessage("Remi found a huge apple under the tree she was hiding behind!")
  250(bytes(0x04,0x08,0x6f,0x3a,0x0c,0x52,0x50,0x47,0x3a,0x3a,0x53,0x45,0x08,0x3a,0x0a,0x40,0x6e,0x61,0x6d,0x65,0x49,0x22,0x0a,0x49,0x74,0x65,0x6d,0x31,0x06,0x3a,0x06,0x45,0x54,0x3a,0x0b,0x40,0x70,0x69,0x74,0x63,0x68,0x69,0x69,0x3a,0x0c,0x40,0x76,0x6f,0x6c,0x75,0x6d,0x65,0x69,0x55))
  ChangeInventory_Item(301,0,0,1)
  ShowMessageFace("",0,0,2,61)
  ShowMessage("You obtain an \\ii[301]!")
  EndEventProcessing()
  0()
 EndIf()
 If(1,11,0,4,0)
  ShowMessageFace("inp_fc2",0,0,2,62)
  ShowMessage("\\n<Remi>Awa,awa...")
  ShowMessageFace("",0,0,2,63)
  ShowMessage("Remi is thinking of lewd things.")
  313(0,58,0,24)
  ShowMessageFace("",0,0,2,64)
  ShowMessage("Remi has become horny!")
  EndEventProcessing()
  0()
 EndIf()
 If(1,11,0,5,0)
  ShowMessageFace("inp_fc2",0,0,2,65)
  ShowMessage("\\n<Remi>Carefully...")
  ShowMessageFace("",0,0,2,66)
  ShowMessage("Remi doodles on the ground.")
  EndEventProcessing()
  0()
 EndIf()
 0()
EndIf()
If(1,100,0,59,0)
 If(1,11,0,1,0)
  ShowMessageFace("mdg_fc1",0,0,2,67)
  ShowMessage("\\n<Ragora>I need to water these once in a while.")
  ShowMessageFace("",0,0,2,68)
  ShowMessage("Ragora waters the leaves on her head.")
  EndEventProcessing()
  0()
 EndIf()
 If(1,11,0,2,0)
  ShowMessageFace("mdg_fc1",0,0,2,69)
  ShowMessage("\\n<Ragora>I'll just sleep a little.")
  ShowMessageFace("mdg_fc1",3,0,2,70)
  ShowMessage("\\n<Ragora>ZZZ...")
  313(0,59,0,11)
  ShowMessageFace("",0,0,2,71)
  ShowMessage("Ragora has fallen asleep!")
  EndEventProcessing()
  0()
 EndIf()
 If(1,11,0,3,0)
  ShowMessageFace("mdg_fc1",2,0,2,72)
  ShowMessage("\\n<Ragora>Ahhhhhhhhh!!!")
  337(-1,723)
  ShowMessageFace("",0,0,2,73)
  ShowMessage("Ragora suddenly screamed!")
  333(-1,0,12)
  ShowMessageFace("",0,0,2,74)
  ShowMessage("The enemies have been paralyzed!")
  EndEventProcessing()
  0()
 EndIf()
 If(1,11,0,4,0)
  ShowMessageFace("mdg_fc1",0,0,2,75)
  ShowMessage("\\n<Ragora>My dream is to be a singer! ♪")
  ShowMessageFace("",0,0,2,76)
  ShowMessage("Ragora dances and sings happily.")
  EndEventProcessing()
  0()
 EndIf()
 If(1,11,0,5,0)
  ShowMessageFace("mdg_fc1",0,0,2,77)
  ShowMessage("\\n<Ragora>Perhaps something like this for my fans?")
  ShowMessageFace("",0,0,2,78)
  ShowMessage("Ragora practices her signature.")
  EndEventProcessing()
  0()
 EndIf()
 0()
EndIf()
If(1,100,0,60,0)
 If(1,11,0,1,0)
  ShowMessageFace("dog_fc1",4,0,2,79)
  ShowMessage("\\n<Pochi>Woof!")
  ShowMessageFace("",0,0,2,80)
  ShowMessage("Pochi barks suddenly!")
  ShowMessage("But no one is scared.")
  EndEventProcessing()
  0()
 EndIf()
 If(1,11,0,2,0)
  ShowMessageFace("dog_fc1",4,0,2,81)
  ShowMessage("\\n<Pochi>It's a pitfall!")
  355("interrupt_skill(3297)")
  EndEventProcessing()
  0()
 EndIf()
 If(1,11,0,3,0)
  ShowMessageFace("dog_fc1",4,0,2,82)
  ShowMessage("\\n<Pochi>It's a pitfall!")
  355("interrupt_skill(3298)")
  EndEventProcessing()
  0()
 EndIf()
 If(1,11,0,4,0)
  ShowMessageFace("dog_fc1",0,0,2,83)
  ShowMessage("\\n<Pochi>Look! I found some treasure!")
  ShowMessageFace("",0,0,2,84)
  ShowMessage("Pochi seems to have found some fishbones.")
  250(bytes(0x04,0x08,0x6f,0x3a,0x0c,0x52,0x50,0x47,0x3a,0x3a,0x53,0x45,0x08,0x3a,0x0a,0x40,0x6e,0x61,0x6d,0x65,0x49,0x22,0x0a,0x49,0x74,0x65,0x6d,0x31,0x06,0x3a,0x06,0x45,0x54,0x3a,0x0b,0x40,0x70,0x69,0x74,0x63,0x68,0x69,0x69,0x3a,0x0c,0x40,0x76,0x6f,0x6c,0x75,0x6d,0x65,0x69,0x55))
  ChangeInventory_Item(442,0,0,1)
  ShowMessageFace("",0,0,2,85)
  ShowMessage("You obtain a \\ii[442]!")
  EndEventProcessing()
  0()
 EndIf()
 If(1,11,0,5,0)
  ShowMessageFace("dog_fc1",0,0,2,86)
  ShowMessage("\\n<Pochi>Woof! Woof!")
  ShowMessageFace("",0,0,2,87)
  ShowMessage("Pochi was barking!")
  ShowMessage("But nothing happened.")
  EndEventProcessing()
  0()
 EndIf()
 0()
EndIf()
0()
