// EVENT 4766
Name "Mushroom Girl"

PictureDisplay(5,"80_kinoko_st02",0,0,0,0,100,100,255,0)
ShowMessageFace("kinoko_fc1",1,0,2,1)
ShowMessage("\\n<Widow>You want to have fun with me...?")
ShowMessageFace("",0,0,2,2)
ShowMessage("\\n<Luka>Y-yes...please...")
ShowMessageFace("kinoko_fc1",1,0,2,3)
ShowMessage("\\n<Widow>Well then since you're my ally, I won't refuse. Would you please come to my room?")
ShowMessageFace("",0,0,2,4)
ShowMessage("Thus, I'm invited to a private room...")
221()
PictureDisplay(1,"bg195",0,0,0,0,100,100,255,0)
PictureDisplay(5,"ev_kinoko_h1",0,0,0,0,100,100,255,0)
222()
241(bytes(0x04,0x08,0x6f,0x3a,0x0d,0x52,0x50,0x47,0x3a,0x3a,0x42,0x47,0x4d,0x08,0x3a,0x0a,0x40,0x6e,0x61,0x6d,0x65,0x49,0x22,0x09,0x65,0x72,0x6f,0x31,0x06,0x3a,0x06,0x45,0x54,0x3a,0x0c,0x40,0x76,0x6f,0x6c,0x75,0x6d,0x65,0x69,0x69,0x3a,0x0b,0x40,0x70,0x69,0x74,0x63,0x68,0x69,0x69))
245(bytes(0x04,0x08,0x6f,0x3a,0x0d,0x52,0x50,0x47,0x3a,0x3a,0x42,0x47,0x53,0x08,0x3a,0x0a,0x40,0x6e,0x61,0x6d,0x65,0x49,0x22,0x17,0x6d,0x6f,0x6e,0x5f,0x68,0x73,0x65,0x61,0x6e,0x31,0x37,0x5f,0x73,0x69,0x67,0x6f,0x6b,0x69,0x06,0x3a,0x06,0x45,0x54,0x3a,0x0c,0x40,0x76,0x6f,0x6c,0x75,0x6d,0x65,0x69,0x55,0x3a,0x0b,0x40,0x70,0x69,0x74,0x63,0x68,0x69,0x69))
ShowMessageFace("",0,0,2,5)
ShowMessage("\\n<Luka>Hauuu...")
ShowMessageFace("",0,0,2,6)
ShowMessage("Widow clings to me from behind.\nShe covers my body with her veil.")
ShowMessageFace("",0,0,2,7)
ShowMessage("No, this is...\nNot a veil, but part of her mushroom umbrella?")
ShowMessageFace("kinoko_fc1",1,0,2,8)
ShowMessage("\\n<Widow>With this, I will turn you into a seedbed.\nPlease raise a lot of mushrooms in your body.")
245(bytes(0x04,0x08,0x6f,0x3a,0x0d,0x52,0x50,0x47,0x3a,0x3a,0x42,0x47,0x53,0x08,0x3a,0x0a,0x40,0x6e,0x61,0x6d,0x65,0x49,0x22,0x1a,0x6d,0x6f,0x6e,0x5f,0x68,0x73,0x65,0x61,0x6e,0x32,0x30,0x5f,0x74,0x65,0x6e,0x74,0x61,0x63,0x6c,0x65,0x31,0x06,0x3a,0x06,0x45,0x54,0x3a,0x0c,0x40,0x76,0x6f,0x6c,0x75,0x6d,0x65,0x69,0x55,0x3a,0x0b,0x40,0x70,0x69,0x74,0x63,0x68,0x69,0x69))
ShowMessageFace("",0,0,2,9)
ShowMessage("Her net-like umbrella starts secreting mucus.\nIt clings to my whole body and starts moving in a mysterious way.")
ShowMessageFace("",0,0,2,10)
ShowMessage("\\n<Luka>Seedbed...? D-don't... Let me go...!")
ShowMessageFace("",0,0,2,11)
ShowMessage("I twist my body and try to escape...\nHer net-like umbrella is tangled all around my body and seals my movement.")
ShowMessageFace("",0,0,2,12)
ShowMessage("Her soft elasticity keeps my limbs from moving.\nIn an instant, I'm completely restrained by Widow.")
ShowMessageFace("",0,0,2,13)
ShowMessage("\\n<Luka>Let me go...! Ugh...!")
ShowMessageFace("kinoko_fc1",1,0,2,14)
ShowMessage("\\n<Widow>Do not be afraid.\nBecoming my seedbed will feel very good...")
PictureDisplay(5,"ev_kinoko_h2",0,0,0,0,100,100,255,0)
ShowMessageFace("",0,0,2,15)
ShowMessage("Widow squeezes me in her umbrella and hugs me.\nAt the same time, her net entangles my penis.")
ShowMessageFace("",0,0,2,16)
ShowMessage("\\n<Luka>Ah...Uuuu...")
ShowMessageFace("",0,0,2,17)
ShowMessage("A unique slimy sensation fills my penis.\nIt's obviously used to pleasure men.")
ShowMessageFace("",0,0,2,18)
ShowMessage("\\n<Luka>Th-this is... Ah...")
ShowMessageFace("kinoko_fc1",1,0,2,19)
ShowMessage("\\n<Widow>Now, please shoot out plenty of seed.\nIt will become nutrients for the seedbed.")
ShowMessageFace("",0,0,2,20)
ShowMessage("Her slimy umbrella starts to stimulate my penis...\nWidow smiles as she plays with me.")
ShowMessageFace("",0,0,2,21)
ShowMessage("My glans is rubbed by her slimy net.\nA unique stimulation given to my sensitive area turns to sweet pleasure.")
ShowMessageFace("",0,0,2,22)
ShowMessage("The stimulation coming from the net feels like light stroking. Feeling my glans wrapped up from all sides and stroked...")
ShowMessageFace("",0,0,2,23)
ShowMessage("\\n<Luka>Ah... Auuuu...")
ShowMessageFace("",0,0,2,24)
ShowMessage("All of a sudden, I lose all strength in my body and entrust myself to her embrace. I drown myself in the sense of stickiness covering my whole body...")
ShowMessageFace("kinoko_fc1",1,0,2,25)
ShowMessage("\\n<Widow>Yes, just like that, come.\nImmerse yourself in this pleasure forever.")
ShowMessageFace("",0,0,2,26)
ShowMessage("\\n<Luka>That...I don't want...\nAh, aaaaaah...")
ShowMessageFace("",0,0,2,27)
ShowMessage("I'm repulsed by the thought of being turned into a seedbed. Yet my body wants me to succumb to the pleasure.")
ShowMessageFace("",0,0,2,28)
ShowMessage("I want to become a seedbed...\nI desperately fight against this ruinous desire.")
ShowMessageFace("",0,0,2,29)
ShowMessage("\\n<Luka>I don't want... Ugh...")
ShowMessageFace("kinoko_fc1",1,0,2,30)
ShowMessage("\\n<Widow>Ara, you're still resisting...?\nIf I cover you more, you won't be able to resist.")
ShowMessageFace("kinoko_fc1",1,0,2,31)
ShowMessage("\\n<Widow>Now, please shoot out a lot of your seed.\nI need your semen for my seedbed...")
ShowMessageFace("",0,0,2,32)
ShowMessage("\\n<Luka>Auuu... Ah...aaaaaaah...")
ShowMessageFace("",0,0,2,33)
ShowMessage("She squeezes and strokes my penis...\nWidow continues to skillfully stimulate my penis.")
ShowMessageFace("",0,0,2,34)
ShowMessage("In no time at all, it starts happily pulsating.\nAt this rate, I'm going to succumb to the pleasure and come...")
ShowMessageFace("",0,0,2,35)
ShowMessage("\\n<Luka>No...I'm coming...")
ShowMessageFace("kinoko_fc1",1,0,2,36)
ShowMessage("\\n<Widow>Do it, release your seed.\nOnce you're done, you will feel very good in my seedbed...")
ShowMessageFace("",0,0,2,37)
ShowMessage("Tangled in her net, my glans is thoroughly kneaded...\nAt last, I can't take it anymore and succumb to the stimulation of her seedbed.")
ShowMessageFace("",0,0,2,38)
ShowMessage("I'm going to come in her seedbed.\nI want to ejaculate while tasting this feeling...")
ShowMessageFace("",0,0,2,39)
ShowMessage("\\n<Luka>Ah, aaaaaah...!")
RunCommonEvent(104)
PictureDisplay(5,"ev_kinoko_h3",0,0,0,0,100,100,255,0)
RunCommonEvent(105)
ShowMessageFace("",0,0,2,40)
ShowMessage("My semen shoots out and a melting feeling takes over my body. My face is covered and I can't see anything anymore, I just enjoy the pleasure...")
ShowMessageFace("",0,0,2,41)
ShowMessage("\\n<Luka>What is this...Fuaaaa...")
ShowMessageFace("",0,0,2,42)
ShowMessage("Widow's umbrella starts wiggling.\nIt's as if being covered in my semen turned it on.")
ShowMessageFace("",0,0,2,43)
ShowMessage("It crawls all over my body and plays with my penis.\nI can only moan while I taste this sweet pleasure.")
ShowMessageFace("kinoko_fc1",1,0,2,44)
ShowMessage("\\n<Widow>Ufufu, I'm scattering the seeds on the seedbed's floor. You cannot escape this pleasure.")
PictureDisplay(5,"ev_kinoko_h4",0,0,0,0,100,100,255,0)
ShowMessageFace("",0,0,2,45)
ShowMessage("Widow's binding tightens.\nHer slimy umbrella latches on to me tightly...")
ShowMessageFace("kinoko_fc1",1,0,2,46)
ShowMessage("\\n<Widow>Your body feels like it's in heaven as pleasure spreads all over it. You don't even want to resist anymore...")
ShowMessageFace("",0,0,2,47)
ShowMessage("\\n<Luka>Fuaa...aaaah....")
ShowMessageFace("",0,0,2,48)
ShowMessage("Just as Widow said, my head melts in pleasure.\nI'm completely enraptured by the sweet pleasure attacking my crotch.")
ShowMessageFace("",0,0,2,49)
ShowMessage("She stimulates me with her stickiness.\nHer net skilfully rubs my glans, back muscle, and neck of my penis up and down.")
ShowMessageFace("",0,0,2,50)
ShowMessage("\\n<Luka>Aah, that feels so good...")
ShowMessageFace("",0,0,2,51)
ShowMessage("The melting sensation covers my whole penis...\nThe pleasure shakes my body to the core...")
RunCommonEvent(104)
PictureDisplay(5,"ev_kinoko_h5",0,0,0,0,100,100,255,0)
RunCommonEvent(105)
ShowMessageFace("",0,0,2,52)
ShowMessage("In the next moment, my semen leaks out.\nI give it all to Widow's umbrella.")
ShowMessageFace("",0,0,2,53)
ShowMessage("\\n<Luka>Fuaaaa...")
ShowMessageFace("kinoko_fc1",1,0,2,54)
ShowMessage("\\n<Widow>Ufufu, already in a trance...\nRelease your seed as much as you like.")
ShowMessageFace("kinoko_fc1",1,0,2,55)
ShowMessage("\\n<Widow>The more you shoot out, the better of a seedbed you will be. I will also make it feel even better...")
PictureDisplay(5,"ev_kinoko_h6",0,0,0,0,100,100,255,0)
ShowMessageFace("",0,0,2,56)
ShowMessage("Widow's umbrella closes in on me tighter.\nI melt in pleasure from the feeling of her umbrella against my skin.")
ShowMessageFace("",0,0,2,57)
ShowMessage("\\n<Luka>Aaaaah... That feels good...")
ShowMessageFace("",0,0,2,58)
ShowMessage("I groan in pleasure as I feel my body weaken.\nMy penis rejoices as it doesn't stop pulsating as it's being stimulated.")
ShowMessageFace("",0,0,2,59)
ShowMessage("Surrounded by Widow's umbrella, it feels like my body itself is melting. I will be able to taste this pleasure forever...")
ShowMessageFace("kinoko_fc1",1,0,2,60)
ShowMessage("\\n<Widow>Ufufu, does it feel good...?\nYou are already a prisoner of my seedbed...")
ShowMessageFace("",0,0,2,61)
ShowMessage("\\n<Luka>Auu... Ah, aaaaah...")
RunCommonEvent(104)
PictureDisplay(5,"ev_kinoko_h7",0,0,0,0,100,100,255,0)
RunCommonEvent(105)
ShowMessageFace("",0,0,2,62)
ShowMessage("No matter how much I come, she doesn't stop.\nI enjoy the pleasure of her seedbed as I shoot out my seed...")
ShowMessageFace("kinoko_fc1",1,0,2,63)
ShowMessage("\\n<Widow>Ufufu, so much semen...\nWith this, I'll be able to make a lot of mushrooms.")
ShowMessageFace("kinoko_fc1",1,0,2,64)
ShowMessage("\\n<Widow>From now on, you have to come a lot...\nNow, please give me more of your nutrients.")
ShowMessageFace("",0,0,2,65)
ShowMessage("\\n<Luka>It feels good...Fuaaaa...")
RunCommonEvent(104)
RunCommonEvent(105)
ShowMessageFace("",0,0,2,66)
ShowMessage("I keep coming from the sweet pleasure.\nI totally surrendered to the pleasure and became the seedbed itself.")
ShowMessageFace("",0,0,2,67)
ShowMessage("I'm no longer a human being.\nIn exchange for pleasure, I help grow her mushrooms...")
ShowMessageFace("kinoko_fc1",1,0,2,68)
ShowMessage("\\n<Widow>Yes, more, more seed...\nUfufufufu...")
ShowMessageFace("",0,0,2,69)
ShowMessage("\\n<Luka>Ah, aaaaaah...")
246(2)
RunCommonEvent(104)
RunCommonEvent(105)
221()
PictureClear(5)
PictureClear(6)
ShowMessageFace("",0,0,2,70)
ShowMessage("I was later found in a corner of the Pocket Castle in her seedbed. I was helped by my companions and both me and Widow were severely scolded afterwards...")
ShowMessageFace("",0,0,2,71)
ShowMessage("......")
RunCommonEvent(3998)
0()
