﻿// EVENT 5052
Name "Purple Slime 2"

PictureDisplay(6,"80_slime_purple_st01",0,0,-270,50,100,100,0,0)
PictureDisplay(5,"80_slime_blue_st01",0,0,-100,0,100,100,0,0)
PictureDisplay(7,"80_slime_red_st01",0,0,115,0,100,100,0,0)
PictureDisplay(8,"80_slime_green_st01",0,0,270,50,100,100,0,0)
PictureMove(6,null,0,0,-270,50,100,100,255,0,30,false)
PictureMove(5,null,0,0,-100,0,100,100,255,0,30,false)
PictureMove(7,null,0,0,115,0,100,100,255,0,30,false)
PictureMove(8,null,0,0,270,50,100,100,255,0,30,true)
ShowMessageFace("slime_purple_fc1",0,0,2,1)
ShowMessage("\\n<Purple Slime>You sure you want us to play with you?")
ShowMessageFace("",0,0,2,2)
ShowMessage("\\n<Luka>Y-yes please...")
ShowMessageFace("slime_purple_fc1",1,0,2,3)
ShowMessage("\\n<Purple Slime>Hehe... Now it's time for some of our love...\nFirst, from me...")
241(bytes(0x04,0x08,0x6f,0x3a,0x0d,0x52,0x50,0x47,0x3a,0x3a,0x42,0x47,0x4d,0x08,0x3a,0x0a,0x40,0x6e,0x61,0x6d,0x65,0x49,0x22,0x09,0x65,0x72,0x6f,0x31,0x06,0x3a,0x06,0x45,0x54,0x3a,0x0c,0x40,0x76,0x6f,0x6c,0x75,0x6d,0x65,0x69,0x69,0x3a,0x0b,0x40,0x70,0x69,0x74,0x63,0x68,0x69,0x69))
245(bytes(0x04,0x08,0x6f,0x3a,0x0d,0x52,0x50,0x47,0x3a,0x3a,0x42,0x47,0x53,0x08,0x3a,0x0a,0x40,0x6e,0x61,0x6d,0x65,0x49,0x22,0x17,0x6d,0x6f,0x6e,0x5f,0x68,0x73,0x65,0x61,0x6e,0x31,0x38,0x5f,0x73,0x6c,0x69,0x6d,0x65,0x31,0x06,0x3a,0x06,0x45,0x54,0x3a,0x0c,0x40,0x76,0x6f,0x6c,0x75,0x6d,0x65,0x69,0x55,0x3a,0x0b,0x40,0x70,0x69,0x74,0x63,0x68,0x69,0x69))
PictureClear(6)
PictureClear(7)
PictureClear(8)
PictureDisplay(5,"ev_slimes_ha1",0,0,0,0,100,100,255,0)
ShowMessageFace("",0,0,2,4)
ShowMessage("The Purple Slime places one of her gigantic breasts on top of my groin, and forces my penis into her.")
ShowMessageFace("",0,0,2,5)
ShowMessage("The rest of her soft body embraces mine, holding me in place between her breasts.")
ShowMessageFace("",0,0,2,6)
ShowMessage("I shiver in her embrace as she slowly forces me all the way into her body.")
ShowMessageFace("",0,0,2,7)
ShowMessage("\\n<Luka>Ah, auuu...")
ShowMessageFace("",0,0,2,8)
ShowMessage("Her slime is surprisingly dense, requiring a bit of force to pierce through her body.")
ShowMessageFace("",0,0,2,9)
ShowMessage("As her soft body clamps around mine, I start to relax as the cool sensation of her body fills me.")
ShowMessageFace("slime_purple_fc1",1,0,2,10)
ShowMessage("\\n<Purple Slime>Hehe, what's wrong?\nIs it too much for you, just being inside my breast?")
ShowMessageFace("",0,0,2,11)
ShowMessage("\\n<Luka>Ah, auuuu...")
ShowMessageFace("",0,0,2,12)
ShowMessage("Her dense slime pushes into my penis from all directions.")
ShowMessageFace("",0,0,2,13)
ShowMessage("The feeling of being inside her is so comfortable, I can't help but relax in her gentle embrace.")
ShowMessageFace("slime_purple_fc1",1,0,2,14)
ShowMessage("\\n<Purple Slime>We have lots of time, so relax...\nBut we'll be enjoying this for a long while, so don't think you need to endure it either...")
ShowMessageFace("",0,0,2,15)
ShowMessage("The breast that I'm inserted in starts to wriggle.\nThe dense slime wrapped around my penis shakes and moves, slowly getting faster.")
ShowMessageFace("",0,0,2,16)
ShowMessage("\\n<Luka>Haa... That feels good...")
ShowMessageFace("",0,0,2,17)
ShowMessage("Before I can stop myself, I let out a soft moan.\nI'm going to come inside of her in no time at this rate...")
ShowMessageFace("slime_purple_fc1",1,0,2,18)
ShowMessage("\\n<Purple Slime>Don't hold back...")
ShowMessageFace("",0,0,2,19)
ShowMessage("\\n<Luka>Haa... Ahh...")
ShowMessageFace("",0,0,2,20)
ShowMessage("I sigh as the last of my strength fades.\nIf she wasn't holding me like a baby, I would have collapsed to the floor.")
ShowMessageFace("",0,0,2,21)
ShowMessage("Entrusting myself to her embrace, I feel my penis start to twitch a little inside her wriggling breast.")
ShowMessageFace("",0,0,2,22)
ShowMessage("The Purple Slime looks down on me in her embrace, and giggles.")
ShowMessageFace("slime_purple_fc1",1,0,2,23)
ShowMessage("\\n<Purple Slime>Hehe... Are you about to come?\nGo ahead and come inside me, it will feel good...")
ShowMessageFace("",0,0,2,24)
ShowMessage("\\n<Luka>I'm coming....\nAh, aaaah...")
RunCommonEvent(104)
PictureDisplay(5,"ev_slimes_ha2",0,0,0,0,100,100,255,0)
RunCommonEvent(105)
ShowMessageFace("",0,0,2,25)
ShowMessage("Unable to hold on at all, I sigh as I come inside her breast.")
ShowMessageFace("",0,0,2,26)
ShowMessage("My mouth hangs open as I gaze at my penis inside her breast, slowly filling her purple body with my white semen.")
246(1)
ShowMessageFace("slime_purple_fc1",1,0,2,27)
ShowMessage("\\n<Purple Slime>Hehe, that was a lot.")
ShowMessageFace("",0,0,2,28)
ShowMessage("The Purple Slime stares at me as she holds me in her embrace, giggling.")
ShowMessageFace("slime_red_fc1",1,0,2,29)
ShowMessage("\\n<Red Slime>All right, I'm next. ♪")
245(bytes(0x04,0x08,0x6f,0x3a,0x0d,0x52,0x50,0x47,0x3a,0x3a,0x42,0x47,0x53,0x08,0x3a,0x0a,0x40,0x6e,0x61,0x6d,0x65,0x49,0x22,0x17,0x6d,0x6f,0x6e,0x5f,0x68,0x73,0x65,0x61,0x6e,0x31,0x38,0x5f,0x73,0x6c,0x69,0x6d,0x65,0x31,0x06,0x3a,0x06,0x45,0x54,0x3a,0x0c,0x40,0x76,0x6f,0x6c,0x75,0x6d,0x65,0x69,0x55,0x3a,0x0b,0x40,0x70,0x69,0x74,0x63,0x68,0x69,0x69))
PictureDisplay(5,"ev_slimes_hb1",0,0,0,0,100,100,255,0)
ShowMessageFace("",0,0,2,30)
ShowMessage("The Purple Slime takes me out of her breast, and the Red Slime quickly takes her place. She turns around, and sticks her butt into my face.")
ShowMessageFace("",0,0,2,31)
ShowMessage("Her body slowly sinks into mine, enveloping everything from my mouth to my penis in her entire lower body.")
ShowMessageFace("",0,0,2,32)
ShowMessage("\\n<Luka>Ahhhh!")
ShowMessageFace("",0,0,2,33)
ShowMessage("Her slime is warm, and completely different from the Purple Slime's.")
ShowMessageFace("",0,0,2,34)
ShowMessage("Her body is far more liquidy than the Purple Slime, and a lot warmer. Just the sensations from being inside her are almost too much to take.")
ShowMessageFace("slime_red_fc1",1,0,2,35)
ShowMessage("\\n<Red Slime>Hey, how is it?\nIt feels nice and warm inside me, doesn't it?")
ShowMessageFace("",0,0,2,36)
ShowMessage("The Red Slime turns her head around to look at me, laughing.")
ShowMessageFace("",0,0,2,37)
ShowMessage("As I'm engulfed by her warm body, she starts to move back and forth, forcing my body from the mouth down in and out of her backside.")
ShowMessageFace("",0,0,2,38)
ShowMessage("I writhe helplessly at the feeling of having my body itself being forced in and out of her warm body.")
ShowMessageFace("",0,0,2,39)
ShowMessage("\\n<Luka>Ah...ahhh!")
ShowMessageFace("slime_red_fc1",1,0,2,40)
ShowMessage("\\n<Red Slime>Ahaha, are you trying to endure it?\nThat can't be done. ♪")
ShowMessageFace("",0,0,2,41)
ShowMessage("Amused by my reaction, the Red Slime shakes her hips side to side.")
ShowMessageFace("",0,0,2,42)
ShowMessage("Her movements get even faster, easily forcing my penis to go wherever she wants it to inside her sticky body.")
ShowMessageFace("",0,0,2,43)
ShowMessage("Mesmerized by the pleasure, I gasp as she tosses me around.")
ShowMessageFace("",0,0,2,44)
ShowMessage("After only a few moments, I feel myself on the edge of an orgasm as she rapes my entire body with her own.")
ShowMessageFace("",0,0,2,45)
ShowMessage("\\n<Luka>Ahh... Coming...")
ShowMessageFace("slime_red_fc1",1,0,2,46)
ShowMessage("\\n<Red Slime>Ahah, so fast! ♪\nNow, come! ♪")
ShowMessageFace("",0,0,2,47)
ShowMessage("The Red Slime giggles as she violently bounces her entire body up and down, forcing my whole body into hers.")
ShowMessageFace("",0,0,2,48)
ShowMessage("Overwhelmed by her movements, I give in to the orgasm.")
RunCommonEvent(104)
PictureDisplay(5,"ev_slimes_hb2",0,0,0,0,100,100,255,0)
RunCommonEvent(105)
ShowMessageFace("",0,0,2,49)
ShowMessage("I explode inside of her warm body, shooting my semen into her red slime.")
ShowMessageFace("",0,0,2,50)
ShowMessage("She presses her ass into my face as she squeezes out all of the semen into her body.")
246(1)
ShowMessageFace("slime_blue_fc1",1,0,2,51)
ShowMessage("\\n<Blue Slime>Ok... I get him next...")
245(bytes(0x04,0x08,0x6f,0x3a,0x0d,0x52,0x50,0x47,0x3a,0x3a,0x42,0x47,0x53,0x08,0x3a,0x0a,0x40,0x6e,0x61,0x6d,0x65,0x49,0x22,0x17,0x6d,0x6f,0x6e,0x5f,0x68,0x73,0x65,0x61,0x6e,0x31,0x38,0x5f,0x73,0x6c,0x69,0x6d,0x65,0x31,0x06,0x3a,0x06,0x45,0x54,0x3a,0x0c,0x40,0x76,0x6f,0x6c,0x75,0x6d,0x65,0x69,0x55,0x3a,0x0b,0x40,0x70,0x69,0x74,0x63,0x68,0x69,0x69))
PictureDisplay(5,"ev_slimes_hc1",0,0,0,0,100,100,255,0)
ShowMessageFace("",0,0,2,52)
ShowMessage("The Red Slime lets my body go as the Blue Slime climbs on top of me.")
ShowMessageFace("",0,0,2,53)
ShowMessage("She tightly clings to me, and drops her lower body onto my groin. Like that, my penis is forced into her blue body.")
ShowMessageFace("",0,0,2,54)
ShowMessage("\\n<Luka>Aaaaahhh...!")
ShowMessageFace("",0,0,2,55)
ShowMessage("Her body is incredibly soft and sticky.")
ShowMessageFace("",0,0,2,56)
ShowMessage("It seems like each slime's body is unique...")
ShowMessageFace("",0,0,2,57)
ShowMessage("Her soft body squishes against me, gently squeezing and pushing against me wherever it engulfs. Her sticky slime drips from her body as she looks at me.")
ShowMessageFace("slime_blue_fc1",1,0,2,58)
ShowMessage("\\n<Blue Slime>If I do this...it's like we're having sex.")
ShowMessageFace("",0,0,2,59)
ShowMessage("The Blue Slime clings to me, pushing her squishy body against my own. Like that, she starts to move up and down, grinding her sticky body against me.")
ShowMessageFace("",0,0,2,60)
ShowMessage("\\n<Luka>Ahh... That's good...")
ShowMessageFace("",0,0,2,61)
ShowMessage("As she rides me, I sigh in pleasure and let out a moan.\nIn only a few moments, the third slime had already made me surrender to her.")
ShowMessageFace("slime_blue_fc1",1,0,2,62)
ShowMessage("\\n<Blue Slime>...Hehe.")
ShowMessageFace("",0,0,2,63)
ShowMessage("The Blue Slime looks at my reaction with a happy smile on her face.")
ShowMessageFace("",0,0,2,64)
ShowMessage("She leans over and hugs me even tighter, pressing my body deeper into her squishy one.")
ShowMessageFace("",0,0,2,65)
ShowMessage("Her small body continues grinding against mine, not slowing down even as she hugs me closer. Giving my body over to this small slime girl, I moan as I feel myself about to explode in her.")
ShowMessageFace("",0,0,2,66)
ShowMessage("\\n<Luka>Ahhh... I'm coming...")
ShowMessageFace("slime_blue_fc1",1,0,2,67)
ShowMessage("\\n<Blue Slime>It's fine...to come inside me.")
ShowMessageFace("",0,0,2,68)
ShowMessage("As I raise my voice about my impending orgasm, the Blue Slime wags her hips a little bit side to side.")
ShowMessageFace("",0,0,2,69)
ShowMessage("As my penis is pushed side to side inside her small form, I'm quickly forced over the edge.")
RunCommonEvent(104)
PictureDisplay(5,"ev_slimes_hc3",0,0,0,0,100,100,255,0)
RunCommonEvent(105)
ShowMessageFace("",0,0,2,70)
ShowMessage("\\n<Luka>Unnngh...")
ShowMessageFace("",0,0,2,71)
ShowMessage("I explode inside the Blue Slime's body, shooting my semen through her small body all the way up to her shoulder.")
ShowMessageFace("",0,0,2,72)
ShowMessage("Feeling my seed inside her, the Blue Slime hugs me even closer as she smiles.")
246(1)
ShowMessageFace("slime_purple_fc1",1,0,2,73)
ShowMessage("\\n<Purple Slime>Now then, shall I have a turn again?")
ShowMessageFace("slime_red_fc1",1,0,2,74)
ShowMessage("\\n<Red Slime>Noo! I want to rape him again! ♪")
ShowMessageFace("slime_blue_fc1",1,0,2,75)
ShowMessage("\\n<Blue Slime>...I don't want to let go.")
ShowMessageFace("slime_green_fc1",1,0,2,76)
ShowMessage("\\n<Green Slime>Hey, I haven't had a turn yet!")
ShowMessageFace("",0,0,2,77)
ShowMessage("\\n<Luka>Ahh... Ahhh...")
245(bytes(0x04,0x08,0x6f,0x3a,0x0d,0x52,0x50,0x47,0x3a,0x3a,0x42,0x47,0x53,0x08,0x3a,0x0a,0x40,0x6e,0x61,0x6d,0x65,0x49,0x22,0x17,0x6d,0x6f,0x6e,0x5f,0x68,0x73,0x65,0x61,0x6e,0x31,0x39,0x5f,0x73,0x6c,0x69,0x6d,0x65,0x32,0x06,0x3a,0x06,0x45,0x54,0x3a,0x0c,0x40,0x76,0x6f,0x6c,0x75,0x6d,0x65,0x69,0x55,0x3a,0x0b,0x40,0x70,0x69,0x74,0x63,0x68,0x69,0x69))
PictureDisplay(5,"ev_slimes_hd1",0,0,0,0,100,100,255,0)
ShowMessageFace("",0,0,2,78)
ShowMessage("The four slimes push and fight against each other as they all rush into my body at once.")
ShowMessageFace("",0,0,2,79)
ShowMessage("Their slimy bodies mix together, as each of their unique temperatures and consistencies wrap and absorb different parts of my body.")
ShowMessageFace("",0,0,2,80)
ShowMessage("\\n<Luka>Ah, aaaaaah!!")
ShowMessageFace("",0,0,2,81)
ShowMessage("I'm quickly buried under their soft bodies, as their mixed slime wraps around my penis.")
ShowMessageFace("slime_purple_fc1",1,0,2,82)
ShowMessage("\\n<Purple Slime>Come on, you can come a lot more, can't you?")
ShowMessageFace("slime_red_fc1",1,0,2,83)
ShowMessage("\\n<Red Slime>Make him come even more! ♪")
ShowMessageFace("",0,0,2,84)
ShowMessage("I can feel all four of their unique textures squeezing my penis, as if all four of them had tiny slime fingers caressing my penis.")
ShowMessageFace("",0,0,2,85)
ShowMessage("Unable to see anything with the Green Slime's breasts covering my face, I shiver as my entire body is attacked by pleasure.")
ShowMessageFace("",0,0,2,86)
ShowMessage("\\n<Luka>Ah, auuuu...")
RunCommonEvent(104)
PictureDisplay(5,"ev_slimes_hd2",0,0,0,0,100,100,255,0)
RunCommonEvent(105)
ShowMessageFace("",0,0,2,87)
ShowMessage("Engulfed in a hell of pleasure, I come, shooting my semen into their mixed bodies.")
ShowMessageFace("slime_purple_fc1",1,0,2,88)
ShowMessage("\\n<Purple Slime>Hehe, did it feel good?")
ShowMessageFace("slime_blue_fc1",1,0,2,89)
ShowMessage("\\n<Blue Slime>His semen tastes so good...")
ShowMessageFace("",0,0,2,90)
ShowMessage("Even during my orgasm, the four slimes continue to fight over my penis.")
ShowMessageFace("",0,0,2,91)
ShowMessage("Overwhelmed by their sticky touch, I gasp in pleasure as the four of them freely play with my body.")
ShowMessageFace("",0,0,2,92)
ShowMessage("\\n<Luka>Unnngh...")
ShowMessageFace("",0,0,2,93)
ShowMessage("Giving in to the pleasure, I moan as their rape forces me to come again.")
RunCommonEvent(104)
PictureDisplay(5,"ev_slimes_hd3",0,0,0,0,100,100,255,0)
RunCommonEvent(105)
ShowMessageFace("",0,0,2,94)
ShowMessage("My semen shoots into their slimy bodies again, to be used as nourishment.")
ShowMessageFace("slime_purple_fc1",1,0,2,95)
ShowMessage("\\n<Purple Slime>Until you satisfy all of us, we aren't letting you stop!")
ShowMessageFace("slime_green_fc1",1,0,2,96)
ShowMessage("\\n<Green Slime>Come more! ♪")
ShowMessageFace("",0,0,2,97)
ShowMessage("\\n<Luka>Aaaahhh...")
RunCommonEvent(104)
RunCommonEvent(105)
ShowMessageFace("",0,0,2,98)
ShowMessage("They cover more of my body with their soft slimy bodies as I come again.")
ShowMessageFace("",0,0,2,99)
ShowMessage("Drowning in their slime, I'm forced to come over and over again...")
221()
PictureClear(5)
PictureClear(6)
246(2)
ShowMessageFace("",0,0,2,100)
ShowMessage("......")
RunCommonEvent(3998)
0()
