﻿// EVENT 0076
Name "Skill: Play 361-370"

ChangeVariable(11,11,0,2,1,5)
If(1,100,0,361,0)
 If(1,11,0,1,0)
  ShowMessageFace("heriel_fc1",0,0,2,1)
  ShowMessage("\\n<Heriel>Ufufufu...")
  ShowMessageFace("",0,0,2,2)
  ShowMessage("Heriel is giggling...")
  EndEventProcessing()
  0()
 EndIf()
 If(1,11,0,2,0)
  ShowMessageFace("heriel_fc1",0,0,2,3)
  ShowMessage("\\n<Heriel>My hair grows immediately...")
  ShowMessageFace("",0,0,2,4)
  ShowMessage("Heriel is straightening out her hair...")
  EndEventProcessing()
  0()
 EndIf()
 If(1,11,0,3,0)
  ShowMessageFace("heriel_fc1",0,0,2,5)
  ShowMessage("\\n<Heriel>Wrap around...")
  355("interrupt_skill(2579)")
  EndEventProcessing()
  0()
 EndIf()
 If(1,11,0,4,0)
  ShowMessageFace("heriel_fc1",0,0,2,6)
  ShowMessage("\\n<Heriel>Please eat this...")
  ShowMessageFace("",0,0,2,7)
  ShowMessage("Heriel presents a gift!")
  250(bytes(0x04,0x08,0x6f,0x3a,0x0c,0x52,0x50,0x47,0x3a,0x3a,0x53,0x45,0x08,0x3a,0x0a,0x40,0x6e,0x61,0x6d,0x65,0x49,0x22,0x0a,0x49,0x74,0x65,0x6d,0x31,0x06,0x3a,0x06,0x45,0x54,0x3a,0x0b,0x40,0x70,0x69,0x74,0x63,0x68,0x69,0x69,0x3a,0x0c,0x40,0x76,0x6f,0x6c,0x75,0x6d,0x65,0x69,0x55))
  ChangeInventory_Item(394,0,0,1)
  ShowMessageFace("",0,0,2,8)
  ShowMessage("You obtain some \\ii[394]!")
  EndEventProcessing()
  0()
 EndIf()
 If(1,11,0,5,0)
  ShowMessageFace("heriel_fc1",0,0,2,9)
  ShowMessage("\\n<Heriel>I love playing with fire...")
  355("interrupt_skill(3295)")
  EndEventProcessing()
  0()
 EndIf()
 0()
EndIf()
If(1,100,0,362,0)
 If(1,11,0,1,0)
  ShowMessageFace("arusiel_fc1",0,0,2,10)
  ShowMessage("\\n<Alciel>Cease this fighting...")
  ShowMessageFace("",0,0,2,11)
  ShowMessage("Alciel tries to stop the fight!\nBut no one is listening...")
  EndEventProcessing()
  0()
 EndIf()
 If(1,11,0,2,0)
  ShowMessageFace("arusiel_fc1",0,0,2,12)
  ShowMessage("\\n<Alciel>Goddess, bless you...")
  355("interrupt_skill(3302)")
  EndEventProcessing()
  0()
 EndIf()
 If(1,11,0,3,0)
  ShowMessageFace("arusiel_fc1",0,0,2,13)
  ShowMessage("\\n<Alciel>I'm going to sleep for a short while...")
  313(0,362,0,11)
  ShowMessageFace("",0,0,2,14)
  ShowMessage("Alciel fell asleep...")
  EndEventProcessing()
  0()
 EndIf()
 If(1,11,0,4,0)
  ShowMessageFace("arusiel_fc1",0,0,2,15)
  ShowMessage("\\n<Alciel>Take this...")
  ShowMessageFace("",0,0,2,16)
  ShowMessage("Alciel presents a gift!")
  250(bytes(0x04,0x08,0x6f,0x3a,0x0c,0x52,0x50,0x47,0x3a,0x3a,0x53,0x45,0x08,0x3a,0x0a,0x40,0x6e,0x61,0x6d,0x65,0x49,0x22,0x0a,0x49,0x74,0x65,0x6d,0x31,0x06,0x3a,0x06,0x45,0x54,0x3a,0x0b,0x40,0x70,0x69,0x74,0x63,0x68,0x69,0x69,0x3a,0x0c,0x40,0x76,0x6f,0x6c,0x75,0x6d,0x65,0x69,0x55))
  ChangeInventory_Item(379,0,0,1)
  ShowMessageFace("",0,0,2,17)
  ShowMessage("You obtain a \\ii[379]!")
  EndEventProcessing()
  0()
 EndIf()
 If(1,11,0,5,0)
  ShowMessageFace("arusiel_fc1",0,0,2,18)
  ShowMessage("\\n<Alciel>This power is great...")
  355("interrupt_skill(1636)")
  EndEventProcessing()
  0()
 EndIf()
 0()
EndIf()
If(1,100,0,363,0)
 If(1,11,0,1,0)
  ShowMessageFace("c_beast_fc1",0,0,2,19)
  ShowMessage("\\n<Gabby>Munch munch...")
  ShowMessageFace("",0,0,2,20)
  ShowMessage("Gabby is eating some food she stole...")
  EndEventProcessing()
  0()
 EndIf()
 If(1,11,0,2,0)
  ShowMessageFace("c_beast_fc1",0,0,2,21)
  ShowMessage("\\n<Gabby>Monitoring activity...")
  ShowMessageFace("",0,0,2,22)
  ShowMessage("Gabby is watching the situation...")
  EndEventProcessing()
  0()
 EndIf()
 If(1,11,0,3,0)
  ShowMessageFace("c_beast_fc1",0,0,2,23)
  ShowMessage("\\n<Gabby>Entering dormancy...")
  313(0,363,0,11)
  ShowMessageFace("",0,0,2,24)
  ShowMessage("Gabby fell asleep...")
  EndEventProcessing()
  0()
 EndIf()
 If(1,11,0,4,0)
  ShowMessageFace("c_beast_fc1",0,0,2,25)
  ShowMessage("\\n<Gabby>Shyaaa...!")
  355("interrupt_skill(2681)")
  EndEventProcessing()
  0()
 EndIf()
 If(1,11,0,5,0)
  ShowMessageFace("c_beast_fc1",0,0,2,26)
  ShowMessage("\\n<Gabby>Gobble gobble...")
  355("interrupt_skill(2687)")
  EndEventProcessing()
  0()
 EndIf()
 0()
EndIf()
If(1,100,0,364,0)
 If(1,11,0,1,0)
  ShowMessageFace("c_s2_fc1",0,0,2,27)
  ShowMessage("\\n<Awawa>Swish!")
  355("interrupt_skill(2776)")
  EndEventProcessing()
  0()
 EndIf()
 If(1,11,0,2,0)
  ShowMessageFace("c_s2_fc1",0,0,2,28)
  ShowMessage("\\n<Awawa>Awawawa...")
  ShowMessageFace("",0,0,2,29)
  ShowMessage("Awawa is playing with bubbles...")
  EndEventProcessing()
  0()
 EndIf()
 If(1,11,0,3,0)
  ShowMessageFace("c_s2_fc1",0,0,2,30)
  ShowMessage("\\n<Awawa>Good night...")
  313(0,364,0,11)
  ShowMessageFace("",0,0,2,31)
  ShowMessage("Awawa fell asleep...")
  EndEventProcessing()
  0()
 EndIf()
 If(1,11,0,4,0)
  ShowMessageFace("c_s2_fc1",0,0,2,32)
  ShowMessage("\\n<Awawa>Give. ♪")
  ShowMessageFace("",0,0,2,33)
  ShowMessage("Awawa presents a gift!")
  250(bytes(0x04,0x08,0x6f,0x3a,0x0c,0x52,0x50,0x47,0x3a,0x3a,0x53,0x45,0x08,0x3a,0x0a,0x40,0x6e,0x61,0x6d,0x65,0x49,0x22,0x0a,0x49,0x74,0x65,0x6d,0x31,0x06,0x3a,0x06,0x45,0x54,0x3a,0x0b,0x40,0x70,0x69,0x74,0x63,0x68,0x69,0x69,0x3a,0x0c,0x40,0x76,0x6f,0x6c,0x75,0x6d,0x65,0x69,0x55))
  ChangeInventory_Item(423,0,0,1)
  ShowMessageFace("",0,0,2,34)
  ShowMessage("You obtain some \\ii[423]!")
  EndEventProcessing()
  0()
 EndIf()
 If(1,11,0,5,0)
  ShowMessageFace("c_s2_fc1",0,0,2,35)
  ShowMessage("\\n<Awawa>Awawa, bubble bubble...")
  355("interrupt_skill(2624)")
  EndEventProcessing()
  0()
 EndIf()
 0()
EndIf()
If(1,100,0,365,0)
 If(1,11,0,1,0)
  ShowMessageFace("c_a3_fc1",0,0,2,36)
  ShowMessage("\\n<Flappy>Why do I have such a form...")
  ShowMessageFace("",0,0,2,37)
  ShowMessage("Flappy is complaining to herself...")
  EndEventProcessing()
  0()
 EndIf()
 If(1,11,0,2,0)
  ShowMessageFace("c_a3_fc1",0,0,2,38)
  ShowMessage("\\n<Flappy>I am hungry, this body...")
  ShowMessageFace("",0,0,2,39)
  ShowMessage("Flappy is eating some food she stole...")
  EndEventProcessing()
  0()
 EndIf()
 If(1,11,0,3,0)
  ShowMessageFace("c_a3_fc1",0,0,2,40)
  ShowMessage("\\n<Flappy>I like dirty things...")
  313(0,365,0,11)
  ShowMessageFace("",0,0,2,41)
  ShowMessage("Flappy is thinking about lewd things...\nFlappy has become horny!")
  EndEventProcessing()
  0()
 EndIf()
 If(1,11,0,4,0)
  ShowMessageFace("c_a3_fc1",0,0,2,42)
  ShowMessage("\\n<Flappy>I will give you...")
  ShowMessageFace("",0,0,2,43)
  ShowMessage("Flappy presents a gift!")
  250(bytes(0x04,0x08,0x6f,0x3a,0x0c,0x52,0x50,0x47,0x3a,0x3a,0x53,0x45,0x08,0x3a,0x0a,0x40,0x6e,0x61,0x6d,0x65,0x49,0x22,0x0a,0x49,0x74,0x65,0x6d,0x31,0x06,0x3a,0x06,0x45,0x54,0x3a,0x0b,0x40,0x70,0x69,0x74,0x63,0x68,0x69,0x69,0x3a,0x0c,0x40,0x76,0x6f,0x6c,0x75,0x6d,0x65,0x69,0x55))
  ChangeInventory_Item(340,0,0,1)
  ShowMessageFace("",0,0,2,44)
  ShowMessage("You obtian an \\ii[340]!")
  EndEventProcessing()
  0()
 EndIf()
 If(1,11,0,5,0)
  ShowMessageFace("c_a3_fc1",0,0,2,45)
  ShowMessage("\\n<Flappy>Enjoy these tentacles...")
  355("interrupt_skill(2789)")
  EndEventProcessing()
  0()
 EndIf()
 0()
EndIf()
If(1,100,0,366,0)
 If(1,11,0,1,0)
  ShowMessageFace("AD-5_fc1",0,0,2,46)
  ShowMessage("\\n<Wrappy>Stop this fight...")
  ShowMessageFace("",0,0,2,47)
  ShowMessage("Wrappy tries to stop the fight!\nBut no one is listening...")
  EndEventProcessing()
  0()
 EndIf()
 If(1,11,0,2,0)
  ShowMessageFace("AD-5_fc1",0,0,2,48)
  ShowMessage("\\n<Wrappy>*stare*...")
  ShowMessageFace("",0,0,2,49)
  ShowMessage("Wrappy makes a sidelong glance...\nHowever, it appeared to be more like a glare!")
  EndEventProcessing()
  0()
 EndIf()
 If(1,11,0,3,0)
  ShowMessageFace("AD-5_fc1",0,0,2,50)
  ShowMessage("\\n<Wrappy>Why is the world overflowing with violence...")
  ShowMessageFace("",0,0,2,51)
  ShowMessage("Wrappy is staring blankly...")
  EndEventProcessing()
  0()
 EndIf()
 If(1,11,0,4,0)
  ShowMessageFace("AD-5_fc1",0,0,2,52)
  ShowMessage("\\n<Wrappy>Eat this...")
  ShowMessageFace("",0,0,2,53)
  ShowMessage("Wrappy presents a gift!")
  250(bytes(0x04,0x08,0x6f,0x3a,0x0c,0x52,0x50,0x47,0x3a,0x3a,0x53,0x45,0x08,0x3a,0x0a,0x40,0x6e,0x61,0x6d,0x65,0x49,0x22,0x0a,0x49,0x74,0x65,0x6d,0x31,0x06,0x3a,0x06,0x45,0x54,0x3a,0x0b,0x40,0x70,0x69,0x74,0x63,0x68,0x69,0x69,0x3a,0x0c,0x40,0x76,0x6f,0x6c,0x75,0x6d,0x65,0x69,0x55))
  ChangeInventory_Item(376,0,0,1)
  ShowMessageFace("",0,0,2,54)
  ShowMessage("You obtain a \\ii[376]!")
  EndEventProcessing()
  0()
 EndIf()
 If(1,11,0,5,0)
  ShowMessageFace("AD-5_fc1",0,0,2,55)
  ShowMessage("\\n<Wrappy>Clear away the enemy...")
  355("interrupt_skill(2831)")
  EndEventProcessing()
  0()
 EndIf()
 0()
EndIf()
If(1,100,0,367,0)
 If(1,11,0,1,0)
  ShowMessageFace("q_5_fc1",0,0,2,56)
  ShowMessage("\\n<Spinny>Spin spin spin...")
  ShowMessageFace("",0,0,2,57)
  ShowMessage("Spinny is spinning in circles...")
  EndEventProcessing()
  0()
 EndIf()
 If(1,11,0,2,0)
  ShowMessageFace("q_5_fc1",0,0,2,58)
  ShowMessage("\\n<Spinny>Spinny...")
  ShowMessageFace("",0,0,2,59)
  ShowMessage("Spinny is in a daze...")
  EndEventProcessing()
  0()
 EndIf()
 If(1,11,0,3,0)
  ShowMessageFace("q_5_fc1",0,0,2,60)
  ShowMessage("\\n<Spinny>...Gyah!")
  355("interrupt_skill(3293)")
  EndEventProcessing()
  0()
 EndIf()
 If(1,11,0,4,0)
  ShowMessageFace("q_5_fc1",0,0,2,61)
  ShowMessage("\\n<Spinny>I'll give you this... Aren't you spinning?")
  ShowMessageFace("",0,0,2,62)
  ShowMessage("Spinny presents a gift!")
  250(bytes(0x04,0x08,0x6f,0x3a,0x0c,0x52,0x50,0x47,0x3a,0x3a,0x53,0x45,0x08,0x3a,0x0a,0x40,0x6e,0x61,0x6d,0x65,0x49,0x22,0x0a,0x49,0x74,0x65,0x6d,0x31,0x06,0x3a,0x06,0x45,0x54,0x3a,0x0b,0x40,0x70,0x69,0x74,0x63,0x68,0x69,0x69,0x3a,0x0c,0x40,0x76,0x6f,0x6c,0x75,0x6d,0x65,0x69,0x55))
  ChangeInventory_Item(419,0,0,1)
  ShowMessageFace("",0,0,2,63)
  ShowMessage("You obtain a \\ii[419]!")
  EndEventProcessing()
  0()
 EndIf()
 If(1,11,0,5,0)
  ShowMessageFace("q_5_fc1",0,0,2,64)
  ShowMessage("\\n<Spinny>Whip whip...")
  355("interrupt_skill(2776)")
  EndEventProcessing()
  0()
 EndIf()
 0()
EndIf()
If(1,100,0,368,0)
 If(1,11,0,1,0)
  ShowMessageFace("cirqueb_fc1",0,0,2,65)
  ShowMessage("\\n<Fernandez>Damn you!!")
  355("interrupt_skill(3292)")
  EndEventProcessing()
  0()
 EndIf()
 If(1,11,0,2,0)
  ShowMessageFace("cirqueb_fc1",0,0,2,66)
  ShowMessage("\\n<Fernandez>Muu...")
  ShowMessageFace("",0,0,2,67)
  ShowMessage("Fernandez makes a sidelong glance...\nHowever, it appeared to be more like a glare!")
  EndEventProcessing()
  0()
 EndIf()
 If(1,11,0,3,0)
  ShowMessageFace("cirqueb_fc1",2,0,2,68)
  ShowMessage("\\n<Fernandez>I'm getting a little hungry...")
  ShowMessageFace("",0,0,2,69)
  ShowMessage("Fernandez is eating some food she stole...")
  EndEventProcessing()
  0()
 EndIf()
 If(1,11,0,4,0)
  ShowMessageFace("cirqueb_fc1",0,0,2,70)
  ShowMessage("\\n<Fernandez>I'll give you this. Don't worry, it isn't rotten...")
  ShowMessageFace("",0,0,2,71)
  ShowMessage("Fernandez presents a gift!")
  250(bytes(0x04,0x08,0x6f,0x3a,0x0c,0x52,0x50,0x47,0x3a,0x3a,0x53,0x45,0x08,0x3a,0x0a,0x40,0x6e,0x61,0x6d,0x65,0x49,0x22,0x0a,0x49,0x74,0x65,0x6d,0x31,0x06,0x3a,0x06,0x45,0x54,0x3a,0x0b,0x40,0x70,0x69,0x74,0x63,0x68,0x69,0x69,0x3a,0x0c,0x40,0x76,0x6f,0x6c,0x75,0x6d,0x65,0x69,0x55))
  ChangeInventory_Item(357,0,0,1)
  ShowMessageFace("",0,0,2,72)
  ShowMessage("You obtain a \\ii[357]!")
  EndEventProcessing()
  0()
 EndIf()
 If(1,11,0,5,0)
  ShowMessageFace("cirqueb_fc1",0,0,2,73)
  ShowMessage("\\n<Fernandez>Haa!")
  355("interrupt_skill(3294)")
  EndEventProcessing()
  0()
 EndIf()
 0()
EndIf()
If(1,100,0,370,0)
 If(1,11,0,1,0)
  ShowMessageFace("cirqueb_fc2",0,0,2,74)
  ShowMessage("\\n<Titania>Ehehe♪")
  ShowMessageFace("",0,0,2,75)
  ShowMessage("Titania is doodling on the ground...")
  EndEventProcessing()
  0()
 EndIf()
 If(1,11,0,2,0)
  ShowMessageFace("cirqueb_fc2",0,0,2,76)
  ShowMessage("\\n<Titania>I love mischief! ♪")
  355("interrupt_skill(3298)")
  EndEventProcessing()
  0()
 EndIf()
 If(1,11,0,3,0)
  ShowMessageFace("cirqueb_fc2",1,0,2,77)
  ShowMessage("\\n<Titania>Ufufu...♪")
  313(0,370,0,11)
  ShowMessageFace("",0,0,2,78)
  ShowMessage("Titania is thinking about lewd things...\nTitania has become horny!")
  EndEventProcessing()
  0()
 EndIf()
 If(1,11,0,4,0)
  ShowMessageFace("cirqueb_fc2",0,0,2,79)
  ShowMessage("\\n<Titania>This kid is my friend. ♪")
  ShowMessageFace("",0,0,2,80)
  ShowMessage("Titania presents a gift!")
  250(bytes(0x04,0x08,0x6f,0x3a,0x0c,0x52,0x50,0x47,0x3a,0x3a,0x53,0x45,0x08,0x3a,0x0a,0x40,0x6e,0x61,0x6d,0x65,0x49,0x22,0x0a,0x49,0x74,0x65,0x6d,0x31,0x06,0x3a,0x06,0x45,0x54,0x3a,0x0b,0x40,0x70,0x69,0x74,0x63,0x68,0x69,0x69,0x3a,0x0c,0x40,0x76,0x6f,0x6c,0x75,0x6d,0x65,0x69,0x55))
  ChangeInventory_Item(450,0,0,1)
  ShowMessageFace("",0,0,2,81)
  ShowMessage("You obtain a \\ii[450]!")
  EndEventProcessing()
  0()
 EndIf()
 If(1,11,0,5,0)
  ShowMessageFace("cirqueb_fc2",1,0,2,82)
  ShowMessage("\\n<Titania>I like playing with fire. ♪")
  355("interrupt_skill(3295)")
  EndEventProcessing()
  0()
 EndIf()
 0()
EndIf()
0()
