// EVENT 4177
Name "Jaide 2"

If(0,25,1)
 221()
 PictureClear(5)
 PictureClear(6)
 ShowMessageFace("",0,0,2,0)
 ShowMessage("......")
 242(2)
 Wait(120)
 241(bytes(0x04,0x08,0x6f,0x3a,0x0d,0x52,0x50,0x47,0x3a,0x3a,0x42,0x47,0x4d,0x08,0x3a,0x0a,0x40,0x6e,0x61,0x6d,0x65,0x49,0x22,0x0c,0x63,0x61,0x73,0x74,0x6c,0x65,0x36,0x06,0x3a,0x06,0x45,0x54,0x3a,0x0c,0x40,0x76,0x6f,0x6c,0x75,0x6d,0x65,0x69,0x69,0x3a,0x0b,0x40,0x70,0x69,0x74,0x63,0x68,0x69,0x69))
 EndEventProcessing()
 0()
EndIf()
PictureDisplay(5,"80_jeid_st01",0,0,0,0,100,100,255,0)
ShowMessageFace("jeid_fc1",0,0,2,1)
ShowMessage("\\n<Jaide>Blowjob... Is it?")
ShowMessageFace("jeid_fc1",0,0,2,2)
ShowMessage("\\n<Jaide>Understood, confirmed.\nYou wish me to process your sexual desire using my mouth, correct?")
ShowMessageFace("",0,0,2,3)
ShowMessage("\\n<Luka>Y...Yes... Please...")
ShowMessageFace("jeid_fc1",0,0,2,4)
ShowMessage("\\n<Jaide>These lips are for conversing, not sexual actions.\nTo request this organ for semen discharge purposes...")
ShowMessageFace("jeid_fc1",0,0,2,5)
ShowMessage("\\n<Jaide>Are you not mistaken in your understanding of sex?")
ShowMessageFace("",0,0,2,6)
ShowMessage("\\n<Luka>......")
ShowMessageFace("jeid_fc1",0,0,2,7)
ShowMessage("\\n<Jaide>Acknowledged, let us begin semen disposure then.\nCome this way...")
ShowMessageFace("",0,0,2,8)
ShowMessage("I follow Jaide to her room...")
221()
PictureDisplay(1,"bg195",0,0,0,0,100,100,255,0)
PictureDisplay(5,"ev_jeid_hb01",0,0,0,0,100,100,255,0)
222()
241(bytes(0x04,0x08,0x6f,0x3a,0x0d,0x52,0x50,0x47,0x3a,0x3a,0x42,0x47,0x4d,0x08,0x3a,0x0a,0x40,0x6e,0x61,0x6d,0x65,0x49,0x22,0x09,0x65,0x72,0x6f,0x31,0x06,0x3a,0x06,0x45,0x54,0x3a,0x0c,0x40,0x76,0x6f,0x6c,0x75,0x6d,0x65,0x69,0x69,0x3a,0x0b,0x40,0x70,0x69,0x74,0x63,0x68,0x69,0x69))
ShowMessageFace("",0,0,2,9)
ShowMessage("\\n<Luka>Ah, ugh...")
ShowMessageFace("",0,0,2,10)
ShowMessage("As soon as I enter Jaide's room, she takes my penis into her mouth.")
ShowMessage("A sweet feeling, far from machine-like, assaults me.")
ShowMessageFace("",0,0,2,11)
ShowMessage("But the strange sight in front of me surprises me.")
ShowMessage("Jaide's head unit opens, exposing a bizarre shape.")
ShowMessageFace("jeid_fc1",0,0,2,12)
ShowMessage("\\n<Jaide>Explanation is required.\nThis will be used to perform semen discharge services.")
ShowMessageFace("jeid_fc1",0,0,2,13)
ShowMessage("\\n<Jaide>During processing, waist movement is highly advised against.\nI urge non-violence.")
ShowMessageFace("",0,0,2,14)
ShowMessage("She's telling me to stay stationary...")
ShowMessage("But the sight of her head is so bizarre.")
ShowMessageFace("",0,0,2,15)
ShowMessage("\\n<Luka>B...But your head... Why...?")
ShowMessageFace("jeid_fc1",0,0,2,16)
ShowMessage("\\n<Jaide>What about my head structure?\nThere is no issue regarding its use.")
ShowMessageFace("jeid_fc1",0,0,2,17)
ShowMessage("\\n<Jaide>Do not hesitate.\nConsider it as a toilet, free to dispose semen inside.")
ShowMessageFace("jeid_fc1",0,0,2,18)
ShowMessage("\\n<Jaide>I have detected your erection, so there should be no issues?\nNow then, let us begin the semen extraction.")
245(bytes(0x04,0x08,0x6f,0x3a,0x0d,0x52,0x50,0x47,0x3a,0x3a,0x42,0x47,0x53,0x08,0x3a,0x0a,0x40,0x6e,0x61,0x6d,0x65,0x49,0x22,0x10,0x6d,0x6f,0x6e,0x5f,0x68,0x76,0x6f,0x69,0x63,0x65,0x31,0x06,0x3a,0x06,0x45,0x54,0x3a,0x0c,0x40,0x76,0x6f,0x6c,0x75,0x6d,0x65,0x69,0x55,0x3a,0x0b,0x40,0x70,0x69,0x74,0x63,0x68,0x69,0x69))
PictureDisplay(5,"ev_jeid_hb02",0,0,0,0,100,100,255,0)
ShowMessageFace("",0,0,2,19)
ShowMessage("\\n<Luka>Ah... Aaah...")
ShowMessageFace("jeid_fc1",0,0,2,20)
ShowMessage("\\n<Jaide>Stimulation of sensitive areas and application of lubrication commencing.")
ShowMessageFace("",0,0,2,21)
ShowMessage("Jaide's head starts to slowly move.")
ShowMessage("It's a gentle, but pleasurable stroke.")
ShowMessageFace("",0,0,2,22)
ShowMessage("A saliva-like fluid coats my penis as she moves.")
ShowMessage("The warm, sticky fluid gives off a unique sensation.")
ShowMessageFace("jeid_fc1",0,0,2,23)
ShowMessage("\\n<Jaide>\"I want to dispose of my semen in a method of no value.\"\nWas your order.")
ShowMessageFace("jeid_fc1",0,0,2,24)
ShowMessage("\\n<Jaide>I shall comply.\nAll semen contained in your testicles shall be removed.")
ShowMessageFace("jeid_fc1",0,0,2,25)
ShowMessage("\\n<Jaide>To achieve, continuous ejaculations shall be supplied.\nAs a final preparation, confirmation is required.")
PictureDisplay(5,"ev_jeid_hb03",0,0,0,0,100,100,255,0)
ShowMessageFace("",0,0,2,26)
ShowMessage("\\n<Luka>Aaah...Th-That feels good...")
ShowMessageFace("",0,0,2,27)
ShowMessage("When Jaide speaks, her voice causes stimulating vibrations.")
ShowMessage("Her sweet blowjob causes me to respond before really registering what she said.")
ShowMessageFace("jeid_fc1",0,0,2,28)
ShowMessage("\\n<Jaide>Your testicles are full...\nYou understand that all ejaculations performed are completely wasteful?")
ShowMessageFace("jeid_fc1",0,0,2,29)
ShowMessage("\\n<Jaide>I shall empty your balls.\nAll accumulated semen shall be thoroughly extracted.")
ShowMessageFace("",0,0,2,30)
ShowMessage("Her sweet stroke feels so good...")
ShowMessage("My waist moves unconsciously in reaction.")
ShowMessageFace("",0,0,2,31)
ShowMessage("\\n<Luka>Nnngh... Ah, aaah...")
ShowMessageFace("",0,0,2,32)
ShowMessage("The sweet numbing feeling slowly fills my body from my waist.")
ShowMessage("This incredible oral stimulation, leading me to a fast ejaculation.")
ShowMessageFace("",0,0,2,33)
ShowMessage("\\n<Luka>Aaah...I'm going to come...")
ShowMessageFace("jeid_fc1",0,0,2,34)
ShowMessage("\\n<Jaide>After the first ejaculation, stimulation will continue until you're empty.\nThe extraction will continue, despite changing desires of initiator.")
ShowMessageFace("jeid_fc1",0,0,2,35)
ShowMessage("\\n<Jaide>Gentle pleasure is only expected at the outset.\nPlease enjoy it for now.")
ShowMessageFace("",0,0,2,36)
ShowMessage("\\n<Luka>Ah, aaah...")
ShowMessageFace("",0,0,2,37)
ShowMessage("The gentle pleasurre leads me closer and closer to a climax.")
ShowMessage("At last I hand myself over, savoring the release.")
246(1)
RunCommonEvent(104)
PictureDisplay(5,"ev_jeid_hb04",0,0,0,0,100,100,255,0)
RunCommonEvent(105)
ShowMessageFace("",0,0,2,38)
ShowMessage("Together with a melting sensation, I come in her mouth.")
ShowMessage("My body trembles in unexpected pleasure.")
ShowMessageFace("jeid_fc1",0,0,2,39)
ShowMessage("\\n<Jaide>Semen confirmed.\nWaist shaking is at an extreme level... Is discharging semen that enjoyable?")
ShowMessageFace("jeid_fc1",0,0,2,40)
ShowMessage("\\n<Jaide>Do not hesitate in ejaculating every drop.\nWaist movements are not recommended during following ejaculations.")
PictureDisplay(5,"ev_jeid_hb05",0,0,0,0,100,100,255,0)
ShowMessageFace("",0,0,2,41)
ShowMessage("\\n<Luka>Nnngh...")
ShowMessageFace("",0,0,2,42)
ShowMessage("After my ejaculation is finally finished, I feel weak.")
ShowMessage("My semen is all over the inside of Jaide's head...")
ShowMessageFace("jeid_fc1",0,0,2,43)
ShowMessage("\\n<Jaide>Urethral condition check completed.\nNo health problems preclude continuous milking operation.")
ShowMessageFace("jeid_fc1",0,0,2,44)
ShowMessage("\\n<Jaide>Sensitivity is at max after orgasm.\nNo issues detected for forced ejaculation.")
ShowMessageFace("",0,0,2,45)
ShowMessage("Jaide emotionlessly describes the state of my penis.")
ShowMessage("She calmly informs me that something intense is about to occur...")
ShowMessageFace("jeid_fc1",0,0,2,46)
ShowMessage("\\n<Jaide>Semen quality is good.\nSince it was not used for fertilization, it has been wasted.")
ShowMessageFace("jeid_fc1",0,0,2,47)
ShowMessage("\\n<Jaide>For my operator to request an inorganic being to dispose of his semen for him...\nI do not understand.")
ShowMessageFace("jeid_fc1",0,0,2,48)
ShowMessage("\\n<Jaide>Moving on...\nI will change to forced ejaculation mode.")
PictureDisplay(5,"ev_jeid_hb06",0,0,0,0,100,100,255,0)
ShowMessageFace("",0,0,2,49)
ShowMessage("Her lips deform, reaching out to wrap around more of my penis.")
ShowMessage("With a sucking noise, she swallows my shaft.")
ShowMessageFace("",0,0,2,50)
ShowMessage("\\n<Luka>Ah, unnngh...")
ShowMessageFace("",0,0,2,51)
ShowMessage("Her very un-machine like lips tightly press against my penis.")
ShowMessage("It's less like a mouth, and more like an actual hole for insertion...")
ShowMessageFace("jeid_fc1",0,0,2,52)
ShowMessage("\\n<Jaide>Your testicles have risen up.\nIs it in fear? Or expectation?")
ShowMessageFace("jeid_fc1",0,0,2,53)
ShowMessage("\\n<Jaide>Oral shape has been fixed to this position.\nPlease note that escape from this oral cavity is impossible.")
ShowMessageFace("",0,0,2,54)
ShowMessage("\\n<Luka>Ah, unnngh...")
ShowMessageFace("jeid_fc1",0,0,2,55)
ShowMessage("\\n<Jaide>Now to begin semen disposal.")
245(bytes(0x04,0x08,0x6f,0x3a,0x0d,0x52,0x50,0x47,0x3a,0x3a,0x42,0x47,0x53,0x08,0x3a,0x0a,0x40,0x6e,0x61,0x6d,0x65,0x49,0x22,0x10,0x6d,0x6f,0x6e,0x5f,0x68,0x76,0x6f,0x69,0x63,0x65,0x34,0x06,0x3a,0x06,0x45,0x54,0x3a,0x0c,0x40,0x76,0x6f,0x6c,0x75,0x6d,0x65,0x69,0x55,0x3a,0x0b,0x40,0x70,0x69,0x74,0x63,0x68,0x69,0x69))
PictureDisplay(5,"ev_jeid_hb07",0,0,0,0,100,100,255,0)
ShowMessageFace("",0,0,2,56)
ShowMessage("\\n<Luka>Ah, aaaaaah!!")
ShowMessageFace("",0,0,2,57)
ShowMessage("Jaide's face starts to move back and forth in an incredible piston movement.")
ShowMessage("Each time her head moves back, it pulls hard on my penis.")
ShowMessageFace("",0,0,2,58)
ShowMessage("\\n<Luka>Ahi-Aaaah...!!")
ShowMessageFace("",0,0,2,59)
ShowMessage("My upper body loses all power as my feet are left shaking.")
ShowMessage("But Jaide's mouth has me firmly locked in, not letting me go.")
ShowMessageFace("jeid_fc1",0,0,2,60)
ShowMessage("\\n<Jaide>Cease squirming, and remain standing.")
ShowMessageFace("jeid_fc1",0,0,2,61)
ShowMessage("\\n<Jaide>While maintaining this position, you will ejaculate without stopping.")
ShowMessageFace("jeid_fc1",0,0,2,62)
ShowMessage("\\n<Jaide>This is the most effective method for semen disposal.")
ShowMessageFace("",0,0,2,63)
ShowMessage("I can hear her voice clearly, despite my penis filling her mouth.")
ShowMessage("I feel myself being driven quickly to a fierce orgasm.")
ShowMessageFace("jeid_fc1",0,0,2,64)
ShowMessage("\\n<Jaide>Your penis will be devoted to the ejaculatory state for a while.\nI will process it all quickly, you need only endure.")
ShowMessageFace("",0,0,2,65)
ShowMessage("\\n<Luka>Hya, Aaaah...!!")
RunCommonEvent(104)
PictureDisplay(5,"ev_jeid_hb08",0,0,0,0,100,100,255,0)
RunCommonEvent(105)
ShowMessageFace("",0,0,2,66)
ShowMessage("My semen shoots out, her intense piston movement causing it to fly everywhere.")
ShowMessageFace("jeid_fc1",0,0,2,67)
ShowMessage("\\n<Jaide>Change of state confirmed.\nState locked in for continuance.")
ShowMessageFace("",0,0,2,68)
ShowMessage("\\n<Luka>Th...that...! Aaaah...!!")
ShowMessageFace("jeid_fc1",0,0,2,69)
ShowMessage("\\n<Jaide>Continuing...")
PictureDisplay(5,"ev_jeid_hb09",0,0,0,0,100,100,255,0)
ShowMessageFace("",0,0,2,70)
ShowMessage("Her movements get even more intense.")
ShowMessage("Her lips press against my balls at the end of each thrust of her mouth.")
ShowMessageFace("",0,0,2,71)
ShowMessage("Going mad in pleasure, I scream out.")
ShowMessage("But Jaide just continues her intense movements, ignoring me.")
ShowMessageFace("",0,0,2,72)
ShowMessage("\\n<Luka>Hyaaa...! Stop already...!!")
ShowMessageFace("jeid_fc1",0,0,2,73)
ShowMessage("\\n<Jaide>This is the oral extraction you desired.\nChanging desires in the middle will not lead to cessation.")
ShowMessageFace("jeid_fc1",0,0,2,74)
ShowMessage("\\n<Jaide>Your dick is being utilized by my lips.\nSemen disposal is in progress.")
ShowMessageFace("jeid_fc1",0,0,2,75)
ShowMessage("\\n<Jaide>You yourself were the one who initiated this.")
ShowMessageFace("",0,0,2,76)
ShowMessage("\\n<Luka>Ah... Hyaaa...!!")
ShowMessageFace("",0,0,2,77)
ShowMessage("With my body wracked by pleasure, I can't even form words.")
ShowMessage("Writhing in crazed ecstasy, I can only regret my careless request.")
ShowMessageFace("jeid_fc1",0,0,2,78)
ShowMessage("\\n<Jaide>We're nearing the next shot.")
ShowMessageFace("jeid_fc1",0,0,2,79)
ShowMessage("\\n<Jaide>My lips will tighten, and movements shall be increased.\nThe coup de grâce shall now be delivered.")
ShowMessageFace("jeid_fc1",0,0,2,80)
ShowMessage("\\n<Jaide>...*Suck*♪")
ShowMessageFace("",0,0,2,81)
ShowMessage("My head goes pure white for a moment as I reach an intense height.")
RunCommonEvent(104)
PictureDisplay(5,"ev_jeid_hb10",0,0,0,0,100,100,255,0)
RunCommonEvent(105)
ShowMessageFace("",0,0,2,82)
ShowMessage("\\n<Luka>Huaaa...")
ShowMessageFace("jeid_fc1",0,0,2,83)
ShowMessage("\\n<Jaide>Semen extraction process continuing...")
ShowMessageFace("",0,0,2,84)
ShowMessage("My semen overflows from Jaide's open head.")
ShowMessage("It's like I'm filling up her hollow cavity...")
ShowMessageFace("jeid_fc1",0,0,2,85)
ShowMessage("\\n<Jaide>...Head sensors are indicating your eyes are focusing on it.\nDoes the sight of your semen being disposed intrigue you?")
ShowMessageFace("",0,0,2,86)
ShowMessage("\\n<Luka>Th-that's not...")
ShowMessageFace("jeid_fc1",0,0,2,87)
ShowMessage("\\n<Jaide>Futile ejaculation... Is how a human would understand it.")
ShowMessageFace("jeid_fc1",0,0,2,88)
ShowMessage("\\n<Jaide>Your semen will not be used to create life, and will remain only in my head.\nLater, it will be simply disposed of.")
ShowMessageFace("",0,0,2,89)
ShowMessage("I gaze at the semen filling up Jaide's head.")
ShowMessage("The proof of my humiliating desire is there for me to see...")
ShowMessageFace("jeid_fc1",0,0,2,90)
ShowMessage("\\n<Jaide>Nutrition shall be filtered from it, and the sperm itself shall be sterilized.")
ShowMessageFace("jeid_fc1",0,0,2,91)
ShowMessage("\\n<Jaide>Even though your semen is being treated so pitifully...\nDoes it please you?")
ShowMessageFace("jeid_fc1",0,0,2,92)
ShowMessage("\\n<Jaide>...Forgive me, I was getting sidetracked. I shall begin the final processing.")
PictureDisplay(5,"ev_jeid_hb11",0,0,0,0,100,100,255,0)
ShowMessageFace("",0,0,2,93)
ShowMessage("\\n<Luka>Ahii... Aaaaaah!!")
ShowMessageFace("",0,0,2,94)
ShowMessage("Jaide's lips go back and forth along my shaft at an incredible speed.")
ShowMessage("My body trembles at the incredible pleasure.")
ShowMessageFace("jeid_fc1",0,0,2,95)
ShowMessage("\\n<Jaide>Critical point has been reached.\nAfter this, deviation from intended function will be discarded.")
ShowMessageFace("jeid_fc1",0,0,2,96)
ShowMessage("\\n<Jaide>Regardless of target refusal or endurance.\nPlease keep in mind that continued ejaculations will be performed.")
ShowMessageFace("",0,0,2,97)
ShowMessage("\\n<Luka>S-Stop this...!\nHelp meee!")
ShowMessageFace("jeid_fc1",0,0,2,98)
ShowMessage("\\n<Jaide>Refusal by target noted and confirmed.\nRefusal discarded.")
ShowMessageFace("",0,0,2,99)
ShowMessage("\\n<Luka>Hyaaaa!!")
RunCommonEvent(104)
PictureDisplay(5,"ev_jeid_hb12",0,0,0,0,100,100,255,0)
RunCommonEvent(105)
ShowMessageFace("jeid_fc1",0,0,2,100)
ShowMessage("\\n<Jaide>Disposal functions shall begin before all semen has been extracted.\nAfter filtration, internal disposal will begin.")
ShowMessageFace("",0,0,2,101)
ShowMessage("Even during my ejaculation, Jaide's piston movements don't slow down.")
ShowMessage("With my body shaking, the intense stimulation only continues.")
ShowMessageFace("",0,0,2,102)
ShowMessage("\\n<Luka>Ah, Agg... Ah, aaah...\nS-Sto... Urhg...")
ShowMessageFace("jeid_fc1",0,0,2,103)
ShowMessage("\\n<Jaide>Facial scan indicated presence of tears.\nBased on body scans, additional ejaculations still required.")
ShowMessageFace("",0,0,2,104)
ShowMessage("Without slowing down, a vacuum-like suction starts pulling on my penis inside her mouth.")
ShowMessageFace("",0,0,2,105)
ShowMessage("All coherent thought vanishes as a storm of pleasure overrides everything else.")
PictureDisplay(5,"ev_jeid_hb13",0,0,0,0,100,100,255,0)
ShowMessageFace("jeid_fc1",0,0,2,106)
ShowMessage("\\n<Jaide>Semen quality is good.\nSexual pleasure...shall continue.")
ShowMessageFace("jeid_fc1",0,0,2,107)
ShowMessage("\\n<Jaide>Target's level of consciousness has decreased.\nThreat of sanity loss has increased. Semen extraction timeline shall be accelerated.")
ShowMessageFace("",0,0,2,108)
ShowMessage("Suddenly the sucking gets even more intense.")
ShowMessage("Her lips close around my penis, and it feels like she's sucking everything from me.")
ShowMessageFace("",0,0,2,109)
ShowMessage("\\n<Luka>Ah, Aiyeee...!!")
RunCommonEvent(104)
PictureDisplay(5,"ev_jeid_hb14",0,0,0,0,100,100,255,0)
RunCommonEvent(105)
ShowMessageFace("",0,0,2,110)
ShowMessage("A huge amount of semen shoots out, hitting the back of her head.")
ShowMessage("At the same time, I collapse.")
PictureDisplay(5,"ev_jeid_hb15",0,0,0,0,100,100,255,0)
ShowMessageFace("jeid_fc1",0,0,2,111)
ShowMessage("\\n<Jaide>...Full semen extraction is completed.")
ShowMessageFace("jeid_fc1",0,0,2,112)
ShowMessage("\\n<Jaide>Sperm filtration and disposal shall begin now.")
ShowMessageFace("jeid_fc1",0,0,2,113)
ShowMessage("\\n<Jaide>...However, residue may remain in urethra.\nConfirmation ejaculation shall be performed.")
PictureDisplay(5,"ev_jeid_hb16",0,0,0,0,100,100,255,0)
ShowMessageFace("",0,0,2,114)
ShowMessage("Her lips run back and forth along my shaft.")
ShowMessage("Slowing down, it's an almost gentle pleasure.")
ShowMessageFace("",0,0,2,115)
ShowMessage("At the same time, I can see my semen shooting out from her ass.")
ShowMessage("It's like a bowel movement of a human...")
ShowMessageFace("jeid_fc1",0,0,2,116)
ShowMessage("\\n<Jaide>Penis slightly harder... Is it due to view of disposal processing?")
ShowMessageFace("jeid_fc1",0,0,2,117)
ShowMessage("\\n<Jaide>Target perversion exceeds expected estimation.")
ShowMessageFace("",0,0,2,118)
ShowMessage("The gentle stimulation continues as her emotionless recital of observations continues.")
ShowMessage("Despite thinking I was empty, my penis twitches again...")
246(2)
RunCommonEvent(104)
PictureDisplay(5,"ev_jeid_hb17",0,0,0,0,100,100,255,0)
RunCommonEvent(105)
ShowMessageFace("",0,0,2,119)
ShowMessage("\\n<Luka>Aaah...")
ShowMessageFace("",0,0,2,120)
ShowMessage("A few drops of semen spill out.")
ShowMessage("Forced to climax yet again, I'm left exhausted.")
ShowMessageFace("jeid_fc1",0,0,2,121)
ShowMessage("\\n<Jaide>There was indeed more...\nPlease report presence of additional semen yourself next time.")
ShowMessageFace("jeid_fc1",0,0,2,122)
ShowMessage("\\n<Jaide>This room has been thoroughly dirtied.\nPost-processing cleanup will need to be performed.")
ShowMessageFace("",0,0,2,123)
ShowMessage("\\n<Luka>......")
ShowMessageFace("",0,0,2,124)
ShowMessage("As the last drop of semen is milked from me, I collapse on the spot.")
ShowMessage("Laying on the floor, I lose consciousness...")
221()
PictureClear(5)
ShowMessageFace("",0,0,2,125)
ShowMessage("......")
242(2)
Wait(120)
241(bytes(0x04,0x08,0x6f,0x3a,0x0d,0x52,0x50,0x47,0x3a,0x3a,0x42,0x47,0x4d,0x08,0x3a,0x0a,0x40,0x6e,0x61,0x6d,0x65,0x49,0x22,0x0c,0x63,0x61,0x73,0x74,0x6c,0x65,0x36,0x06,0x3a,0x06,0x45,0x54,0x3a,0x0c,0x40,0x76,0x6f,0x6c,0x75,0x6d,0x65,0x69,0x69,0x3a,0x0b,0x40,0x70,0x69,0x74,0x63,0x68,0x69,0x69))
0()
