// EVENT 0140
Name "Medal King"

ChangeVariable(10,10,0,3,0,32,0)
If(1,10,0,0,0)
 ShowMessageFace("People4",0,0,2,1)
 ShowMessage("\\n<Medal King>You currently have... no medals at all, it seems.\nBut while you're here, have a look at the rewards.")
 0()
Else()
 ShowMessageFace("People4",0,0,2,2)
 ShowMessage("\\n<Medal King>You currently have \\V[10] medals.\nNow, what will you trade them for?")
 0()
EndIf()
DefineLabel("リスト")
ChangeVariable(10,10,0,3,0,32,0)
355("unlimited_choices(11,[\"Life Nut(2)\",")
655("\"Mystery Nut(2)\",\"Seed of Power(2)\",")
655("\"Seed of Defense(2)\",\"Seed of Magic(2)\",")
655("\"Seed of Spirit(2)\",\"Seed of Agility(2)\",")
655("\"Seed of Skill(2)\",")
655("\"Heinrich's Helm(30-Only one)\",")
655("\"Heinrich's Shield(30-Only one)\",")
655("\"Heinrich's Sword(40-Only one)\",")
655("\"Heinrich's Armor(40-Only one)\",")
655("\"Etemen`anki(50)\",")
655("\"Never mind\"])")
If(1,11,0,0,0)
 ShowMessageFace("People4",0,0,2,3)
 ShowMessage("\\n<Medal King>How many?")
 ShowMessage("(Small Medals:\\V[10])")
 ShowChoices(strings("Just one","Multiple"),5)
 IfPlayerPicksChoice(0,null)
  If(1,10,0,2,1)
   ChangeInventory_Item(32,1,0,2)
   ChangeVariable(55,55,1,0,2)
   ShowMessageFace("People4",0,0,2,4)
   ShowMessage("\\n<Medal King>Very well. Here you go.")
   250(bytes(0x04,0x08,0x6f,0x3a,0x0c,0x52,0x50,0x47,0x3a,0x3a,0x53,0x45,0x08,0x3a,0x0a,0x40,0x6e,0x61,0x6d,0x65,0x49,0x22,0x0a,0x49,0x74,0x65,0x6d,0x31,0x06,0x3a,0x06,0x45,0x54,0x3a,0x0b,0x40,0x70,0x69,0x74,0x63,0x68,0x69,0x69,0x3a,0x0c,0x40,0x76,0x6f,0x6c,0x75,0x6d,0x65,0x69,0x55))
   ChangeInventory_Item(24,0,0,1)
   ShowMessageFace("People4",0,0,2,5)
   ShowMessage("\\n<Medal King>Is there anything else you'd like to trade for?")
   JumpToLabel("リスト")
   0()
  Else()
   ShowMessageFace("People4",0,0,2,6)
   ShowMessage("\\n<Medal King>My apologies, but it seems you're lacking in medals...")
   JumpToLabel("リスト")
   0()
  EndIf()
  0()
 IfPlayerPicksChoice(1,null)
  NumericInput(14,2)
  ChangeVariable(15,15,0,1,14)
  ChangeVariable(15,15,3,0,2)
  If(1,10,1,15,1)
   ChangeInventory_Item(32,1,1,15)
   ChangeVariable(55,55,1,1,14)
   ShowMessageFace("People4",0,0,2,7)
   ShowMessage("\\n<Medal King>Very well. Here you go.")
   250(bytes(0x04,0x08,0x6f,0x3a,0x0c,0x52,0x50,0x47,0x3a,0x3a,0x53,0x45,0x08,0x3a,0x0a,0x40,0x6e,0x61,0x6d,0x65,0x49,0x22,0x0a,0x49,0x74,0x65,0x6d,0x31,0x06,0x3a,0x06,0x45,0x54,0x3a,0x0b,0x40,0x70,0x69,0x74,0x63,0x68,0x69,0x69,0x3a,0x0c,0x40,0x76,0x6f,0x6c,0x75,0x6d,0x65,0x69,0x55))
   ChangeInventory_Item(24,0,1,14)
   ShowMessageFace("People4",0,0,2,8)
   ShowMessage("\\n<Medal King>Is there anything else you'd like to trade for?")
   JumpToLabel("リスト")
   0()
  Else()
   ShowMessageFace("People4",0,0,2,9)
   ShowMessage("\\n<Medal King>My apologies, but it seems you're lacking in medals...")
   JumpToLabel("リスト")
   0()
  EndIf()
  0()
 IfPlayerCancelsChoice()
  ShowMessageFace("People4",0,0,2,10)
  ShowMessage("\\n<Medal King>Is there anything else you'd like to trade for?")
  JumpToLabel("リスト")
  0()
 404()
 0()
EndIf()
If(1,11,0,1,0)
 ShowMessageFace("People4",0,0,2,11)
 ShowMessage("\\n<Medal King>How many?")
 ShowMessage("(Small Medals:\\V[10])")
 ShowChoices(strings("Just one","Multiple"),5)
 IfPlayerPicksChoice(0,null)
  If(1,10,0,2,1)
   ChangeInventory_Item(32,1,0,2)
   ChangeVariable(55,55,1,0,2)
   ShowMessageFace("People4",0,0,2,12)
   ShowMessage("\\n<Medal King>Very well. Here you go.")
   250(bytes(0x04,0x08,0x6f,0x3a,0x0c,0x52,0x50,0x47,0x3a,0x3a,0x53,0x45,0x08,0x3a,0x0a,0x40,0x6e,0x61,0x6d,0x65,0x49,0x22,0x0a,0x49,0x74,0x65,0x6d,0x31,0x06,0x3a,0x06,0x45,0x54,0x3a,0x0b,0x40,0x70,0x69,0x74,0x63,0x68,0x69,0x69,0x3a,0x0c,0x40,0x76,0x6f,0x6c,0x75,0x6d,0x65,0x69,0x55))
   ChangeInventory_Item(25,0,0,1)
   ShowMessageFace("People4",0,0,2,13)
   ShowMessage("\\n<Medal King>Is there anything else you'd like to trade for?")
   JumpToLabel("リスト")
   0()
  Else()
   ShowMessageFace("People4",0,0,2,14)
   ShowMessage("\\n<Medal King>My apologies, but it seems you're lacking in medals...")
   JumpToLabel("リスト")
   0()
  EndIf()
  0()
 IfPlayerPicksChoice(1,null)
  NumericInput(14,2)
  ChangeVariable(15,15,0,1,14)
  ChangeVariable(15,15,3,0,2)
  If(1,10,1,15,1)
   ChangeInventory_Item(32,1,1,15)
   ChangeVariable(55,55,1,1,14)
   ShowMessageFace("People4",0,0,2,15)
   ShowMessage("\\n<Medal King>Very well. Here you go.")
   250(bytes(0x04,0x08,0x6f,0x3a,0x0c,0x52,0x50,0x47,0x3a,0x3a,0x53,0x45,0x08,0x3a,0x0a,0x40,0x6e,0x61,0x6d,0x65,0x49,0x22,0x0a,0x49,0x74,0x65,0x6d,0x31,0x06,0x3a,0x06,0x45,0x54,0x3a,0x0b,0x40,0x70,0x69,0x74,0x63,0x68,0x69,0x69,0x3a,0x0c,0x40,0x76,0x6f,0x6c,0x75,0x6d,0x65,0x69,0x55))
   ChangeInventory_Item(25,0,1,14)
   ShowMessageFace("People4",0,0,2,16)
   ShowMessage("\\n<Medal King>Is there anything else you'd like to trade for?")
   JumpToLabel("リスト")
   0()
  Else()
   ShowMessageFace("People4",0,0,2,17)
   ShowMessage("\\n<Medal King>My apologies, but it seems you're lacking in medals...")
   JumpToLabel("リスト")
   0()
  EndIf()
  0()
 IfPlayerCancelsChoice()
  ShowMessageFace("People4",0,0,2,18)
  ShowMessage("\\n<Medal King>Is there anything else you'd like to trade for?")
  JumpToLabel("リスト")
  0()
 404()
 0()
EndIf()
If(1,11,0,2,0)
 ShowMessageFace("People4",0,0,2,19)
 ShowMessage("\\n<Medal King>How many?")
 ShowMessage("(Small Medals:\\V[10])")
 ShowChoices(strings("Just one","Multiple"),5)
 IfPlayerPicksChoice(0,null)
  If(1,10,0,2,1)
   ChangeInventory_Item(32,1,0,2)
   ChangeVariable(55,55,1,0,2)
   ShowMessageFace("People4",0,0,2,20)
   ShowMessage("\\n<Medal King>Very well. Here you go.")
   250(bytes(0x04,0x08,0x6f,0x3a,0x0c,0x52,0x50,0x47,0x3a,0x3a,0x53,0x45,0x08,0x3a,0x0a,0x40,0x6e,0x61,0x6d,0x65,0x49,0x22,0x0a,0x49,0x74,0x65,0x6d,0x31,0x06,0x3a,0x06,0x45,0x54,0x3a,0x0b,0x40,0x70,0x69,0x74,0x63,0x68,0x69,0x69,0x3a,0x0c,0x40,0x76,0x6f,0x6c,0x75,0x6d,0x65,0x69,0x55))
   ChangeInventory_Item(26,0,0,1)
   ShowMessageFace("People4",0,0,2,21)
   ShowMessage("\\n<Medal King>Is there anything else you'd like to trade for?")
   JumpToLabel("リスト")
   0()
  Else()
   ShowMessageFace("People4",0,0,2,22)
   ShowMessage("\\n<Medal King>My apologies, but it seems you're lacking in medals...")
   JumpToLabel("リスト")
   0()
  EndIf()
  0()
 IfPlayerPicksChoice(1,null)
  NumericInput(14,2)
  ChangeVariable(15,15,0,1,14)
  ChangeVariable(15,15,3,0,2)
  If(1,10,1,15,1)
   ChangeInventory_Item(32,1,1,15)
   ChangeVariable(55,55,1,1,14)
   ShowMessageFace("People4",0,0,2,23)
   ShowMessage("\\n<Medal King>Very well. Here you go.")
   250(bytes(0x04,0x08,0x6f,0x3a,0x0c,0x52,0x50,0x47,0x3a,0x3a,0x53,0x45,0x08,0x3a,0x0a,0x40,0x6e,0x61,0x6d,0x65,0x49,0x22,0x0a,0x49,0x74,0x65,0x6d,0x31,0x06,0x3a,0x06,0x45,0x54,0x3a,0x0b,0x40,0x70,0x69,0x74,0x63,0x68,0x69,0x69,0x3a,0x0c,0x40,0x76,0x6f,0x6c,0x75,0x6d,0x65,0x69,0x55))
   ChangeInventory_Item(26,0,1,14)
   ShowMessageFace("People4",0,0,2,24)
   ShowMessage("\\n<Medal King>Is there anything else you'd like to trade for?")
   JumpToLabel("リスト")
   0()
  Else()
   ShowMessageFace("People4",0,0,2,25)
   ShowMessage("\\n<Medal King>My apologies, but it seems you're lacking in medals...")
   JumpToLabel("リスト")
   0()
  EndIf()
  0()
 IfPlayerCancelsChoice()
  ShowMessageFace("People4",0,0,2,26)
  ShowMessage("\\n<Medal King>Is there anything else you'd like to trade for?")
  JumpToLabel("リスト")
  0()
 404()
 0()
EndIf()
If(1,11,0,3,0)
 ShowMessageFace("People4",0,0,2,27)
 ShowMessage("\\n<Medal King>How many?")
 ShowMessage("(Small Medals:\\V[10])")
 ShowChoices(strings("Just one","Multiple"),5)
 IfPlayerPicksChoice(0,null)
  If(1,10,0,2,1)
   ChangeInventory_Item(32,1,0,2)
   ChangeVariable(55,55,1,0,2)
   ShowMessageFace("People4",0,0,2,28)
   ShowMessage("\\n<Medal King>Very well. Here you go.")
   250(bytes(0x04,0x08,0x6f,0x3a,0x0c,0x52,0x50,0x47,0x3a,0x3a,0x53,0x45,0x08,0x3a,0x0a,0x40,0x6e,0x61,0x6d,0x65,0x49,0x22,0x0a,0x49,0x74,0x65,0x6d,0x31,0x06,0x3a,0x06,0x45,0x54,0x3a,0x0b,0x40,0x70,0x69,0x74,0x63,0x68,0x69,0x69,0x3a,0x0c,0x40,0x76,0x6f,0x6c,0x75,0x6d,0x65,0x69,0x55))
   ChangeInventory_Item(27,0,0,1)
   ShowMessageFace("People4",0,0,2,29)
   ShowMessage("\\n<Medal King>Is there anything else you'd like to trade for?")
   JumpToLabel("リスト")
   0()
  Else()
   ShowMessageFace("People4",0,0,2,30)
   ShowMessage("\\n<Medal King>My apologies, but it seems you're lacking in medals...")
   JumpToLabel("リスト")
   0()
  EndIf()
  0()
 IfPlayerPicksChoice(1,null)
  NumericInput(14,2)
  ChangeVariable(15,15,0,1,14)
  ChangeVariable(15,15,3,0,2)
  If(1,10,1,15,1)
   ChangeInventory_Item(32,1,1,15)
   ChangeVariable(55,55,1,1,14)
   ShowMessageFace("People4",0,0,2,31)
   ShowMessage("\\n<Medal King>Very well. Here you go.")
   250(bytes(0x04,0x08,0x6f,0x3a,0x0c,0x52,0x50,0x47,0x3a,0x3a,0x53,0x45,0x08,0x3a,0x0a,0x40,0x6e,0x61,0x6d,0x65,0x49,0x22,0x0a,0x49,0x74,0x65,0x6d,0x31,0x06,0x3a,0x06,0x45,0x54,0x3a,0x0b,0x40,0x70,0x69,0x74,0x63,0x68,0x69,0x69,0x3a,0x0c,0x40,0x76,0x6f,0x6c,0x75,0x6d,0x65,0x69,0x55))
   ChangeInventory_Item(27,0,1,14)
   ShowMessageFace("People4",0,0,2,32)
   ShowMessage("\\n<Medal King>Is there anything else you'd like to trade for?")
   JumpToLabel("リスト")
   0()
  Else()
   ShowMessageFace("People4",0,0,2,33)
   ShowMessage("\\n<Medal King>My apologies, but it seems you're lacking in medals...")
   JumpToLabel("リスト")
   0()
  EndIf()
  0()
 IfPlayerCancelsChoice()
  ShowMessageFace("People4",0,0,2,34)
  ShowMessage("\\n<Medal King>Is there anything else you'd like to trade for?")
  JumpToLabel("リスト")
  0()
 404()
 0()
EndIf()
If(1,11,0,4,0)
 ShowMessageFace("People4",0,0,2,35)
 ShowMessage("\\n<Medal King>How many?")
 ShowMessage("(Small Medals:\\V[10])")
 ShowChoices(strings("Just one","Multiple"),5)
 IfPlayerPicksChoice(0,null)
  If(1,10,0,2,1)
   ChangeInventory_Item(32,1,0,2)
   ChangeVariable(55,55,1,0,2)
   ShowMessageFace("People4",0,0,2,36)
   ShowMessage("\\n<Medal King>Very well. Here you go.")
   250(bytes(0x04,0x08,0x6f,0x3a,0x0c,0x52,0x50,0x47,0x3a,0x3a,0x53,0x45,0x08,0x3a,0x0a,0x40,0x6e,0x61,0x6d,0x65,0x49,0x22,0x0a,0x49,0x74,0x65,0x6d,0x31,0x06,0x3a,0x06,0x45,0x54,0x3a,0x0b,0x40,0x70,0x69,0x74,0x63,0x68,0x69,0x69,0x3a,0x0c,0x40,0x76,0x6f,0x6c,0x75,0x6d,0x65,0x69,0x55))
   ChangeInventory_Item(28,0,0,1)
   ShowMessageFace("People4",0,0,2,37)
   ShowMessage("\\n<Medal King>Is there anything else you'd like to trade for?")
   JumpToLabel("リスト")
   0()
  Else()
   ShowMessageFace("People4",0,0,2,38)
   ShowMessage("\\n<Medal King>My apologies, but it seems you're lacking in medals...")
   JumpToLabel("リスト")
   0()
  EndIf()
  0()
 IfPlayerPicksChoice(1,null)
  NumericInput(14,2)
  ChangeVariable(15,15,0,1,14)
  ChangeVariable(15,15,3,0,2)
  If(1,10,1,15,1)
   ChangeInventory_Item(32,1,1,15)
   ChangeVariable(55,55,1,1,14)
   ShowMessageFace("People4",0,0,2,39)
   ShowMessage("\\n<Medal King>Very well. Here you go.")
   250(bytes(0x04,0x08,0x6f,0x3a,0x0c,0x52,0x50,0x47,0x3a,0x3a,0x53,0x45,0x08,0x3a,0x0a,0x40,0x6e,0x61,0x6d,0x65,0x49,0x22,0x0a,0x49,0x74,0x65,0x6d,0x31,0x06,0x3a,0x06,0x45,0x54,0x3a,0x0b,0x40,0x70,0x69,0x74,0x63,0x68,0x69,0x69,0x3a,0x0c,0x40,0x76,0x6f,0x6c,0x75,0x6d,0x65,0x69,0x55))
   ChangeInventory_Item(28,0,1,14)
   ShowMessageFace("People4",0,0,2,40)
   ShowMessage("\\n<Medal King>Is there anything else you'd like to trade for?")
   JumpToLabel("リスト")
   0()
  Else()
   ShowMessageFace("People4",0,0,2,41)
   ShowMessage("\\n<Medal King>My apologies, but it seems you're lacking in medals...")
   JumpToLabel("リスト")
   0()
  EndIf()
  0()
 IfPlayerCancelsChoice()
  ShowMessageFace("People4",0,0,2,42)
  ShowMessage("\\n<Medal King>Is there anything else you'd like to trade for?")
  JumpToLabel("リスト")
  0()
 404()
 0()
EndIf()
If(1,11,0,5,0)
 ShowMessageFace("People4",0,0,2,43)
 ShowMessage("\\n<Medal King>How many?")
 ShowMessage("(Small Medals:\\V[10])")
 ShowChoices(strings("Just one","Multiple"),5)
 IfPlayerPicksChoice(0,null)
  If(1,10,0,2,1)
   ChangeInventory_Item(32,1,0,2)
   ChangeVariable(55,55,1,0,2)
   ShowMessageFace("People4",0,0,2,44)
   ShowMessage("\\n<Medal King>Very well. Here you go.")
   250(bytes(0x04,0x08,0x6f,0x3a,0x0c,0x52,0x50,0x47,0x3a,0x3a,0x53,0x45,0x08,0x3a,0x0a,0x40,0x6e,0x61,0x6d,0x65,0x49,0x22,0x0a,0x49,0x74,0x65,0x6d,0x31,0x06,0x3a,0x06,0x45,0x54,0x3a,0x0b,0x40,0x70,0x69,0x74,0x63,0x68,0x69,0x69,0x3a,0x0c,0x40,0x76,0x6f,0x6c,0x75,0x6d,0x65,0x69,0x55))
   ChangeInventory_Item(29,0,0,1)
   ShowMessageFace("People4",0,0,2,45)
   ShowMessage("\\n<Medal King>Is there anything else you'd like to trade for?")
   JumpToLabel("リスト")
   0()
  Else()
   ShowMessageFace("People4",0,0,2,46)
   ShowMessage("\\n<Medal King>My apologies, but it seems you're lacking in medals...")
   JumpToLabel("リスト")
   0()
  EndIf()
  0()
 IfPlayerPicksChoice(1,null)
  NumericInput(14,2)
  ChangeVariable(15,15,0,1,14)
  ChangeVariable(15,15,3,0,2)
  If(1,10,1,15,1)
   ChangeInventory_Item(32,1,1,15)
   ChangeVariable(55,55,1,1,14)
   ShowMessageFace("People4",0,0,2,47)
   ShowMessage("\\n<Medal King>Very well. Here you go.")
   250(bytes(0x04,0x08,0x6f,0x3a,0x0c,0x52,0x50,0x47,0x3a,0x3a,0x53,0x45,0x08,0x3a,0x0a,0x40,0x6e,0x61,0x6d,0x65,0x49,0x22,0x0a,0x49,0x74,0x65,0x6d,0x31,0x06,0x3a,0x06,0x45,0x54,0x3a,0x0b,0x40,0x70,0x69,0x74,0x63,0x68,0x69,0x69,0x3a,0x0c,0x40,0x76,0x6f,0x6c,0x75,0x6d,0x65,0x69,0x55))
   ChangeInventory_Item(29,0,1,14)
   ShowMessageFace("People4",0,0,2,48)
   ShowMessage("\\n<Medal King>Is there anything else you'd like to trade for?")
   JumpToLabel("リスト")
   0()
  Else()
   ShowMessageFace("People4",0,0,2,49)
   ShowMessage("\\n<Medal King>My apologies, but it seems you're lacking in medals...")
   JumpToLabel("リスト")
   0()
  EndIf()
  0()
 IfPlayerCancelsChoice()
  ShowMessageFace("People4",0,0,2,50)
  ShowMessage("\\n<Medal King>Is there anything else you'd like to trade for?")
  JumpToLabel("リスト")
  0()
 404()
 0()
EndIf()
If(1,11,0,6,0)
 ShowMessageFace("People4",0,0,2,51)
 ShowMessage("\\n<Medal King>How many?")
 ShowMessage("(Small Medals:\\V[10])")
 ShowChoices(strings("Just one","Multiple"),5)
 IfPlayerPicksChoice(0,null)
  If(1,10,0,2,1)
   ChangeInventory_Item(32,1,0,2)
   ChangeVariable(55,55,1,0,2)
   ShowMessageFace("People4",0,0,2,52)
   ShowMessage("\\n<Medal King>Very well. Here you go.")
   250(bytes(0x04,0x08,0x6f,0x3a,0x0c,0x52,0x50,0x47,0x3a,0x3a,0x53,0x45,0x08,0x3a,0x0a,0x40,0x6e,0x61,0x6d,0x65,0x49,0x22,0x0a,0x49,0x74,0x65,0x6d,0x31,0x06,0x3a,0x06,0x45,0x54,0x3a,0x0b,0x40,0x70,0x69,0x74,0x63,0x68,0x69,0x69,0x3a,0x0c,0x40,0x76,0x6f,0x6c,0x75,0x6d,0x65,0x69,0x55))
   ChangeInventory_Item(30,0,0,1)
   ShowMessageFace("People4",0,0,2,53)
   ShowMessage("\\n<Medal King>Is there anything else you'd like to trade for?")
   JumpToLabel("リスト")
   0()
  Else()
   ShowMessageFace("People4",0,0,2,54)
   ShowMessage("\\n<Medal King>My apologies, but it seems you're lacking in medals...")
   JumpToLabel("リスト")
   0()
  EndIf()
  0()
 IfPlayerPicksChoice(1,null)
  NumericInput(14,2)
  ChangeVariable(15,15,0,1,14)
  ChangeVariable(15,15,3,0,2)
  If(1,10,1,15,1)
   ChangeInventory_Item(32,1,1,15)
   ChangeVariable(55,55,1,1,14)
   ShowMessageFace("People4",0,0,2,55)
   ShowMessage("\\n<Medal King>Very well. Here you go.")
   250(bytes(0x04,0x08,0x6f,0x3a,0x0c,0x52,0x50,0x47,0x3a,0x3a,0x53,0x45,0x08,0x3a,0x0a,0x40,0x6e,0x61,0x6d,0x65,0x49,0x22,0x0a,0x49,0x74,0x65,0x6d,0x31,0x06,0x3a,0x06,0x45,0x54,0x3a,0x0b,0x40,0x70,0x69,0x74,0x63,0x68,0x69,0x69,0x3a,0x0c,0x40,0x76,0x6f,0x6c,0x75,0x6d,0x65,0x69,0x55))
   ChangeInventory_Item(30,0,1,14)
   ShowMessageFace("People4",0,0,2,56)
   ShowMessage("\\n<Medal King>Is there anything else you'd like to trade for?")
   JumpToLabel("リスト")
   0()
  Else()
   ShowMessageFace("People4",0,0,2,57)
   ShowMessage("\\n<Medal King>My apologies, but it seems you're lacking in medals...")
   JumpToLabel("リスト")
   0()
  EndIf()
  0()
 IfPlayerCancelsChoice()
  ShowMessageFace("People4",0,0,2,58)
  ShowMessage("\\n<Medal King>Is there anything else you'd like to trade for?")
  JumpToLabel("リスト")
  0()
 404()
 0()
EndIf()
If(1,11,0,7,0)
 ShowMessageFace("People4",0,0,2,59)
 ShowMessage("\\n<Medal King>How many?")
 ShowMessage("(Small Medals:\\V[10])")
 ShowChoices(strings("Just one","Multiple"),5)
 IfPlayerPicksChoice(0,null)
  If(1,10,0,2,1)
   ChangeInventory_Item(32,1,0,2)
   ChangeVariable(55,55,1,0,2)
   ShowMessageFace("People4",0,0,2,60)
   ShowMessage("\\n<Medal King>Very well. Here you go.")
   250(bytes(0x04,0x08,0x6f,0x3a,0x0c,0x52,0x50,0x47,0x3a,0x3a,0x53,0x45,0x08,0x3a,0x0a,0x40,0x6e,0x61,0x6d,0x65,0x49,0x22,0x0a,0x49,0x74,0x65,0x6d,0x31,0x06,0x3a,0x06,0x45,0x54,0x3a,0x0b,0x40,0x70,0x69,0x74,0x63,0x68,0x69,0x69,0x3a,0x0c,0x40,0x76,0x6f,0x6c,0x75,0x6d,0x65,0x69,0x55))
   ChangeInventory_Item(31,0,0,1)
   ShowMessageFace("People4",0,0,2,61)
   ShowMessage("\\n<Medal King>Is there anything else you'd like to trade for?")
   JumpToLabel("リスト")
   0()
  Else()
   ShowMessageFace("People4",0,0,2,62)
   ShowMessage("\\n<Medal King>My apologies, but it seems you're lacking in medals...")
   JumpToLabel("リスト")
   0()
  EndIf()
  0()
 IfPlayerPicksChoice(1,null)
  NumericInput(14,2)
  ChangeVariable(15,15,0,1,14)
  ChangeVariable(15,15,3,0,2)
  If(1,10,1,15,1)
   ChangeInventory_Item(32,1,1,15)
   ChangeVariable(55,55,1,1,14)
   ShowMessageFace("People4",0,0,2,63)
   ShowMessage("\\n<Medal King>Very well. Here you go.")
   250(bytes(0x04,0x08,0x6f,0x3a,0x0c,0x52,0x50,0x47,0x3a,0x3a,0x53,0x45,0x08,0x3a,0x0a,0x40,0x6e,0x61,0x6d,0x65,0x49,0x22,0x0a,0x49,0x74,0x65,0x6d,0x31,0x06,0x3a,0x06,0x45,0x54,0x3a,0x0b,0x40,0x70,0x69,0x74,0x63,0x68,0x69,0x69,0x3a,0x0c,0x40,0x76,0x6f,0x6c,0x75,0x6d,0x65,0x69,0x55))
   ChangeInventory_Item(31,0,1,14)
   ShowMessageFace("People4",0,0,2,64)
   ShowMessage("\\n<Medal King>Is there anything else you'd like to trade for?")
   JumpToLabel("リスト")
   0()
  Else()
   ShowMessageFace("People4",0,0,2,65)
   ShowMessage("\\n<Medal King>My apologies, but it seems you're lacking in medals...")
   JumpToLabel("リスト")
   0()
  EndIf()
  0()
 IfPlayerCancelsChoice()
  ShowMessageFace("People4",0,0,2,66)
  ShowMessage("\\n<Medal King>Is there anything else you'd like to trade for?")
  JumpToLabel("リスト")
  0()
 404()
 0()
EndIf()
If(1,11,0,8,0)
 If(0,2326,0)
  ShowMessageFace("People4",0,0,2,67)
  ShowMessage("\\n<Medal King>There exists only one of this item, and I believe I've already handed it over to you.")
  ShowMessage("Is there anything else you'd like to trade for?")
  JumpToLabel("リスト")
  0()
 EndIf()
 If(1,10,0,30,1)
  ChangeInventory_Item(32,1,0,30)
  ChangeVariable(55,55,1,0,30)
  ShowMessageFace("People4",0,0,2,68)
  ShowMessage("\\n<Medal King>Very well. Here you go.")
  250(bytes(0x04,0x08,0x6f,0x3a,0x0c,0x52,0x50,0x47,0x3a,0x3a,0x53,0x45,0x08,0x3a,0x0a,0x40,0x6e,0x61,0x6d,0x65,0x49,0x22,0x0a,0x49,0x74,0x65,0x6d,0x31,0x06,0x3a,0x06,0x45,0x54,0x3a,0x0b,0x40,0x70,0x69,0x74,0x63,0x68,0x69,0x69,0x3a,0x0c,0x40,0x76,0x6f,0x6c,0x75,0x6d,0x65,0x69,0x55))
  ChangeInventoryArmor(226,0,0,1,false)
  ChangeSwitch(2326,2326,0)
  ShowMessageFace("People4",0,0,2,69)
  ShowMessage("\\n<Medal King>Is there anything else you'd like to trade for?")
  JumpToLabel("リスト")
  0()
 Else()
  ShowMessageFace("People4",0,0,2,70)
  ShowMessage("\\n<Medal King>My apologies, but it seems you're lacking in medals...")
  JumpToLabel("リスト")
  0()
 EndIf()
 0()
EndIf()
If(1,11,0,9,0)
 If(0,2327,0)
  ShowMessageFace("People4",0,0,2,71)
  ShowMessage("\\n<Medal King>There exists only one of this item, and I believe I've already handed it over to you.")
  ShowMessage("Is there anything else you'd like to trade for?")
  JumpToLabel("リスト")
  0()
 EndIf()
 If(1,10,0,30,1)
  ChangeInventory_Item(32,1,0,30)
  ChangeVariable(55,55,1,0,30)
  ShowMessageFace("People4",0,0,2,72)
  ShowMessage("\\n<Medal King>Very well. Here you go.")
  250(bytes(0x04,0x08,0x6f,0x3a,0x0c,0x52,0x50,0x47,0x3a,0x3a,0x53,0x45,0x08,0x3a,0x0a,0x40,0x6e,0x61,0x6d,0x65,0x49,0x22,0x0a,0x49,0x74,0x65,0x6d,0x31,0x06,0x3a,0x06,0x45,0x54,0x3a,0x0b,0x40,0x70,0x69,0x74,0x63,0x68,0x69,0x69,0x3a,0x0c,0x40,0x76,0x6f,0x6c,0x75,0x6d,0x65,0x69,0x55))
  ChangeInventoryArmor(321,0,0,1,false)
  ChangeSwitch(2327,2327,0)
  ShowMessageFace("People4",0,0,2,73)
  ShowMessage("\\n<Medal King>Is there anything else you'd like to trade for?")
  JumpToLabel("リスト")
  0()
 Else()
  ShowMessageFace("People4",0,0,2,74)
  ShowMessage("\\n<Medal King>My apologies, but it seems you're lacking in medals...")
  JumpToLabel("リスト")
  0()
 EndIf()
 0()
EndIf()
If(1,11,0,10,0)
 If(0,2324,0)
  ShowMessageFace("People4",0,0,2,75)
  ShowMessage("\\n<Medal King>There exists only one of this item, and I believe I've already handed it over to you.")
  ShowMessage("Is there anything else you'd like to trade for?")
  JumpToLabel("リスト")
  0()
 EndIf()
 If(1,10,0,40,1)
  ChangeInventory_Item(32,1,0,40)
  ChangeVariable(55,55,1,0,40)
  ShowMessageFace("People4",0,0,2,76)
  ShowMessage("\\n<Medal King>Very well. Here you go.")
  250(bytes(0x04,0x08,0x6f,0x3a,0x0c,0x52,0x50,0x47,0x3a,0x3a,0x53,0x45,0x08,0x3a,0x0a,0x40,0x6e,0x61,0x6d,0x65,0x49,0x22,0x0a,0x49,0x74,0x65,0x6d,0x31,0x06,0x3a,0x06,0x45,0x54,0x3a,0x0b,0x40,0x70,0x69,0x74,0x63,0x68,0x69,0x69,0x3a,0x0c,0x40,0x76,0x6f,0x6c,0x75,0x6d,0x65,0x69,0x55))
  ChangeInventoryWeapon(112,0,0,1,false)
  ChangeSwitch(2324,2324,0)
  ShowMessageFace("People4",0,0,2,77)
  ShowMessage("\\n<Medal King>Is there anything else you'd like to trade for?")
  JumpToLabel("リスト")
  0()
 Else()
  ShowMessageFace("People4",0,0,2,78)
  ShowMessage("\\n<Medal King>My apologies, but it seems you're lacking in medals...")
  JumpToLabel("リスト")
  0()
 EndIf()
 0()
EndIf()
If(1,11,0,11,0)
 If(0,2325,0)
  ShowMessageFace("People4",0,0,2,79)
  ShowMessage("\\n<Medal King>There exists only one of this item, and I believe I've already handed it over to you.")
  ShowMessage("Is there anything else you'd like to trade for?")
  JumpToLabel("リスト")
  0()
 EndIf()
 If(1,10,0,40,1)
  ChangeInventory_Item(32,1,0,40)
  ChangeVariable(55,55,1,0,40)
  ShowMessageFace("People4",0,0,2,80)
  ShowMessage("\\n<Medal King>Very well. Here you go.")
  250(bytes(0x04,0x08,0x6f,0x3a,0x0c,0x52,0x50,0x47,0x3a,0x3a,0x53,0x45,0x08,0x3a,0x0a,0x40,0x6e,0x61,0x6d,0x65,0x49,0x22,0x0a,0x49,0x74,0x65,0x6d,0x31,0x06,0x3a,0x06,0x45,0x54,0x3a,0x0b,0x40,0x70,0x69,0x74,0x63,0x68,0x69,0x69,0x3a,0x0c,0x40,0x76,0x6f,0x6c,0x75,0x6d,0x65,0x69,0x55))
  ChangeInventoryArmor(97,0,0,1,false)
  ChangeSwitch(2325,2325,0)
  ShowMessageFace("People4",0,0,2,81)
  ShowMessage("\\n<Medal King>Is there anything else you'd like to trade for?")
  JumpToLabel("リスト")
  0()
 Else()
  ShowMessageFace("People4",0,0,2,82)
  ShowMessage("\\n<Medal King>My apologies, but it seems you're lacking in medals...")
  JumpToLabel("リスト")
  0()
 EndIf()
 0()
EndIf()
If(1,11,0,12,0)
 If(1,10,0,50,1)
  ChangeInventory_Item(32,1,0,50)
  ChangeVariable(55,55,1,0,50)
  ShowMessageFace("People4",0,0,2,83)
  ShowMessage("\\n<Medal King>Very well. Here you go.")
  250(bytes(0x04,0x08,0x6f,0x3a,0x0c,0x52,0x50,0x47,0x3a,0x3a,0x53,0x45,0x08,0x3a,0x0a,0x40,0x6e,0x61,0x6d,0x65,0x49,0x22,0x0a,0x49,0x74,0x65,0x6d,0x31,0x06,0x3a,0x06,0x45,0x54,0x3a,0x0b,0x40,0x70,0x69,0x74,0x63,0x68,0x69,0x69,0x3a,0x0c,0x40,0x76,0x6f,0x6c,0x75,0x6d,0x65,0x69,0x55))
  ChangeInventoryWeapon(185,0,0,1,false)
  ShowMessageFace("People4",0,0,2,84)
  ShowMessage("\\n<Medal King>Is there anything else you'd like to trade for?")
  JumpToLabel("リスト")
  0()
 Else()
  ShowMessageFace("People4",0,0,2,85)
  ShowMessage("\\n<Medal King>My apologies, but it seems you're lacking in medals...")
  JumpToLabel("リスト")
  0()
 EndIf()
 0()
EndIf()
ShowMessageFace("People4",0,0,2,86)
ShowMessage("\\n<Medal King>Gather more medals and come again...\nI'll just be taking it easy over here...")
If(1,55,0,3,1)
 355("gain_medal(1401)")
 0()
EndIf()
If(1,55,0,15,1)
 355("gain_medal(1402)")
 0()
EndIf()
If(1,55,0,50,1)
 355("gain_medal(1403)")
 0()
EndIf()
PictureClear(5)
EndEventProcessing()
0()
