﻿
DisplayName "Don Father's Mansion"



EVENT   1
 PAGE   1
  If(1,1033,0,1,0)
   RunCommonEvent(308)
   EndEventProcessing()
   0()
  EndIf()
  250(bytes(0x04,0x08,0x6f,0x3a,0x0c,0x52,0x50,0x47,0x3a,0x3a,0x53,0x45,0x08,0x3a,0x0a,0x40,0x6e,0x61,0x6d,0x65,0x49,0x22,0x09,0x4d,0x6f,0x76,0x65,0x06,0x3a,0x06,0x45,0x54,0x3a,0x0b,0x40,0x70,0x69,0x74,0x63,0x68,0x69,0x69,0x3a,0x0c,0x40,0x76,0x6f,0x6c,0x75,0x6d,0x65,0x69,0x55))
  TeleportPlayer(0,358,73,43,0,0)
  0()



EVENT   2
 PAGE   1
  If(1,1001,0,25,2)
   ShowMessageFace("",0,0,2,1)
   ShowMessage("\\n<Guard>Don Father is upstairs. Be polite, or else...")
   EndEventProcessing()
   0()
  EndIf()
  If(1,1001,0,26,1)
   355("actor_label_jump")
   ShowMessageFace("",0,0,2,2)
   ShowMessage("\\n<Guard>Don Father is on vacation. He's left you permission to go upstairs if you want.")
   EndEventProcessing()
   DefineLabel("520")
   ShowMessageFace("",0,0,2,3)
   ShowMessage("\\n<Guard>Boss!")
   ShowMessageFace("lazarus3_fc1",1,0,2,4)
   ShowMessage("\\n<Lazarus>Yo. Working hard, I see.")
   EndEventProcessing()
   DefineLabel("522")
   ShowMessageFace("",0,0,2,5)
   ShowMessage("\\n<Guard>Boss!")
   ShowMessageFace("merlin_fc1",0,0,2,6)
   ShowMessage("\\n<Merlin>Diligent as always, I see.")
   EndEventProcessing()
   0()
  EndIf()
  0()

EVENT   45
 PAGE   1
  0()



EVENT   46
 PAGE   1
  0()



EVENT   47
 PAGE   1
  If(1,1033,0,1,0)
   RunCommonEvent(308)
   EndEventProcessing()
   0()
  EndIf()
  250(bytes(0x04,0x08,0x6f,0x3a,0x0c,0x52,0x50,0x47,0x3a,0x3a,0x53,0x45,0x08,0x3a,0x0a,0x40,0x6e,0x61,0x6d,0x65,0x49,0x22,0x09,0x4d,0x6f,0x76,0x65,0x06,0x3a,0x06,0x45,0x54,0x3a,0x0b,0x40,0x70,0x69,0x74,0x63,0x68,0x69,0x69,0x3a,0x0c,0x40,0x76,0x6f,0x6c,0x75,0x6d,0x65,0x69,0x55))
  TeleportPlayer(0,358,73,43,0,0)
  0()



EVENT   49
 PAGE   1
  ChangeSwitch(31,31,1)
  250(bytes(0x04,0x08,0x6f,0x3a,0x0c,0x52,0x50,0x47,0x3a,0x3a,0x53,0x45,0x08,0x3a,0x0a,0x40,0x6e,0x61,0x6d,0x65,0x49,0x22,0x09,0x4d,0x6f,0x76,0x65,0x06,0x3a,0x06,0x45,0x54,0x3a,0x0b,0x40,0x70,0x69,0x74,0x63,0x68,0x69,0x69,0x3a,0x0c,0x40,0x76,0x6f,0x6c,0x75,0x6d,0x65,0x69,0x55))
  TeleportPlayer(0,358,73,11,0,0)
  0()



EVENT   50
 PAGE   1
  ChangeSwitch(31,31,1)
  250(bytes(0x04,0x08,0x6f,0x3a,0x0c,0x52,0x50,0x47,0x3a,0x3a,0x53,0x45,0x08,0x3a,0x0a,0x40,0x6e,0x61,0x6d,0x65,0x49,0x22,0x09,0x4d,0x6f,0x76,0x65,0x06,0x3a,0x06,0x45,0x54,0x3a,0x0b,0x40,0x70,0x69,0x74,0x63,0x68,0x69,0x69,0x3a,0x0c,0x40,0x76,0x6f,0x6c,0x75,0x6d,0x65,0x69,0x55))
  TeleportPlayer(0,358,74,11,0,0)
  0()



EVENT   51
 PAGE   1
  281(1)
  250(bytes(0x04,0x08,0x6f,0x3a,0x0c,0x52,0x50,0x47,0x3a,0x3a,0x53,0x45,0x08,0x3a,0x0a,0x40,0x6e,0x61,0x6d,0x65,0x49,0x22,0x09,0x4d,0x6f,0x76,0x65,0x06,0x3a,0x06,0x45,0x54,0x3a,0x0b,0x40,0x70,0x69,0x74,0x63,0x68,0x69,0x69,0x3a,0x0c,0x40,0x76,0x6f,0x6c,0x75,0x6d,0x65,0x69,0x55))
  TeleportPlayer(0,337,62,21,0,0)
  0()



EVENT   52
 PAGE   1
  281(1)
  250(bytes(0x04,0x08,0x6f,0x3a,0x0c,0x52,0x50,0x47,0x3a,0x3a,0x53,0x45,0x08,0x3a,0x0a,0x40,0x6e,0x61,0x6d,0x65,0x49,0x22,0x09,0x4d,0x6f,0x76,0x65,0x06,0x3a,0x06,0x45,0x54,0x3a,0x0b,0x40,0x70,0x69,0x74,0x63,0x68,0x69,0x69,0x3a,0x0c,0x40,0x76,0x6f,0x6c,0x75,0x6d,0x65,0x69,0x55))
  TeleportPlayer(0,337,63,21,0,0)
  0()



EVENT   240
 PAGE   1
  PictureDisplay(5,"80_merlin_st01",0,0,0,0,100,100,0,0)
  PictureMove(5,null,0,0,0,0,100,100,255,0,30,true)
  If(1,1033,0,0,0)
   ChangeVariable(1033,1033,0,0,1)
   ChangeSwitch(100,100,0)
   ShowMessageFace("merlin_fc1",0,0,2,1)
   ShowMessage("\\n<Merlin>Nice meeting you for the first time. I am Don Father, Merlin.")
   If(0,6,0)
    ShowMessageFace("sonia_fc3",2,0,2,2)
    ShowMessage("\\n<Sonya>So gentlemanly!")
    0()
   Else()
    ShowMessageFace("ruka_fc1",0,0,2,3)
    ShowMessage("\\n<Luka>Completely different from what I expected...")
    0()
   EndIf()
   ShowMessageFace("merlin_fc1",0,0,2,4)
   ShowMessage("\\n<Merlin>Coercion and intimidation are left to my subordinates. Seeing as how I do not engage in such activities...")
   If(0,4,0)
    ShowMessageFace("alice_fc5",0,0,2,5)
    ShowMessage("\\n<Alice>Still, to think that the boss of the underworld is in the Sabasa region... Well done managing to escape the former King of Sabasa's sight.")
    0()
   EndIf()
   If(0,5,0)
    ShowMessageFace("iriasu_fc4",2,0,2,6)
    ShowMessage("\\n<Ilias>However, for the mafia's emperor to be in the land of Sabasa... Impressive that you were able to escape the former King of Sabasa's sight.")
    0()
   EndIf()
   ShowMessageFace("merlin_fc1",0,0,2,7)
   ShowMessage("\\n<Merlin>Just like a coin has a front and a back, so too does human society.")
   ShowMessageFace("merlin_fc1",0,0,2,8)
   ShowMessage("\\n<Merlin>The former King of Sabasa understood that very well too. Where there is light, there is always shadow...")
   ShowMessageFace("ruka_fc1",0,0,2,9)
   ShowMessage("\\n<Luka>Are you saying that the former king left the mafia alone?")
   ShowMessageFace("merlin_fc1",0,0,2,10)
   ShowMessage("\\n<Merlin>No, I swear on the former king's honor that he didn't go that far... But villains aren't so easy to get rid of.")
   ShowMessageFace("merlin_fc1",0,0,2,11)
   ShowMessage("\\n<Merlin>After all, evil is a fundamental human emotion. You, I, and everyone else harbor evil to some extent.")
   ShowMessageFace("merlin_fc1",0,0,2,12)
   ShowMessage("\\n<Merlin>If you try to wholly force evil out of society, it will impose a huge strain. The former King of Sabasa was aware of that.")
   ShowMessageFace("merlin_fc1",0,0,2,13)
   ShowMessage("\\n<Merlin>Furthermore, uncontrolled evil is more dangerous than controlled evil. The king understood society very well.")
   ShowMessageFace("merlin_fc1",0,0,2,14)
   ShowMessage("\\n<Merlin>Well, he probably also considered that a failed attempt to crush our organization would force us deeper underground and make us harder to monitor.")
   ShowMessageFace("merlin_fc1",0,0,2,15)
   ShowMessage("\\n<Merlin>His Majesty... It is a shame we lost such a great man. Now especially, with the flames of war on our doorstep, this country could have used him.")
   If(4,529,0)
    ShowMessageFace("sara_fc1",4,0,2,16)
    ShowMessage("\\n<Sara>I don't think father would be delighted to have a mafia boss mourn him...")
    0()
   EndIf()
   ShowMessageFace("merlin_fc1",0,0,2,17)
   ShowMessage("\\n<Merlin>Whoops... I shouldn't involve you travelers in idle talk. Please, stop by again. I shall treat you to some delicious Darjeeling tea.")
   PictureMove(5,null,0,0,0,0,100,100,0,0,30,true)
   PictureClear(5)
   EndEventProcessing()
   0()
  EndIf()
  If(1,1033,0,1,1)
   ShowMessageFace("merlin_fc1",0,0,2,18)
   ShowMessage("\\n<Merlin>Welcome, travelers. Should you really be meeting a person like me multiple times?")
   ShowMessageFace("merlin_fc1",0,0,2,19)
   ShowMessage("\\n<Merlin>I personally do not mind, but even now we are being monitored by the authorities. I cannot confidently state that you will escape inconvenience as a result...")
   PictureMove(5,null,0,0,0,0,100,100,0,0,30,true)
   PictureClear(5)
   EndEventProcessing()
   0()
  EndIf()
  0()
 PAGE   2
  // condition: variable 1001 >= 26
  0()



EVENT   241
 PAGE   1
  355("actor_label_jump")
  ShowMessageFace("",0,0,2,1)
  ShowMessage("\\n<Guard>You may pass.")
  EndEventProcessing()
  DefineLabel("520")
  ShowMessageFace("",0,0,2,2)
  ShowMessage("\\n<Guard>Boss!")
  ShowMessageFace("lazarus3_fc1",1,0,2,3)
  ShowMessage("\\n<Lazarus>Yo. Working hard, I see.")
  EndEventProcessing()
  DefineLabel("522")
  ShowMessageFace("",0,0,2,4)
  ShowMessage("\\n<Guard>Boss!")
  ShowMessageFace("merlin_fc1",0,0,2,5)
  ShowMessage("\\n<Merlin>Diligent as always, I see.")
  EndEventProcessing()
  0()



EVENT   242
 PAGE   1
  355("actor_label_jump")
  ShowMessageFace("",0,0,2,1)
  ShowMessage("\\n<Guard>You may pass.")
  EndEventProcessing()
  DefineLabel("520")
  ShowMessageFace("",0,0,2,2)
  ShowMessage("\\n<Guard>Boss!")
  ShowMessageFace("lazarus3_fc1",1,0,2,3)
  ShowMessage("\\n<Lazarus>Yo. Working hard, I see.")
  EndEventProcessing()
  DefineLabel("522")
  ShowMessageFace("",0,0,2,4)
  ShowMessage("\\n<Guard>Boss!")
  ShowMessageFace("merlin_fc1",0,0,2,5)
  ShowMessage("\\n<Merlin>Diligent as always, I see.")
  EndEventProcessing()
  0()



EVENT   243
 PAGE   1
  If(1,1001,0,25,2)
   ShowMessageFace("",0,0,2,1)
   ShowMessage("\\n<Showy Woman>Fufu... Try laying your hands on me, and it will end badly for you. I think that... I might fall for a man with such guts. ♪")
   EndEventProcessing()
   0()
  EndIf()
  If(1,1001,0,26,1)
   ShowMessageFace("",0,0,2,2)
   ShowMessage("\\n<Showy Woman>I hope Don comes home soon... Ufufu, which Don do you think I'm talking about?")
   355("actor_label_jump")
   EndEventProcessing()
   DefineLabel("520")
   ShowMessageFace("lazarus3_fc1",1,0,2,3)
   ShowMessage("\\n<Lazarus>It's gotta be me, yeah?")
   ShowMessageFace("",0,0,2,4)
   ShowMessage("\\n<Showy Woman>Hmm, I wonder~")
   EndEventProcessing()
   DefineLabel("522")
   ShowMessageFace("merlin_fc1",0,0,2,5)
   ShowMessage("\\n<Merlin>Of course you are referring to me, Merlin... Correct?")
   ShowMessageFace("",0,0,2,6)
   ShowMessage("\\n<Showy Woman>Hmm, I wonder~")
   EndEventProcessing()
   0()
  EndIf()
  0()



EVENT   244
 PAGE   1
  ShowMessageFace("",0,0,2,1)
  ShowMessage("\\n<Guard>......")
  ShowMessageFace("",0,0,2,2)
  ShowMessage("He's quietly standing in a corner, like a watchdog...")
  0()



EVENT   245
 PAGE   1
  ShowMessageFace("",0,0,2,1)
  ShowMessage("\\n<Guard>......")
  ShowMessageFace("",0,0,2,2)
  ShowMessage("He's quietly standing in a corner, like a watchdog...")
  0()



EVENT   246
 PAGE   1
  If(1,1001,0,25,2)
   ShowMessageFace("",0,0,2,1)
   ShowMessage("\\n<Executive>So you have a connection to Elka... Don't worry, Elka is also affiliated with Father.")
   ShowMessageFace("",0,0,2,2)
   ShowMessage("\\n<Executive>After all, Father is the underworld's emperor. There are none who can stand against him.")
   355("actor_label_jump")
   EndEventProcessing()
   DefineLabel("72")
   ShowMessageFace("phoenix_fc1",3,0,2,3)
   ShowMessage("\\n<Mini>Wow, he's more amazing than Don... I'm shocked!")
   EndEventProcessing()
   0()
  EndIf()
  If(1,1001,0,26,1)
   ShowMessageFace("",0,0,2,4)
   ShowMessage("\\n<Executive>Had to make use of a lot of connections to gather up all those anti-seduction accessories. I owe a lot of people favors, now...")
   355("actor_label_jump")
   EndEventProcessing()
   DefineLabel("520")
   ShowMessageFace("lazarus3_fc1",1,0,2,5)
   ShowMessage("\\n<Lazarus>Come to think of it, I'd better pay Elka back for his hard work. I'll make sure he won't go hungry.")
   ShowMessageFace("",0,0,2,6)
   ShowMessage("\\n<Executive>After he worked his ass off that hard, you're only gonna buy him something to eat...?")
   ShowMessageFace("lazarus3_fc1",1,0,2,7)
   ShowMessage("\\n<Lazarus>No, idiot. I'm giving him a restaurant. I bet it'd be profitable to start a new chain over in Grangold right about now.")
   EndEventProcessing()
   DefineLabel("522")
   ShowMessageFace("merlin_fc1",0,0,2,8)
   ShowMessage("\\n<Merlin>Surely an end to the war is adequate compensation in itself. It was risky business, but it all paid off in the end.")
   EndEventProcessing()
   0()
  EndIf()
  0()
 PAGE   2
  // condition: variable 1001 >= 26
  ShowMessageFace("",0,0,2,1)
  ShowMessage("\\n<Executive>Had to make use of a lot of connections to gather up all those anti-seduction accessories. I owe a lot of people favors, now...")
  355("actor_label_jump")
  EndEventProcessing()
  DefineLabel("520")
  ShowMessageFace("lazarus3_fc1",1,0,2,2)
  ShowMessage("\\n<Lazarus>Come to think of it, I'd better pay Elka back for his hard work. I'll make sure he won't go hungry.")
  ShowMessageFace("",0,0,2,3)
  ShowMessage("\\n<Executive>After he worked his ass off that hard, you're only gonna buy him something to eat...?")
  ShowMessageFace("lazarus3_fc1",1,0,2,4)
  ShowMessage("\\n<Lazarus>No, idiot. I'm giving him a restaurant. I bet it'd be profitable to start a new chain over in Grangold right about now.")
  EndEventProcessing()
  DefineLabel("522")
  ShowMessageFace("merlin_fc1",0,0,2,5)
  ShowMessage("\\n<Merlin>It was quite the ordeal, wasn't it? I look forward to working with you again in the future.")
  EndEventProcessing()
  0()



EVENT   247
 PAGE   1
  If(1,1001,0,25,2)
   ShowMessageFace("",0,0,2,1)
   ShowMessage("\\n<Executive>Rosso's request... the usual, a horse-drawn carriage with a bomb.")
   205(0,bytes(0x04,0x08,0x6f,0x3a,0x13,0x52,0x50,0x47,0x3a,0x3a,0x4d,0x6f,0x76,0x65,0x52,0x6f,0x75,0x74,0x65,0x09,0x3a,0x0c,0x40,0x72,0x65,0x70,0x65,0x61,0x74,0x46,0x3a,0x0f,0x40,0x73,0x6b,0x69,0x70,0x70,0x61,0x62,0x6c,0x65,0x46,0x3a,0x0a,0x40,0x77,0x61,0x69,0x74,0x54,0x3a,0x0a,0x40,0x6c,0x69,0x73,0x74,0x5b,0x08,0x6f,0x3a,0x15,0x52,0x50,0x47,0x3a,0x3a,0x4d,0x6f,0x76,0x65,0x43,0x6f,0x6d,0x6d,0x61,0x6e,0x64,0x07,0x3a,0x0a,0x40,0x63,0x6f,0x64,0x65,0x69,0x29,0x3a,0x10,0x40,0x70,0x61,0x72,0x61,0x6d,0x65,0x74,0x65,0x72,0x73,0x5b,0x00,0x6f,0x3b,0x0a,0x07,0x3b,0x0b,0x69,0x1e,0x3b,0x0c,0x5b,0x00,0x6f,0x3b,0x0a,0x07,0x3b,0x0b,0x69,0x00,0x3b,0x0c,0x5b,0x00))
   ShowMessageFace("",0,0,2,2)
   ShowMessage("\\n<Executive>...Whoops, you didn't hear that, did you? It's better if you didn't.")
   205(0,bytes(0x04,0x08,0x6f,0x3a,0x13,0x52,0x50,0x47,0x3a,0x3a,0x4d,0x6f,0x76,0x65,0x52,0x6f,0x75,0x74,0x65,0x09,0x3a,0x0c,0x40,0x72,0x65,0x70,0x65,0x61,0x74,0x46,0x3a,0x0f,0x40,0x73,0x6b,0x69,0x70,0x70,0x61,0x62,0x6c,0x65,0x46,0x3a,0x0a,0x40,0x77,0x61,0x69,0x74,0x54,0x3a,0x0a,0x40,0x6c,0x69,0x73,0x74,0x5b,0x08,0x6f,0x3a,0x15,0x52,0x50,0x47,0x3a,0x3a,0x4d,0x6f,0x76,0x65,0x43,0x6f,0x6d,0x6d,0x61,0x6e,0x64,0x07,0x3a,0x0a,0x40,0x63,0x6f,0x64,0x65,0x69,0x18,0x3a,0x10,0x40,0x70,0x61,0x72,0x61,0x6d,0x65,0x74,0x65,0x72,0x73,0x5b,0x00,0x6f,0x3b,0x0a,0x07,0x3b,0x0b,0x69,0x28,0x3b,0x0c,0x5b,0x00,0x6f,0x3b,0x0a,0x07,0x3b,0x0b,0x69,0x00,0x3b,0x0c,0x5b,0x00))
   355("actor_label_jump")
   EndEventProcessing()
   DefineLabel("64")
   ShowMessageFace("pramia_fc1",0,0,2,3)
   ShowMessage("\\n<Teeny>Not hearing what should not be heard is a maid's duty.")
   EndEventProcessing()
   DefineLabel("529")
   ShowMessageFace("sara_fc1",2,0,2,4)
   ShowMessage("\\n<Sara>What on earth are they plotting, I wonder...?")
   EndEventProcessing()
   0()
  EndIf()
  0()
 PAGE   2
  // condition: variable 1001 >= 26
  ShowMessageFace("",0,0,2,1)
  ShowMessage("\\n<Executive>You really helped us out during the attack on Grangold. Huh? You don't remember me?")
  ShowMessageFace("",0,0,2,2)
  ShowMessage("\\n<Executive>Oh right, I was in disguise when we met. Remember the bartender? That was me.")
  355("actor_label_jump")
  EndEventProcessing()
  DefineLabel("520")
  ShowMessageFace("lazarus3_fc1",1,0,2,3)
  ShowMessage("\\n<Lazarus>Looking forward to working together again, sometime.")
  EndEventProcessing()
  DefineLabel("522")
  ShowMessageFace("merlin_fc1",0,0,2,4)
  ShowMessage("\\n<Merlin>If we require assistance again in the future, we will be sure to contact you.")
  EndEventProcessing()
  0()



EVENT   248
 PAGE   1
  If(1,1001,0,25,2)
   ShowMessageFace("",0,0,2,1)
   ShowMessage("\\n<Executive>Your way of doing things is unrefined...")
   355("actor_label_jump")
   EndEventProcessing()
   DefineLabel("531")
   ShowMessageFace("saniria_fc2",0,0,2,2)
   ShowMessage("\\n<King of San Ilia>Indeed, very unrefined...")
   EndEventProcessing()
   0()
  EndIf()
  If(1,1001,0,26,1)
   ShowMessageFace("",0,0,2,3)
   ShowMessage("\\n<Executive>We made a lot of profit on that last job. Sounds like we'll be contracted to help rebuild Grangold, too.")
   ShowMessageFace("",0,0,2,4)
   ShowMessage("\\n<Executive>And it's all thanks to you guys. No, really, thanks for everything!")
   EndEventProcessing()
   0()
  EndIf()
  0()



EVENT   249
 PAGE   1
  If(1,1001,0,25,2)
   ShowMessageFace("",0,0,2,1)
   ShowMessage("\\n<Guard>Don Father is upstairs. Be polite, or else...")
   EndEventProcessing()
   0()
  EndIf()
  If(1,1001,0,26,1)
   355("actor_label_jump")
   ShowMessageFace("",0,0,2,2)
   ShowMessage("\\n<Guard>Don Father is on vacation. He's left you permission to go upstairs if you want.")
   EndEventProcessing()
   DefineLabel("520")
   ShowMessageFace("",0,0,2,3)
   ShowMessage("\\n<Guard>Boss!")
   ShowMessageFace("lazarus3_fc1",1,0,2,4)
   ShowMessage("\\n<Lazarus>Yo. Working hard, I see.")
   EndEventProcessing()
   DefineLabel("522")
   ShowMessageFace("",0,0,2,5)
   ShowMessage("\\n<Guard>Boss!")
   ShowMessageFace("merlin_fc1",0,0,2,6)
   ShowMessage("\\n<Merlin>Diligent as always, I see.")
   EndEventProcessing()
   0()
  EndIf()
  0()



EVENT   251
 PAGE   1
  ShowMessageFace("",0,0,2,1)
  ShowMessage("\\n<Gangster>You may be surprised, but I'm a university graduate. You can't get this far without a comprehension of economics.")
  ShowMessageFace("",0,0,2,2)
  ShowMessage("\\n<Gangster>I keep all the accounting in my head. If I put it on paper, it could become evidence...")
  355("actor_label_jump")
  EndEventProcessing()
  DefineLabel("66")
  ShowMessageFace("vgirl_fc1",2,0,2,3)
  ShowMessage("\\n<Vanilla>I see... Oops, I shouldn't learn stuff like that.")
  EndEventProcessing()
  DefineLabel("141")
  ShowMessageFace("mino_fc1",2,0,2,4)
  ShowMessage("\\n<Mina>That's definitely impossible for me...")
  EndEventProcessing()
  DefineLabel("520")
  ShowMessageFace("lazarus3_fc1",1,0,2,5)
  ShowMessage("\\n<Lazarus>Can't leave this kind of sensitive work to just anybody. I'm counting on you.")
  EndEventProcessing()
  DefineLabel("522")
  ShowMessageFace("merlin_fc1",0,0,2,6)
  ShowMessage("\\n<Merlin>Your skill is quite reassuring. Please, continue to do your best for the organization.")
  EndEventProcessing()
  0()



EVENT   252
 PAGE   1
  ShowMessageFace("",0,0,2,1)
  ShowMessage("\\n<Gangster>Whenever war happens, this occupation has a shortage of manpower. It's 'cause hot-blooded folks join the army...")
  355("actor_label_jump")
  EndEventProcessing()
  DefineLabel("171")
  ShowMessageFace("lizardboss_fc1",3,0,2,2)
  ShowMessage("\\n<Miranda>It's the same for bandits. They shouldn't give away their young lives like that.")
  EndEventProcessing()
  0()
 PAGE   2
  // condition: variable 1001 >= 26
  ShowMessageFace("",0,0,2,1)
  ShowMessage("\\n<Gangster>Lazarus is usually quite the good-natured guy, but... When I think back to the mafia war and how he punished the members of White Rose...")
  ShowMessageFace("",0,0,2,2)
  ShowMessage("\\n<Gangster>Urgh... I can't keep my food down... Ever since, I can't keep eye contact with the guy.")
  355("actor_label_jump")
  EndEventProcessing()
  0()



EVENT   253
 PAGE   1
  If(1,1001,0,25,2)
   ShowMessageFace("",0,0,2,1)
   ShowMessage("\\n<Executive>Yeah, all right, I get it. You properly disposed of the evidence, right?")
   ShowMessageFace("",0,0,2,2)
   ShowMessage("\\n<Priest>Yes, of course... I recovered it all...")
   355("actor_label_jump")
   EndEventProcessing()
   DefineLabel("531")
   ShowMessageFace("saniria_fc2",0,0,2,3)
   ShowMessage("\\n<King of San Ilia>Now, what evidence are you talking about?")
   ShowMessageFace("",0,0,2,4)
   ShowMessage("\\n<Priest>Y-your Holiness! That's isn't... I'm...")
   EndEventProcessing()
   0()
  EndIf()
  If(1,1001,0,26,1)
   ShowMessageFace("",0,0,2,5)
   ShowMessage("\\n<Executive>Us mobsters don't pay taxes. As far as the law is concerned, we're unemployed.")
   If(4,143,0)
    ShowMessageFace("eva_fc1",0,0,2,6)
    ShowMessage("\\n<Eva>Same here.")
    ShowMessageFace("",0,0,2,7)
    ShowMessage("\\n<Executive>No, you're legitimately unemployed, aren't you...?")
    ShowMessageFace("eva_fc1",2,0,2,8)
    ShowMessage("\\n<Eva>How can you tell!?")
    ShowMessageFace("",0,0,2,9)
    ShowMessage("\\n<Executive>If I couldn't tell these things at a glance, I wouldn't be sitting here.")
    0()
   EndIf()
   EndEventProcessing()
   0()
  EndIf()
  0()



EVENT   254
 PAGE   1
  If(4,531,0)
   ShowMessageFace("saniria_fc2",0,0,2,1)
   ShowMessage("\\n<King of San Ilia>......")
   ShowMessageFace("",0,0,2,2)
   ShowMessage("\\n<Priest>I-it's not like that, Your Holiness... This is...")
   ShowMessageFace("saniria_fc2",0,0,2,3)
   ShowMessage("\\n<King of San Ilia>There is no need to explain. We have already investigated you...")
   ShowMessageFace("",0,0,2,4)
   ShowMessage("\\n<Priest>N-no way...")
   0()
  Else()
   ShowMessageFace("",0,0,2,5)
   ShowMessage("\\n<Priest>H-hey! I'm in the middle of an important conversation right now!")
   ShowMessageFace("",0,0,2,6)
   ShowMessage("\\n<Executive>Ah, it's all right. They're from Elka's place.")
   ShowMessageFace("",0,0,2,7)
   ShowMessage("\\n<Priest>Ohh, Elka Company's... Please, keep it a secret that I was here. I have my own standing...")
   0()
  EndIf()
  0()
 PAGE   2
  // condition: variable 1001 >= 26
  0()



EVENT   255
 PAGE   1
  ShowMessageFace("",0,0,2,1)
  ShowMessage("\\n<Executive>I am in charge of the prostitution industry. Even my colleagues say that I exploit women...")
  ShowMessageFace("",0,0,2,2)
  ShowMessage("\\n<Executive>But do you know how much the percentage of venereal diseases has decreased ever since we took charge of it?")
  ShowMessageFace("",0,0,2,3)
  ShowMessage("\\n<Executive>If you leave prostitutes to themselves, venereal diseases spread... and they themselves shorten their lifespans a great deal.")
  ShowMessageFace("",0,0,2,4)
  ShowMessage("\\n<Executive>They are splendid goods, and we manage them. That's why saying that we abuse prostitutes is an unjustified criticism.")
  355("actor_label_jump")
  EndEventProcessing()
  DefineLabel("529")
  ShowMessageFace("sara_fc1",2,0,2,5)
  ShowMessage("\\n<Sara>Are you trying to say it's a necessary evil? That's a very selfish thesis...")
  EndEventProcessing()
  0()
 PAGE   2
  // condition: variable 1001 >= 26
  ShowMessageFace("",0,0,2,1)
  ShowMessage("\\n<Executive>Don's in hiding right now. We went a bit over the top with that last job.")
  355("actor_label_jump")
  EndEventProcessing()
  DefineLabel("520")
  ShowMessageFace("lazarus3_fc1",1,0,2,2)
  ShowMessage("\\n<Lazarus>I'm traveling with the hero's party, now. Brings me back.")
  ShowMessageFace("",0,0,2,3)
  ShowMessage("\\n<Executive>Don't die out there, Don. I'd rather not get dragged into a war over succession.")
  EndEventProcessing()
  0()



EVENT   256
 PAGE   1
  If(1,1001,0,25,2)
   ShowMessageFace("",0,0,2,1)
   ShowMessage("\\n<Executive>Villains are all over the place. No wonder this occupation won't disappear...")
   EndEventProcessing()
   0()
  EndIf()
  If(1,1001,0,26,1)
   ShowMessageFace("",0,0,2,2)
   ShowMessage("\\n<Executive>Only us executives know that Lazarus is the real Don Father. Merlin isn't just pulling strings behind the scenes, though. He works as the Don, too.")
   ShowMessageFace("",0,0,2,3)
   ShowMessage("\\n<Executive>...That said, it might be more accurate to say that the two of them combined make up \"Don Father.\"")
   355("actor_label_jump")
   EndEventProcessing()
   DefineLabel("520")
   ShowMessageFace("lazarus3_fc1",1,0,2,4)
   ShowMessage("\\n<Lazarus>Yeah, that sounds about right. We started this business together, after all.")
   EndEventProcessing()
   DefineLabel("522")
   ShowMessageFace("merlin_fc1",0,0,2,5)
   ShowMessage("\\n<Merlin>Personally, I feel Lazarus makes a better leader. But in public, I take on the role.")
   EndEventProcessing()
   0()
  EndIf()
  0()



EVENT   257
 PAGE   1
  ShowMessageFace("",0,0,2,1)
  ShowMessage("\\n<Maid>Not hearing anything in here is one of my duties. If it's for this exceptional pay, I shall close my eyes and ears.")
  355("actor_label_jump")
  EndEventProcessing()
  DefineLabel("64")
  ShowMessageFace("pramia_fc1",0,0,2,2)
  ShowMessage("\\n<Teeny>That's a maid's spirit... right?")
  EndEventProcessing()
  0()



EVENT   258
 PAGE   1
  ShowMessageFace("",0,0,2,1)
  ShowMessage("\\n<Maid>I thought that serving in the mafia emperor's own house would fill my life with bullets flying all over.")
  ShowMessageFace("",0,0,2,2)
  ShowMessage("\\n<Maid>But that never happens, not at all. It's somewhat anticlimactic. Don Father, too, is a calm and gentlemanly person.")
  0()



EVENT   259
 PAGE   1
  If(1,1001,0,25,2)
   ShowMessageFace("",0,0,2,1)
   ShowMessage("\\n<Executive>This town's casino is under my jurisdiction. I hope you enjoyed it.")
   355("actor_label_jump")
   EndEventProcessing()
   DefineLabel("121")
   ShowMessageFace("page65537_fc1",2,0,2,2)
   ShowMessage("\\n<Cornelia>Yes, very much!")
   EndEventProcessing()
   0()
  EndIf()
  If(1,1001,0,26,1)
   ShowMessageFace("",0,0,2,3)
   ShowMessage("\\n<Executive>With the world the way it is lately, more and more people are coming to throw their money away at our casino. Business is booming, but it's hard to be happy about it.")
   EndEventProcessing()
   0()
  EndIf()
  0()



EVENT   260
 PAGE   1
  ShowMessageFace("",0,0,2,1)
  ShowMessage("\\n<Executive>We don't use drugs. The only things we deal with are regular herbs.")
  ShowMessageFace("",0,0,2,2)
  ShowMessage("\\n<Executive>That is Don Father's policy. And Don Father's decisions are the rules of this world.")
  355("actor_label_jump")
  EndEventProcessing()
  DefineLabel("520")
  ShowMessageFace("ruka_fc1",0,0,2,3)
  ShowMessage("\\n<Luka>Why is it that don't you deal in drugs? Is it because you're still a good person deep down?")
  ShowMessageFace("lazarus3_fc1",0,0,2,4)
  ShowMessage("\\n<Lazarus>Shut up and listen, alright? As soon as you start dealing in drugs, you've basically started a war.")
  ShowMessageFace("lazarus3_fc1",0,0,2,5)
  ShowMessage("\\n<Lazarus>As long as you line their pockets, the authorities will let almost anything slide. Extortion, blackmail, illegal gambling dens, prostitution, you name it.")
  ShowMessageFace("lazarus3_fc1",0,0,2,6)
  ShowMessage("\\n<Lazarus>Yeah, you'll still have to pay for construction and all that like anybody else, but as long as you give them a little extra on the side, they'll overlook what you're doing.")
  ShowMessageFace("lazarus3_fc1",0,0,2,7)
  ShowMessage("\\n<Lazarus>But drugs are a different story altogether. They'll never let that slide.")
  ShowMessageFace("lazarus3_fc1",0,0,2,8)
  ShowMessage("\\n<Lazarus>As soon as they catch wind, you're at war with the authorities. Our organization is far too big for me to risk something like that.")
  ShowMessageFace("lazarus3_fc1",0,0,2,9)
  ShowMessage("\\n<Lazarus>That's why we don't deal in drugs. I don't want another mafia war.")
  EndEventProcessing()
  DefineLabel("522")
  ShowMessageFace("merlin_fc1",0,0,2,10)
  ShowMessage("\\n<Merlin>Drugs destroy whoever uses them. Not only that, they destroy the market and those who deal in them, as well.")
  ShowMessageFace("merlin_fc1",0,0,2,11)
  ShowMessage("\\n<Merlin>I believe Lazarus understands this well. He's focusing on a more sustainable business model.")
  EndEventProcessing()
  0()



EVENT   261
 PAGE   1
  // condition: switch 31 is ON
  0()



EVENT   262
 PAGE   1
  ShowMessageFace("",0,0,2,1)
  ShowMessage("\\n<Cat>Meow! Meow!")
  355("actor_label_jump")
  EndEventProcessing()
  DefineLabel("70")
  ShowMessageFace("nezumi_fc1",2,0,2,2)
  ShowMessage("\\n<Ratty>Hyaa!")
  EndEventProcessing()
  0()



EVENT   263
 PAGE   1
  ShowMessageFace("",0,0,2,1)
  ShowMessage("\\n<Gangster>Here you go, canned food for yooou. ♪")
  355("actor_label_jump")
  EndEventProcessing()
  DefineLabel("60")
  ShowMessageFace("dog_fc1",1,0,2,2)
  ShowMessage("\\n<Pochi>Give me canned food!")
  ShowMessageFace("",0,0,2,3)
  ShowMessage("\\n<Gangster>I got nothin' for ya.")
  ShowMessageFace("dog_fc1",0,0,2,4)
  ShowMessage("\\n<Pochi>......")
  ShowMessageFace("",0,0,2,5)
  ShowMessage("\\n<Gangster>...It can't be helped, you can have one.")
  EndEventProcessing()
  DefineLabel("222")
  ShowMessageFace("nekomata_fc1",0,0,2,6)
  ShowMessage("\\n<Tama>......")
  ShowMessageFace("",0,0,2,7)
  ShowMessage("\\n<Gangster>......")
  ShowMessageFace("nekomata_fc1",0,0,2,8)
  ShowMessage("\\n<Tama>......")
  ShowMessageFace("",0,0,2,9)
  ShowMessage("\\n<Gangster>All right, fine...")
  ShowMessageFace("nekomata_fc1",2,0,2,10)
  ShowMessage("\\n<Tama>Nya~♪")
  EndEventProcessing()
  0()



EVENT   265
 PAGE   1
  250(bytes(0x04,0x08,0x6f,0x3a,0x0c,0x52,0x50,0x47,0x3a,0x3a,0x53,0x45,0x08,0x3a,0x0a,0x40,0x6e,0x61,0x6d,0x65,0x49,0x22,0x0a,0x49,0x74,0x65,0x6d,0x31,0x06,0x3a,0x06,0x45,0x54,0x3a,0x0b,0x40,0x70,0x69,0x74,0x63,0x68,0x69,0x69,0x3a,0x0c,0x40,0x76,0x6f,0x6c,0x75,0x6d,0x65,0x69,0x55))
  ChangeSelfSwitch("A",0)
  ChangeInventory_Item(32,0,0,1)
  0()
 PAGE   2
  // condition: self-switch A is ON
  0()



EVENT   266
 PAGE   1
  250(bytes(0x04,0x08,0x6f,0x3a,0x0c,0x52,0x50,0x47,0x3a,0x3a,0x53,0x45,0x08,0x3a,0x0a,0x40,0x6e,0x61,0x6d,0x65,0x49,0x22,0x0a,0x49,0x74,0x65,0x6d,0x31,0x06,0x3a,0x06,0x45,0x54,0x3a,0x0b,0x40,0x70,0x69,0x74,0x63,0x68,0x69,0x69,0x3a,0x0c,0x40,0x76,0x6f,0x6c,0x75,0x6d,0x65,0x69,0x55))
  ChangeSelfSwitch("A",0)
  ChangeInventoryWeapon(896,0,0,1,false)
  0()
 PAGE   2
  // condition: self-switch A is ON
  0()



EVENT   267
 PAGE   1
  250(bytes(0x04,0x08,0x6f,0x3a,0x0c,0x52,0x50,0x47,0x3a,0x3a,0x53,0x45,0x08,0x3a,0x0a,0x40,0x6e,0x61,0x6d,0x65,0x49,0x22,0x0a,0x49,0x74,0x65,0x6d,0x31,0x06,0x3a,0x06,0x45,0x54,0x3a,0x0b,0x40,0x70,0x69,0x74,0x63,0x68,0x69,0x69,0x3a,0x0c,0x40,0x76,0x6f,0x6c,0x75,0x6d,0x65,0x69,0x55))
  ChangeSelfSwitch("A",0)
  ChangeInventoryWeapon(521,0,0,1,false)
  0()
 PAGE   2
  // condition: self-switch A is ON
  0()



EVENT   268
 PAGE   1
  250(bytes(0x04,0x08,0x6f,0x3a,0x0c,0x52,0x50,0x47,0x3a,0x3a,0x53,0x45,0x08,0x3a,0x0a,0x40,0x6e,0x61,0x6d,0x65,0x49,0x22,0x0a,0x49,0x74,0x65,0x6d,0x31,0x06,0x3a,0x06,0x45,0x54,0x3a,0x0b,0x40,0x70,0x69,0x74,0x63,0x68,0x69,0x69,0x3a,0x0c,0x40,0x76,0x6f,0x6c,0x75,0x6d,0x65,0x69,0x55))
  ChangeSelfSwitch("A",0)
  ChangeInventory_Item(331,0,0,1)
  0()
 PAGE   2
  // condition: self-switch A is ON
  0()


