﻿
DisplayName "Tartarus (Western Hellgondo)"



EVENT   1
 PAGE   1
  0()



EVENT   2
 PAGE   1
  0()
 PAGE   2
  // condition: switch 31 is ON
  0()



EVENT   3
 PAGE   1
  Wait(60)
  ShowMessageFace("tamamo_fc1",0,0,2,1)
  ShowMessage("\\n<Tamamo>The Ei-Ro Bridge is connected here too.\nLilith and the others drove a wedge here, and connected a passage for the body and mind...")
  ShowMessageFace("tamamo_fc1",0,0,2,2)
  ShowMessage("\\n<Tamamo>And on the other side is the parallel world ruled by the Dark Goddess... Hmm, so they opened a pathway for souls to follow.")
  ShowMessageFace("tamamo_fc1",0,0,2,3)
  ShowMessage("\\n<Tamamo>............")
  ShowMessageFace("tamamo_fc1",3,0,2,4)
  ShowMessage("\\n<Tamamo>...What's this?\nThere is another land between our world and theirs...")
  ShowMessageFace("tamamo_fc1",3,0,2,5)
  ShowMessage("\\n<Tamamo>What's more, this massiveness... It's on the scale of an asteroid. It appears as if an entire meteorite has been tailored into a relay station.")
  ShowMessageFace("tamamo_fc1",3,0,2,6)
  ShowMessage("\\n<Tamamo>Perhaps this isn't just the work of the Tamamo over there... In order to create this land, Kanon and Kanade were likely involved as well.")
  ShowMessageFace("tamamo_fc1",3,0,2,7)
  ShowMessage("\\n<Tamamo>Were it to fall here, even\\*\\fi my own\\*\\fi strength...")
  Wait(60)
  250(bytes(0x04,0x08,0x6f,0x3a,0x0c,0x52,0x50,0x47,0x3a,0x3a,0x53,0x45,0x08,0x3a,0x0a,0x40,0x6e,0x61,0x6d,0x65,0x49,0x22,0x0d,0x6d,0x6f,0x6e,0x5f,0x77,0x61,0x72,0x70,0x06,0x3a,0x06,0x45,0x54,0x3a,0x0b,0x40,0x70,0x69,0x74,0x63,0x68,0x69,0x69,0x3a,0x0c,0x40,0x76,0x6f,0x6c,0x75,0x6d,0x65,0x69,0x69))
  ChangeSwitch(31,31,0)
  Wait(60)
  205(2,bytes(0x04,0x08,0x6f,0x3a,0x13,0x52,0x50,0x47,0x3a,0x3a,0x4d,0x6f,0x76,0x65,0x52,0x6f,0x75,0x74,0x65,0x09,0x3a,0x0c,0x40,0x72,0x65,0x70,0x65,0x61,0x74,0x46,0x3a,0x0f,0x40,0x73,0x6b,0x69,0x70,0x70,0x61,0x62,0x6c,0x65,0x46,0x3a,0x0a,0x40,0x77,0x61,0x69,0x74,0x54,0x3a,0x0a,0x40,0x6c,0x69,0x73,0x74,0x5b,0x07,0x6f,0x3a,0x15,0x52,0x50,0x47,0x3a,0x3a,0x4d,0x6f,0x76,0x65,0x43,0x6f,0x6d,0x6d,0x61,0x6e,0x64,0x07,0x3a,0x0a,0x40,0x63,0x6f,0x64,0x65,0x69,0x07,0x3a,0x10,0x40,0x70,0x61,0x72,0x61,0x6d,0x65,0x74,0x65,0x72,0x73,0x5b,0x00,0x6f,0x3b,0x0a,0x07,0x3b,0x0b,0x69,0x00,0x3b,0x0c,0x5b,0x00))
  ShowMessageFace("hatibi_fc1",0,0,2,8)
  ShowMessage("\\n<Yao>...Are you well, Tamamo-sama?\nIf you have a moment, there's something you need to hear...")
  205(1,bytes(0x04,0x08,0x6f,0x3a,0x13,0x52,0x50,0x47,0x3a,0x3a,0x4d,0x6f,0x76,0x65,0x52,0x6f,0x75,0x74,0x65,0x09,0x3a,0x0c,0x40,0x72,0x65,0x70,0x65,0x61,0x74,0x46,0x3a,0x0f,0x40,0x73,0x6b,0x69,0x70,0x70,0x61,0x62,0x6c,0x65,0x46,0x3a,0x0a,0x40,0x77,0x61,0x69,0x74,0x54,0x3a,0x0a,0x40,0x6c,0x69,0x73,0x74,0x5b,0x07,0x6f,0x3a,0x15,0x52,0x50,0x47,0x3a,0x3a,0x4d,0x6f,0x76,0x65,0x43,0x6f,0x6d,0x6d,0x61,0x6e,0x64,0x07,0x3a,0x0a,0x40,0x63,0x6f,0x64,0x65,0x69,0x17,0x3a,0x10,0x40,0x70,0x61,0x72,0x61,0x6d,0x65,0x74,0x65,0x72,0x73,0x5b,0x00,0x6f,0x3b,0x0a,0x07,0x3b,0x0b,0x69,0x00,0x3b,0x0c,0x5b,0x00))
  ShowMessageFace("tamamo_fc1",3,0,2,9)
  ShowMessage("\\n<Tamamo>...It's the black tanuki.\nShe was probably influenced by Black Alice.")
  ShowMessageFace("hatibi_fc1",0,0,2,10)
  ShowMessage("\\n<Yao>It seems you were already aware.\nThe second great war between kitsune and tanuki is already upon us.")
  ShowMessageFace("tamamo_fc1",3,0,2,11)
  ShowMessage("\\n<Tamamo>If she's obtained powers from Black Alice, in addition to originally being a queen-class monster... The black tanuki will soon no longer be just an ordinary threat.")
  ShowMessageFace("tamamo_fc1",3,0,2,12)
  ShowMessage("\\n<Tamamo>There's no other choice, we'll have to turn to Luka to win this...")
  ShowMessageFace("hatibi_fc1",0,0,2,13)
  ShowMessage("\\n<Yao>Yes, as you command...")
  Wait(60)
  242(2)
  221()
  Wait(120)
  ChangeSwitch(31,31,1)
  TeleportPlayer(0,843,1,0,0,2)
  222()
  0()
